8108-274318-0006 /scratch/ravanelm/exp/librispeech/s5/fmllr/train_clean_100/data/feats_fmllr_train_clean_100.9.ark:529356703
60-121082-0066 /scratch/ravanelm/exp/librispeech/s5/fmllr/train_clean_100/data/feats_fmllr_train_clean_100.7.ark:380685753
6454-120342-0013 /scratch/ravanelm/exp/librispeech/s5/fmllr/train_clean_100/data/feats_fmllr_train_clean_100.8.ark:155788974
6848-252323-0033 /scratch/ravanelm/exp/librispeech/s5/fmllr/train_clean_100/data/feats_fmllr_train_clean_100.8.ark:344686272
460-172359-0053 /scratch/ravanelm/exp/librispeech/s5/fmllr/train_clean_100/data/feats_fmllr_train_clean_100.6.ark:209008472
5192-19397-0011 /scratch/ravanelm/exp/librispeech/s5/fmllr/train_clean_100/data/feats_fmllr_train_clean_100.6.ark:531260036
3947-13260-0034 /scratch/ravanelm/exp/librispeech/s5/fmllr/train_clean_100/data/feats_fmllr_train_clean_100.5.ark:148175435
5652-39938-0063 /scratch/ravanelm/exp/librispeech/s5/fmllr/train_clean_100/data/feats_fmllr_train_clean_100.7.ark:154121121
200-126784-0015 /scratch/ravanelm/exp/librispeech/s5/fmllr/train_clean_100/data/feats_fmllr_train_clean_100.2.ark:337474572
2989-138035-0068 /scratch/ravanelm/exp/librispeech/s5/fmllr/train_clean_100/data/feats_fmllr_train_clean_100.4.ark:36858253
5703-47212-0000 /scratch/ravanelm/exp/librispeech/s5/fmllr/train_clean_100/data/feats_fmllr_train_clean_100.7.ark:216182746
7226-86965-0001 /scratch/ravanelm/exp/librispeech/s5/fmllr/train_clean_100/data/feats_fmllr_train_clean_100.9.ark:36207
196-122152-0017 /scratch/ravanelm/exp/librispeech/s5/fmllr/train_clean_100/data/feats_fmllr_train_clean_100.2.ark:223185288
1088-134315-0003 /scratch/ravanelm/exp/librispeech/s5/fmllr/train_clean_100/data/feats_fmllr_train_clean_100.1.ark:109639423
1447-130551-0007 /scratch/ravanelm/exp/librispeech/s5/fmllr/train_clean_100/data/feats_fmllr_train_clean_100.1.ark:369179731
4088-158079-0006 /scratch/ravanelm/exp/librispeech/s5/fmllr/train_clean_100/data/feats_fmllr_train_clean_100.5.ark:376028911
307-127540-0020 /scratch/ravanelm/exp/librispeech/s5/fmllr/train_clean_100/data/feats_fmllr_train_clean_100.4.ark:83159375
2836-5355-0048 /scratch/ravanelm/exp/librispeech/s5/fmllr/train_clean_100/data/feats_fmllr_train_clean_100.3.ark:432581172
8123-275209-0020 /scratch/ravanelm/exp/librispeech/s5/fmllr/train_clean_100/data/feats_fmllr_train_clean_100.9.ark:562574847
8975-270782-0112 /scratch/ravanelm/exp/librispeech/s5/fmllr/train_clean_100/data/feats_fmllr_train_clean_100.10.ark:548351201
7067-76048-0060 /scratch/ravanelm/exp/librispeech/s5/fmllr/train_clean_100/data/feats_fmllr_train_clean_100.8.ark:466797872
1040-133433-0043 /scratch/ravanelm/exp/librispeech/s5/fmllr/train_clean_100/data/feats_fmllr_train_clean_100.1.ark:47129343
8770-295462-0004 /scratch/ravanelm/exp/librispeech/s5/fmllr/train_clean_100/data/feats_fmllr_train_clean_100.10.ark:407676635
481-123720-0074 /scratch/ravanelm/exp/librispeech/s5/fmllr/train_clean_100/data/feats_fmllr_train_clean_100.6.ark:311576175
8797-294123-0064 /scratch/ravanelm/exp/librispeech/s5/fmllr/train_clean_100/data/feats_fmllr_train_clean_100.10.ark:444083867
3168-173564-0043 /scratch/ravanelm/exp/librispeech/s5/fmllr/train_clean_100/data/feats_fmllr_train_clean_100.4.ark:143806970
211-122425-0080 /scratch/ravanelm/exp/librispeech/s5/fmllr/train_clean_100/data/feats_fmllr_train_clean_100.2.ark:451198022
248-130652-0036 /scratch/ravanelm/exp/librispeech/s5/fmllr/train_clean_100/data/feats_fmllr_train_clean_100.3.ark:189342891
8419-293473-0020 /scratch/ravanelm/exp/librispeech/s5/fmllr/train_clean_100/data/feats_fmllr_train_clean_100.10.ark:198120915
1246-135815-0017 /scratch/ravanelm/exp/librispeech/s5/fmllr/train_clean_100/data/feats_fmllr_train_clean_100.1.ark:248028575
198-209-0014 /scratch/ravanelm/exp/librispeech/s5/fmllr/train_clean_100/data/feats_fmllr_train_clean_100.2.ark:301448074
5192-19396-0026 /scratch/ravanelm/exp/librispeech/s5/fmllr/train_clean_100/data/feats_fmllr_train_clean_100.6.ark:528162838
6019-3185-0106 /scratch/ravanelm/exp/librispeech/s5/fmllr/train_clean_100/data/feats_fmllr_train_clean_100.7.ark:426656911
6147-34607-0032 /scratch/ravanelm/exp/librispeech/s5/fmllr/train_clean_100/data/feats_fmllr_train_clean_100.7.ark:522171092
7148-59157-0028 /scratch/ravanelm/exp/librispeech/s5/fmllr/train_clean_100/data/feats_fmllr_train_clean_100.8.ark:520825732
2007-149877-0028 /scratch/ravanelm/exp/librispeech/s5/fmllr/train_clean_100/data/feats_fmllr_train_clean_100.2.ark:383979286
7367-86737-0032 /scratch/ravanelm/exp/librispeech/s5/fmllr/train_clean_100/data/feats_fmllr_train_clean_100.9.ark:116648768
1034-121119-0074 /scratch/ravanelm/exp/librispeech/s5/fmllr/train_clean_100/data/feats_fmllr_train_clean_100.1.ark:35778623
40-121026-0010 /scratch/ravanelm/exp/librispeech/s5/fmllr/train_clean_100/data/feats_fmllr_train_clean_100.5.ark:212341359
5808-48608-0023 /scratch/ravanelm/exp/librispeech/s5/fmllr/train_clean_100/data/feats_fmllr_train_clean_100.7.ark:301269434
5393-19219-0018 /scratch/ravanelm/exp/librispeech/s5/fmllr/train_clean_100/data/feats_fmllr_train_clean_100.7.ark:39893452
248-130652-0006 /scratch/ravanelm/exp/librispeech/s5/fmllr/train_clean_100/data/feats_fmllr_train_clean_100.3.ark:182808681
7780-274562-0004 /scratch/ravanelm/exp/librispeech/s5/fmllr/train_clean_100/data/feats_fmllr_train_clean_100.9.ark:278945389
8108-274318-0020 /scratch/ravanelm/exp/librispeech/s5/fmllr/train_clean_100/data/feats_fmllr_train_clean_100.9.ark:532566911
4362-15663-0035 /scratch/ravanelm/exp/librispeech/s5/fmllr/train_clean_100/data/feats_fmllr_train_clean_100.6.ark:7881581
3526-176653-0010 /scratch/ravanelm/exp/librispeech/s5/fmllr/train_clean_100/data/feats_fmllr_train_clean_100.4.ark:473368561
1246-124548-0048 /scratch/ravanelm/exp/librispeech/s5/fmllr/train_clean_100/data/feats_fmllr_train_clean_100.1.ark:234796223
3947-13262-0000 /scratch/ravanelm/exp/librispeech/s5/fmllr/train_clean_100/data/feats_fmllr_train_clean_100.5.ark:151900442
6454-120342-0020 /scratch/ravanelm/exp/librispeech/s5/fmllr/train_clean_100/data/feats_fmllr_train_clean_100.8.ark:157295278
831-130739-0062 /scratch/ravanelm/exp/librispeech/s5/fmllr/train_clean_100/data/feats_fmllr_train_clean_100.10.ark:94196692
5688-41232-0074 /scratch/ravanelm/exp/librispeech/s5/fmllr/train_clean_100/data/feats_fmllr_train_clean_100.7.ark:202396473
2910-131096-0054 /scratch/ravanelm/exp/librispeech/s5/fmllr/train_clean_100/data/feats_fmllr_train_clean_100.3.ark:512344564
2514-149482-0022 /scratch/ravanelm/exp/librispeech/s5/fmllr/train_clean_100/data/feats_fmllr_train_clean_100.3.ark:227112561
3723-171115-0035 /scratch/ravanelm/exp/librispeech/s5/fmllr/train_clean_100/data/feats_fmllr_train_clean_100.4.ark:558899656
332-128985-0023 /scratch/ravanelm/exp/librispeech/s5/fmllr/train_clean_100/data/feats_fmllr_train_clean_100.4.ark:348364626
6147-34605-0030 /scratch/ravanelm/exp/librispeech/s5/fmllr/train_clean_100/data/feats_fmllr_train_clean_100.7.ark:506466434
7067-76047-0012 /scratch/ravanelm/exp/librispeech/s5/fmllr/train_clean_100/data/feats_fmllr_train_clean_100.8.ark:445475794
3723-171115-0048 /scratch/ravanelm/exp/librispeech/s5/fmllr/train_clean_100/data/feats_fmllr_train_clean_100.4.ark:561760872
6836-76549-0006 /scratch/ravanelm/exp/librispeech/s5/fmllr/train_clean_100/data/feats_fmllr_train_clean_100.8.ark:324241114
83-9960-0055 /scratch/ravanelm/exp/librispeech/s5/fmllr/train_clean_100/data/feats_fmllr_train_clean_100.10.ark:82213591
83-11691-0020 /scratch/ravanelm/exp/librispeech/s5/fmllr/train_clean_100/data/feats_fmllr_train_clean_100.10.ark:62314258
2952-410-0049 /scratch/ravanelm/exp/librispeech/s5/fmllr/train_clean_100/data/feats_fmllr_train_clean_100.3.ark:567456546
7367-86737-0078 /scratch/ravanelm/exp/librispeech/s5/fmllr/train_clean_100/data/feats_fmllr_train_clean_100.9.ark:126101394
1970-10594-0019 /scratch/ravanelm/exp/librispeech/s5/fmllr/train_clean_100/data/feats_fmllr_train_clean_100.2.ark:262149795
3486-166424-0014 /scratch/ravanelm/exp/librispeech/s5/fmllr/train_clean_100/data/feats_fmllr_train_clean_100.4.ark:436994481
4195-186236-0010 /scratch/ravanelm/exp/librispeech/s5/fmllr/train_clean_100/data/feats_fmllr_train_clean_100.5.ark:457624673
887-123290-0024 /scratch/ravanelm/exp/librispeech/s5/fmllr/train_clean_100/data/feats_fmllr_train_clean_100.10.ark:490442234
229-130880-0056 /scratch/ravanelm/exp/librispeech/s5/fmllr/train_clean_100/data/feats_fmllr_train_clean_100.3.ark:51252464
311-124404-0057 /scratch/ravanelm/exp/librispeech/s5/fmllr/train_clean_100/data/feats_fmllr_train_clean_100.4.ark:98103558
5514-19193-0030 /scratch/ravanelm/exp/librispeech/s5/fmllr/train_clean_100/data/feats_fmllr_train_clean_100.7.ark:106485355
4088-158077-0038 /scratch/ravanelm/exp/librispeech/s5/fmllr/train_clean_100/data/feats_fmllr_train_clean_100.5.ark:362159887
5652-39938-0062 /scratch/ravanelm/exp/librispeech/s5/fmllr/train_clean_100/data/feats_fmllr_train_clean_100.7.ark:153969890
7178-34644-0013 /scratch/ravanelm/exp/librispeech/s5/fmllr/train_clean_100/data/feats_fmllr_train_clean_100.8.ark:542328316
374-180298-0006 /scratch/ravanelm/exp/librispeech/s5/fmllr/train_clean_100/data/feats_fmllr_train_clean_100.5.ark:1323402
2764-36616-0026 /scratch/ravanelm/exp/librispeech/s5/fmllr/train_clean_100/data/feats_fmllr_train_clean_100.3.ark:366693665
7113-86041-0052 /scratch/ravanelm/exp/librispeech/s5/fmllr/train_clean_100/data/feats_fmllr_train_clean_100.8.ark:502211995
1447-17506-0017 /scratch/ravanelm/exp/librispeech/s5/fmllr/train_clean_100/data/feats_fmllr_train_clean_100.1.ark:383245569
4014-186175-0020 /scratch/ravanelm/exp/librispeech/s5/fmllr/train_clean_100/data/feats_fmllr_train_clean_100.5.ark:237590834
27-124992-0069 /scratch/ravanelm/exp/librispeech/s5/fmllr/train_clean_100/data/feats_fmllr_train_clean_100.3.ark:360380398
4137-11701-0030 /scratch/ravanelm/exp/librispeech/s5/fmllr/train_clean_100/data/feats_fmllr_train_clean_100.5.ark:406600241
4406-16883-0040 /scratch/ravanelm/exp/librispeech/s5/fmllr/train_clean_100/data/feats_fmllr_train_clean_100.6.ark:68449673
6209-34600-0007 /scratch/ravanelm/exp/librispeech/s5/fmllr/train_clean_100/data/feats_fmllr_train_clean_100.7.ark:557611485
32-21625-0002 /scratch/ravanelm/exp/librispeech/s5/fmllr/train_clean_100/data/feats_fmllr_train_clean_100.4.ark:157971985
3259-158083-0015 /scratch/ravanelm/exp/librispeech/s5/fmllr/train_clean_100/data/feats_fmllr_train_clean_100.4.ark:303470733
8123-275209-0027 /scratch/ravanelm/exp/librispeech/s5/fmllr/train_clean_100/data/feats_fmllr_train_clean_100.9.ark:563972671
5514-19193-0028 /scratch/ravanelm/exp/librispeech/s5/fmllr/train_clean_100/data/feats_fmllr_train_clean_100.7.ark:106062413
1992-141719-0043 /scratch/ravanelm/exp/librispeech/s5/fmllr/train_clean_100/data/feats_fmllr_train_clean_100.2.ark:315749994
1841-159771-0019 /scratch/ravanelm/exp/librispeech/s5/fmllr/train_clean_100/data/feats_fmllr_train_clean_100.2.ark:100240782
32-4137-0026 /scratch/ravanelm/exp/librispeech/s5/fmllr/train_clean_100/data/feats_fmllr_train_clean_100.4.ark:174479296
5322-7679-0025 /scratch/ravanelm/exp/librispeech/s5/fmllr/train_clean_100/data/feats_fmllr_train_clean_100.6.ark:560269910
6476-57446-0062 /scratch/ravanelm/exp/librispeech/s5/fmllr/train_clean_100/data/feats_fmllr_train_clean_100.8.ark:181307147
5322-7680-0021 /scratch/ravanelm/exp/librispeech/s5/fmllr/train_clean_100/data/feats_fmllr_train_clean_100.6.ark:567682000
3240-131232-0014 /scratch/ravanelm/exp/librispeech/s5/fmllr/train_clean_100/data/feats_fmllr_train_clean_100.4.ark:271491861
6880-216547-0060 /scratch/ravanelm/exp/librispeech/s5/fmllr/train_clean_100/data/feats_fmllr_train_clean_100.8.ark:366838684
254-12312-0014 /scratch/ravanelm/exp/librispeech/s5/fmllr/train_clean_100/data/feats_fmllr_train_clean_100.3.ark:272451795
8226-274369-0052 /scratch/ravanelm/exp/librispeech/s5/fmllr/train_clean_100/data/feats_fmllr_train_clean_100.10.ark:20750033
7226-86964-0015 /scratch/ravanelm/exp/librispeech/s5/fmllr/train_clean_100/data/feats_fmllr_train_clean_100.8.ark:591025284
6818-68772-0012 /scratch/ravanelm/exp/librispeech/s5/fmllr/train_clean_100/data/feats_fmllr_train_clean_100.8.ark:284726450
78-369-0012 /scratch/ravanelm/exp/librispeech/s5/fmllr/train_clean_100/data/feats_fmllr_train_clean_100.9.ark:337797502
887-123290-0027 /scratch/ravanelm/exp/librispeech/s5/fmllr/train_clean_100/data/feats_fmllr_train_clean_100.10.ark:491165527
2436-2476-0019 /scratch/ravanelm/exp/librispeech/s5/fmllr/train_clean_100/data/feats_fmllr_train_clean_100.3.ark:153487957
1263-141777-0008 /scratch/ravanelm/exp/librispeech/s5/fmllr/train_clean_100/data/feats_fmllr_train_clean_100.1.ark:289815669
1723-141149-0096 /scratch/ravanelm/exp/librispeech/s5/fmllr/train_clean_100/data/feats_fmllr_train_clean_100.2.ark:41707278
8747-293952-0018 /scratch/ravanelm/exp/librispeech/s5/fmllr/train_clean_100/data/feats_fmllr_train_clean_100.10.ark:388172603
4051-11217-0027 /scratch/ravanelm/exp/librispeech/s5/fmllr/train_clean_100/data/feats_fmllr_train_clean_100.5.ark:340544572
4813-248638-0012 /scratch/ravanelm/exp/librispeech/s5/fmllr/train_clean_100/data/feats_fmllr_train_clean_100.6.ark:316168452
7367-86737-0006 /scratch/ravanelm/exp/librispeech/s5/fmllr/train_clean_100/data/feats_fmllr_train_clean_100.9.ark:111502202
4214-7146-0049 /scratch/ravanelm/exp/librispeech/s5/fmllr/train_clean_100/data/feats_fmllr_train_clean_100.5.ark:481999613
8465-246940-0022 /scratch/ravanelm/exp/librispeech/s5/fmllr/train_clean_100/data/feats_fmllr_train_clean_100.10.ark:226781779
1246-135815-0018 /scratch/ravanelm/exp/librispeech/s5/fmllr/train_clean_100/data/feats_fmllr_train_clean_100.1.ark:248275967
5049-25947-0086 /scratch/ravanelm/exp/librispeech/s5/fmllr/train_clean_100/data/feats_fmllr_train_clean_100.6.ark:468712341
5456-62014-0003 /scratch/ravanelm/exp/librispeech/s5/fmllr/train_clean_100/data/feats_fmllr_train_clean_100.7.ark:57363494
3242-67153-0034 /scratch/ravanelm/exp/librispeech/s5/fmllr/train_clean_100/data/feats_fmllr_train_clean_100.4.ark:283813938
3235-28433-0036 /scratch/ravanelm/exp/librispeech/s5/fmllr/train_clean_100/data/feats_fmllr_train_clean_100.4.ark:242126692
446-123501-0020 /scratch/ravanelm/exp/librispeech/s5/fmllr/train_clean_100/data/feats_fmllr_train_clean_100.6.ark:135396053
8425-292520-0007 /scratch/ravanelm/exp/librispeech/s5/fmllr/train_clean_100/data/feats_fmllr_train_clean_100.10.ark:217398579
8630-305213-0004 /scratch/ravanelm/exp/librispeech/s5/fmllr/train_clean_100/data/feats_fmllr_train_clean_100.10.ark:348541875
7278-104730-0019 /scratch/ravanelm/exp/librispeech/s5/fmllr/train_clean_100/data/feats_fmllr_train_clean_100.9.ark:36287216
19-198-0026 /scratch/ravanelm/exp/librispeech/s5/fmllr/train_clean_100/data/feats_fmllr_train_clean_100.2.ark:167193895
7794-295948-0012 /scratch/ravanelm/exp/librispeech/s5/fmllr/train_clean_100/data/feats_fmllr_train_clean_100.9.ark:313951021
8063-274117-0022 /scratch/ravanelm/exp/librispeech/s5/fmllr/train_clean_100/data/feats_fmllr_train_clean_100.9.ark:453447647
909-131045-0015 /scratch/ravanelm/exp/librispeech/s5/fmllr/train_clean_100/data/feats_fmllr_train_clean_100.10.ark:566382607
4014-186175-0015 /scratch/ravanelm/exp/librispeech/s5/fmllr/train_clean_100/data/feats_fmllr_train_clean_100.5.ark:236923634
8629-261140-0022 /scratch/ravanelm/exp/librispeech/s5/fmllr/train_clean_100/data/feats_fmllr_train_clean_100.10.ark:332182899
3982-182255-0042 /scratch/ravanelm/exp/librispeech/s5/fmllr/train_clean_100/data/feats_fmllr_train_clean_100.5.ark:185365383
298-126791-0022 /scratch/ravanelm/exp/librispeech/s5/fmllr/train_clean_100/data/feats_fmllr_train_clean_100.4.ark:4543578
307-127535-0006 /scratch/ravanelm/exp/librispeech/s5/fmllr/train_clean_100/data/feats_fmllr_train_clean_100.4.ark:63783413
8425-246962-0021 /scratch/ravanelm/exp/librispeech/s5/fmllr/train_clean_100/data/feats_fmllr_train_clean_100.10.ark:202804819
3879-174923-0039 /scratch/ravanelm/exp/librispeech/s5/fmllr/train_clean_100/data/feats_fmllr_train_clean_100.5.ark:109776324
5339-14134-0023 /scratch/ravanelm/exp/librispeech/s5/fmllr/train_clean_100/data/feats_fmllr_train_clean_100.6.ark:585179751
1455-138263-0019 /scratch/ravanelm/exp/librispeech/s5/fmllr/train_clean_100/data/feats_fmllr_train_clean_100.1.ark:403493584
4813-248638-0017 /scratch/ravanelm/exp/librispeech/s5/fmllr/train_clean_100/data/feats_fmllr_train_clean_100.6.ark:316814052
4406-16883-0039 /scratch/ravanelm/exp/librispeech/s5/fmllr/train_clean_100/data/feats_fmllr_train_clean_100.6.ark:68248042
5678-43301-0000 /scratch/ravanelm/exp/librispeech/s5/fmllr/train_clean_100/data/feats_fmllr_train_clean_100.7.ark:154819965
2989-138035-0012 /scratch/ravanelm/exp/librispeech/s5/fmllr/train_clean_100/data/feats_fmllr_train_clean_100.4.ark:28288781
2514-149482-0072 /scratch/ravanelm/exp/librispeech/s5/fmllr/train_clean_100/data/feats_fmllr_train_clean_100.3.ark:238131921
5390-30096-0004 /scratch/ravanelm/exp/librispeech/s5/fmllr/train_clean_100/data/feats_fmllr_train_clean_100.7.ark:11038650
8468-294887-0007 /scratch/ravanelm/exp/librispeech/s5/fmllr/train_clean_100/data/feats_fmllr_train_clean_100.10.ark:256082227
460-172359-0061 /scratch/ravanelm/exp/librispeech/s5/fmllr/train_clean_100/data/feats_fmllr_train_clean_100.6.ark:210409840
332-128985-0085 /scratch/ravanelm/exp/librispeech/s5/fmllr/train_clean_100/data/feats_fmllr_train_clean_100.4.ark:360866708
3436-172171-0005 /scratch/ravanelm/exp/librispeech/s5/fmllr/train_clean_100/data/feats_fmllr_train_clean_100.4.ark:397885585
1624-168623-0038 /scratch/ravanelm/exp/librispeech/s5/fmllr/train_clean_100/data/feats_fmllr_train_clean_100.1.ark:546679516
5561-39621-0042 /scratch/ravanelm/exp/librispeech/s5/fmllr/train_clean_100/data/feats_fmllr_train_clean_100.7.ark:113907323
7078-271888-0002 /scratch/ravanelm/exp/librispeech/s5/fmllr/train_clean_100/data/feats_fmllr_train_clean_100.8.ark:467399568
1578-6379-0004 /scratch/ravanelm/exp/librispeech/s5/fmllr/train_clean_100/data/feats_fmllr_train_clean_100.1.ark:495956116
8123-275193-0025 /scratch/ravanelm/exp/librispeech/s5/fmllr/train_clean_100/data/feats_fmllr_train_clean_100.9.ark:557426911
40-121026-0015 /scratch/ravanelm/exp/librispeech/s5/fmllr/train_clean_100/data/feats_fmllr_train_clean_100.5.ark:213112229
1455-134435-0044 /scratch/ravanelm/exp/librispeech/s5/fmllr/train_clean_100/data/feats_fmllr_train_clean_100.1.ark:395011056
4051-10927-0021 /scratch/ravanelm/exp/librispeech/s5/fmllr/train_clean_100/data/feats_fmllr_train_clean_100.5.ark:335088958
4830-25898-0035 /scratch/ravanelm/exp/librispeech/s5/fmllr/train_clean_100/data/feats_fmllr_train_clean_100.6.ark:344914624
8630-305213-0007 /scratch/ravanelm/exp/librispeech/s5/fmllr/train_clean_100/data/feats_fmllr_train_clean_100.10.ark:349089651
887-123291-0031 /scratch/ravanelm/exp/librispeech/s5/fmllr/train_clean_100/data/feats_fmllr_train_clean_100.10.ark:498471283
6437-66173-0054 /scratch/ravanelm/exp/librispeech/s5/fmllr/train_clean_100/data/feats_fmllr_train_clean_100.8.ark:142226422
2911-7601-0048 /scratch/ravanelm/exp/librispeech/s5/fmllr/train_clean_100/data/feats_fmllr_train_clean_100.3.ark:544852204
4137-11702-0031 /scratch/ravanelm/exp/librispeech/s5/fmllr/train_clean_100/data/feats_fmllr_train_clean_100.5.ark:417639195
1455-138263-0006 /scratch/ravanelm/exp/librispeech/s5/fmllr/train_clean_100/data/feats_fmllr_train_clean_100.1.ark:401432208
3214-167607-0034 /scratch/ravanelm/exp/librispeech/s5/fmllr/train_clean_100/data/feats_fmllr_train_clean_100.4.ark:203231552
4362-15663-0069 /scratch/ravanelm/exp/librispeech/s5/fmllr/train_clean_100/data/feats_fmllr_train_clean_100.6.ark:15611595
374-180299-0002 /scratch/ravanelm/exp/librispeech/s5/fmllr/train_clean_100/data/feats_fmllr_train_clean_100.5.ark:14465004
8123-275216-0043 /scratch/ravanelm/exp/librispeech/s5/fmllr/train_clean_100/data/feats_fmllr_train_clean_100.10.ark:9650033
4018-103416-0002 /scratch/ravanelm/exp/librispeech/s5/fmllr/train_clean_100/data/feats_fmllr_train_clean_100.5.ark:258948818
328-129766-0039 /scratch/ravanelm/exp/librispeech/s5/fmllr/train_clean_100/data/feats_fmllr_train_clean_100.4.ark:332125733
403-128339-0002 /scratch/ravanelm/exp/librispeech/s5/fmllr/train_clean_100/data/feats_fmllr_train_clean_100.5.ark:289705487
911-128684-0083 /scratch/ravanelm/exp/librispeech/s5/fmllr/train_clean_100/data/feats_fmllr_train_clean_100.10.ark:589763999
6531-61334-0008 /scratch/ravanelm/exp/librispeech/s5/fmllr/train_clean_100/data/feats_fmllr_train_clean_100.8.ark:218096608
4640-19187-0026 /scratch/ravanelm/exp/librispeech/s5/fmllr/train_clean_100/data/feats_fmllr_train_clean_100.6.ark:222233775
7078-271888-0047 /scratch/ravanelm/exp/librispeech/s5/fmllr/train_clean_100/data/feats_fmllr_train_clean_100.8.ark:477407888
7511-102419-0028 /scratch/ravanelm/exp/librispeech/s5/fmllr/train_clean_100/data/feats_fmllr_train_clean_100.9.ark:212427821
7635-105409-0042 /scratch/ravanelm/exp/librispeech/s5/fmllr/train_clean_100/data/feats_fmllr_train_clean_100.9.ark:262075181
412-126975-0077 /scratch/ravanelm/exp/librispeech/s5/fmllr/train_clean_100/data/feats_fmllr_train_clean_100.5.ark:396295393
2416-152139-0005 /scratch/ravanelm/exp/librispeech/s5/fmllr/train_clean_100/data/feats_fmllr_train_clean_100.3.ark:134897053
1069-133709-0019 /scratch/ravanelm/exp/librispeech/s5/fmllr/train_clean_100/data/feats_fmllr_train_clean_100.1.ark:70294847
8468-286673-0002 /scratch/ravanelm/exp/librispeech/s5/fmllr/train_clean_100/data/feats_fmllr_train_clean_100.10.ark:246657555
7148-82991-0004 /scratch/ravanelm/exp/librispeech/s5/fmllr/train_clean_100/data/feats_fmllr_train_clean_100.8.ark:532372170
229-130880-0033 /scratch/ravanelm/exp/librispeech/s5/fmllr/train_clean_100/data/feats_fmllr_train_clean_100.3.ark:46272231
5808-48608-0052 /scratch/ravanelm/exp/librispeech/s5/fmllr/train_clean_100/data/feats_fmllr_train_clean_100.7.ark:307294653
481-123720-0035 /scratch/ravanelm/exp/librispeech/s5/fmllr/train_clean_100/data/feats_fmllr_train_clean_100.6.ark:304109686
4195-186237-0010 /scratch/ravanelm/exp/librispeech/s5/fmllr/train_clean_100/data/feats_fmllr_train_clean_100.5.ark:462405601
8088-284756-0109 /scratch/ravanelm/exp/librispeech/s5/fmllr/train_clean_100/data/feats_fmllr_train_clean_100.9.ark:477624383
196-122152-0018 /scratch/ravanelm/exp/librispeech/s5/fmllr/train_clean_100/data/feats_fmllr_train_clean_100.2.ark:223412519
2764-36616-0010 /scratch/ravanelm/exp/librispeech/s5/fmllr/train_clean_100/data/feats_fmllr_train_clean_100.3.ark:363403889
2817-142371-0047 /scratch/ravanelm/exp/librispeech/s5/fmllr/train_clean_100/data/feats_fmllr_train_clean_100.3.ark:394892164
7402-90848-0029 /scratch/ravanelm/exp/librispeech/s5/fmllr/train_clean_100/data/feats_fmllr_train_clean_100.9.ark:151116283
1069-133699-0001 /scratch/ravanelm/exp/librispeech/s5/fmllr/train_clean_100/data/feats_fmllr_train_clean_100.1.ark:54068031
2843-152918-0077 /scratch/ravanelm/exp/librispeech/s5/fmllr/train_clean_100/data/feats_fmllr_train_clean_100.3.ark:449859178
5789-70653-0013 /scratch/ravanelm/exp/librispeech/s5/fmllr/train_clean_100/data/feats_fmllr_train_clean_100.7.ark:291179497
2002-139469-0053 /scratch/ravanelm/exp/librispeech/s5/fmllr/train_clean_100/data/feats_fmllr_train_clean_100.2.ark:353582742
4018-107338-0006 /scratch/ravanelm/exp/librispeech/s5/fmllr/train_clean_100/data/feats_fmllr_train_clean_100.5.ark:276445490
2817-142371-0041 /scratch/ravanelm/exp/librispeech/s5/fmllr/train_clean_100/data/feats_fmllr_train_clean_100.3.ark:393654052
1963-142776-0030 /scratch/ravanelm/exp/librispeech/s5/fmllr/train_clean_100/data/feats_fmllr_train_clean_100.2.ark:250361815
2843-152918-0013 /scratch/ravanelm/exp/librispeech/s5/fmllr/train_clean_100/data/feats_fmllr_train_clean_100.3.ark:436536170
32-21634-0012 /scratch/ravanelm/exp/librispeech/s5/fmllr/train_clean_100/data/feats_fmllr_train_clean_100.4.ark:168174497
8797-294123-0070 /scratch/ravanelm/exp/librispeech/s5/fmllr/train_clean_100/data/feats_fmllr_train_clean_100.10.ark:445261659
7264-92316-0024 /scratch/ravanelm/exp/librispeech/s5/fmllr/train_clean_100/data/feats_fmllr_train_clean_100.9.ark:28774085
4137-11701-0036 /scratch/ravanelm/exp/librispeech/s5/fmllr/train_clean_100/data/feats_fmllr_train_clean_100.5.ark:407804907
2764-36616-0003 /scratch/ravanelm/exp/librispeech/s5/fmllr/train_clean_100/data/feats_fmllr_train_clean_100.3.ark:362101112
6880-216547-0087 /scratch/ravanelm/exp/librispeech/s5/fmllr/train_clean_100/data/feats_fmllr_train_clean_100.8.ark:372536188
6563-285357-0012 /scratch/ravanelm/exp/librispeech/s5/fmllr/train_clean_100/data/feats_fmllr_train_clean_100.8.ark:240040068
5750-35690-0016 /scratch/ravanelm/exp/librispeech/s5/fmllr/train_clean_100/data/feats_fmllr_train_clean_100.7.ark:248264213
103-1241-0041 /scratch/ravanelm/exp/librispeech/s5/fmllr/train_clean_100/data/feats_fmllr_train_clean_100.1.ark:22172645
1183-133256-0010 /scratch/ravanelm/exp/librispeech/s5/fmllr/train_clean_100/data/feats_fmllr_train_clean_100.1.ark:198673695
3699-175950-0022 /scratch/ravanelm/exp/librispeech/s5/fmllr/train_clean_100/data/feats_fmllr_train_clean_100.4.ark:531818627
1737-142397-0028 /scratch/ravanelm/exp/librispeech/s5/fmllr/train_clean_100/data/feats_fmllr_train_clean_100.2.ark:54594254
3699-175950-0024 /scratch/ravanelm/exp/librispeech/s5/fmllr/train_clean_100/data/feats_fmllr_train_clean_100.4.ark:532260611
2182-181183-0003 /scratch/ravanelm/exp/librispeech/s5/fmllr/train_clean_100/data/feats_fmllr_train_clean_100.2.ark:529181331
6531-61334-0096 /scratch/ravanelm/exp/librispeech/s5/fmllr/train_clean_100/data/feats_fmllr_train_clean_100.8.ark:231920776
7067-76047-0035 /scratch/ravanelm/exp/librispeech/s5/fmllr/train_clean_100/data/feats_fmllr_train_clean_100.8.ark:450835227
1992-141719-0026 /scratch/ravanelm/exp/librispeech/s5/fmllr/train_clean_100/data/feats_fmllr_train_clean_100.2.ark:312004330
211-122425-0003 /scratch/ravanelm/exp/librispeech/s5/fmllr/train_clean_100/data/feats_fmllr_train_clean_100.2.ark:439107795
3112-9555-0011 /scratch/ravanelm/exp/librispeech/s5/fmllr/train_clean_100/data/feats_fmllr_train_clean_100.4.ark:117469822
1069-133699-0012 /scratch/ravanelm/exp/librispeech/s5/fmllr/train_clean_100/data/feats_fmllr_train_clean_100.1.ark:56311903
4813-248638-0033 /scratch/ravanelm/exp/librispeech/s5/fmllr/train_clean_100/data/feats_fmllr_train_clean_100.6.ark:320468164
196-122152-0026 /scratch/ravanelm/exp/librispeech/s5/fmllr/train_clean_100/data/feats_fmllr_train_clean_100.2.ark:225065567
2817-142371-0021 /scratch/ravanelm/exp/librispeech/s5/fmllr/train_clean_100/data/feats_fmllr_train_clean_100.3.ark:389844932
5808-48608-0047 /scratch/ravanelm/exp/librispeech/s5/fmllr/train_clean_100/data/feats_fmllr_train_clean_100.7.ark:306278978
1723-141149-0111 /scratch/ravanelm/exp/librispeech/s5/fmllr/train_clean_100/data/feats_fmllr_train_clean_100.2.ark:44971758
226-122538-0012 /scratch/ravanelm/exp/librispeech/s5/fmllr/train_clean_100/data/feats_fmllr_train_clean_100.2.ark:562202726
8088-284756-0053 /scratch/ravanelm/exp/librispeech/s5/fmllr/train_clean_100/data/feats_fmllr_train_clean_100.9.ark:466406911
2391-145015-0116 /scratch/ravanelm/exp/librispeech/s5/fmllr/train_clean_100/data/feats_fmllr_train_clean_100.3.ark:124378365
1246-124548-0026 /scratch/ravanelm/exp/librispeech/s5/fmllr/train_clean_100/data/feats_fmllr_train_clean_100.1.ark:230448639
211-122442-0042 /scratch/ravanelm/exp/librispeech/s5/fmllr/train_clean_100/data/feats_fmllr_train_clean_100.2.ark:457435546
374-180298-0020 /scratch/ravanelm/exp/librispeech/s5/fmllr/train_clean_100/data/feats_fmllr_train_clean_100.5.ark:4472956
2836-5355-0042 /scratch/ravanelm/exp/librispeech/s5/fmllr/train_clean_100/data/feats_fmllr_train_clean_100.3.ark:431467072
1898-145724-0003 /scratch/ravanelm/exp/librispeech/s5/fmllr/train_clean_100/data/feats_fmllr_train_clean_100.2.ark:155649998
6836-61803-0018 /scratch/ravanelm/exp/librispeech/s5/fmllr/train_clean_100/data/feats_fmllr_train_clean_100.8.ark:310089953
298-126791-0048 /scratch/ravanelm/exp/librispeech/s5/fmllr/train_clean_100/data/feats_fmllr_train_clean_100.4.ark:9924384
3879-173592-0036 /scratch/ravanelm/exp/librispeech/s5/fmllr/train_clean_100/data/feats_fmllr_train_clean_100.5.ark:99957860
5022-29405-0021 /scratch/ravanelm/exp/librispeech/s5/fmllr/train_clean_100/data/feats_fmllr_train_clean_100.6.ark:432166281
1743-142914-0025 /scratch/ravanelm/exp/librispeech/s5/fmllr/train_clean_100/data/feats_fmllr_train_clean_100.2.ark:87541838
1098-133695-0056 /scratch/ravanelm/exp/librispeech/s5/fmllr/train_clean_100/data/feats_fmllr_train_clean_100.1.ark:137281791
5688-15787-0025 /scratch/ravanelm/exp/librispeech/s5/fmllr/train_clean_100/data/feats_fmllr_train_clean_100.7.ark:183994488
5390-30102-0025 /scratch/ravanelm/exp/librispeech/s5/fmllr/train_clean_100/data/feats_fmllr_train_clean_100.7.ark:22777315
5867-48852-0101 /scratch/ravanelm/exp/librispeech/s5/fmllr/train_clean_100/data/feats_fmllr_train_clean_100.7.ark:340788692
40-222-0009 /scratch/ravanelm/exp/librispeech/s5/fmllr/train_clean_100/data/feats_fmllr_train_clean_100.5.ark:221378649
4853-27671-0037 /scratch/ravanelm/exp/librispeech/s5/fmllr/train_clean_100/data/feats_fmllr_train_clean_100.6.ark:376529230
89-219-0036 /scratch/ravanelm/exp/librispeech/s5/fmllr/train_clean_100/data/feats_fmllr_train_clean_100.10.ark:519815149
40-222-0064 /scratch/ravanelm/exp/librispeech/s5/fmllr/train_clean_100/data/feats_fmllr_train_clean_100.5.ark:233402054
4014-186176-0011 /scratch/ravanelm/exp/librispeech/s5/fmllr/train_clean_100/data/feats_fmllr_train_clean_100.5.ark:242044210
254-127705-0001 /scratch/ravanelm/exp/librispeech/s5/fmllr/train_clean_100/data/feats_fmllr_train_clean_100.3.ark:274490627
6064-300880-0000 /scratch/ravanelm/exp/librispeech/s5/fmllr/train_clean_100/data/feats_fmllr_train_clean_100.7.ark:427898053
229-130880-0090 /scratch/ravanelm/exp/librispeech/s5/fmllr/train_clean_100/data/feats_fmllr_train_clean_100.3.ark:58014958
5104-33406-0005 /scratch/ravanelm/exp/librispeech/s5/fmllr/train_clean_100/data/feats_fmllr_train_clean_100.6.ark:477779527
322-124147-0019 /scratch/ravanelm/exp/librispeech/s5/fmllr/train_clean_100/data/feats_fmllr_train_clean_100.4.ark:215296742
4160-11549-0038 /scratch/ravanelm/exp/librispeech/s5/fmllr/train_clean_100/data/feats_fmllr_train_clean_100.5.ark:432702263
26-495-0030 /scratch/ravanelm/exp/librispeech/s5/fmllr/train_clean_100/data/feats_fmllr_train_clean_100.3.ark:299753507
118-47824-0002 /scratch/ravanelm/exp/librispeech/s5/fmllr/train_clean_100/data/feats_fmllr_train_clean_100.1.ark:177518183
6272-70171-0015 /scratch/ravanelm/exp/librispeech/s5/fmllr/train_clean_100/data/feats_fmllr_train_clean_100.8.ark:34277296
909-131045-0003 /scratch/ravanelm/exp/librispeech/s5/fmllr/train_clean_100/data/feats_fmllr_train_clean_100.10.ark:563719195
2952-410-0010 /scratch/ravanelm/exp/librispeech/s5/fmllr/train_clean_100/data/feats_fmllr_train_clean_100.3.ark:558893815
4441-76262-0034 /scratch/ravanelm/exp/librispeech/s5/fmllr/train_clean_100/data/feats_fmllr_train_clean_100.6.ark:111163352
6019-3185-0026 /scratch/ravanelm/exp/librispeech/s5/fmllr/train_clean_100/data/feats_fmllr_train_clean_100.7.ark:409375311
3242-67168-0011 /scratch/ravanelm/exp/librispeech/s5/fmllr/train_clean_100/data/feats_fmllr_train_clean_100.4.ark:286995683
460-172359-0080 /scratch/ravanelm/exp/librispeech/s5/fmllr/train_clean_100/data/feats_fmllr_train_clean_100.6.ark:213949949
6529-62556-0029 /scratch/ravanelm/exp/librispeech/s5/fmllr/train_clean_100/data/feats_fmllr_train_clean_100.8.ark:212208829
2384-152900-0044 /scratch/ravanelm/exp/librispeech/s5/fmllr/train_clean_100/data/feats_fmllr_train_clean_100.3.ark:91887261
6437-66173-0039 /scratch/ravanelm/exp/librispeech/s5/fmllr/train_clean_100/data/feats_fmllr_train_clean_100.8.ark:139030437
248-130644-0035 /scratch/ravanelm/exp/librispeech/s5/fmllr/train_clean_100/data/feats_fmllr_train_clean_100.3.ark:181194513
322-124146-0009 /scratch/ravanelm/exp/librispeech/s5/fmllr/train_clean_100/data/feats_fmllr_train_clean_100.4.ark:206239894
200-124139-0023 /scratch/ravanelm/exp/librispeech/s5/fmllr/train_clean_100/data/feats_fmllr_train_clean_100.2.ark:322700882
8419-286676-0022 /scratch/ravanelm/exp/librispeech/s5/fmllr/train_clean_100/data/feats_fmllr_train_clean_100.10.ark:185934099
118-121721-0004 /scratch/ravanelm/exp/librispeech/s5/fmllr/train_clean_100/data/feats_fmllr_train_clean_100.1.ark:168592538
3486-166446-0005 /scratch/ravanelm/exp/librispeech/s5/fmllr/train_clean_100/data/feats_fmllr_train_clean_100.4.ark:450288145
3240-131231-0076 /scratch/ravanelm/exp/librispeech/s5/fmllr/train_clean_100/data/feats_fmllr_train_clean_100.4.ark:266517013
89-219-0054 /scratch/ravanelm/exp/librispeech/s5/fmllr/train_clean_100/data/feats_fmllr_train_clean_100.10.ark:523034035
7264-92310-0022 /scratch/ravanelm/exp/librispeech/s5/fmllr/train_clean_100/data/feats_fmllr_train_clean_100.9.ark:14962888
2836-5354-0014 /scratch/ravanelm/exp/librispeech/s5/fmllr/train_clean_100/data/feats_fmllr_train_clean_100.3.ark:413143942
1963-142776-0024 /scratch/ravanelm/exp/librispeech/s5/fmllr/train_clean_100/data/feats_fmllr_train_clean_100.2.ark:249394583
1594-135914-0041 /scratch/ravanelm/exp/librispeech/s5/fmllr/train_clean_100/data/feats_fmllr_train_clean_100.1.ark:512478780
1455-138263-0035 /scratch/ravanelm/exp/librispeech/s5/fmllr/train_clean_100/data/feats_fmllr_train_clean_100.1.ark:406456016
39-121914-0018 /scratch/ravanelm/exp/librispeech/s5/fmllr/train_clean_100/data/feats_fmllr_train_clean_100.5.ark:120085150
8238-274553-0055 /scratch/ravanelm/exp/librispeech/s5/fmllr/train_clean_100/data/feats_fmllr_train_clean_100.10.ark:44810225
458-126305-0011 /scratch/ravanelm/exp/librispeech/s5/fmllr/train_clean_100/data/feats_fmllr_train_clean_100.6.ark:187169671
6078-54007-0011 /scratch/ravanelm/exp/librispeech/s5/fmllr/train_clean_100/data/feats_fmllr_train_clean_100.7.ark:453659762
3526-176653-0028 /scratch/ravanelm/exp/librispeech/s5/fmllr/train_clean_100/data/feats_fmllr_train_clean_100.4.ark:476919217
4441-76250-0000 /scratch/ravanelm/exp/librispeech/s5/fmllr/train_clean_100/data/feats_fmllr_train_clean_100.6.ark:96417249
3240-131232-0005 /scratch/ravanelm/exp/librispeech/s5/fmllr/train_clean_100/data/feats_fmllr_train_clean_100.4.ark:269408373
2007-132570-0012 /scratch/ravanelm/exp/librispeech/s5/fmllr/train_clean_100/data/feats_fmllr_train_clean_100.2.ark:368209782
4195-186236-0018 /scratch/ravanelm/exp/librispeech/s5/fmllr/train_clean_100/data/feats_fmllr_train_clean_100.5.ark:458983649
5339-14134-0053 /scratch/ravanelm/exp/librispeech/s5/fmllr/train_clean_100/data/feats_fmllr_train_clean_100.6.ark:589795561
3807-4955-0025 /scratch/ravanelm/exp/librispeech/s5/fmllr/train_clean_100/data/feats_fmllr_train_clean_100.5.ark:42237398
3242-67168-0016 /scratch/ravanelm/exp/librispeech/s5/fmllr/train_clean_100/data/feats_fmllr_train_clean_100.4.ark:287842718
7226-86965-0037 /scratch/ravanelm/exp/librispeech/s5/fmllr/train_clean_100/data/feats_fmllr_train_clean_100.9.ark:7781003
1355-39947-0073 /scratch/ravanelm/exp/librispeech/s5/fmllr/train_clean_100/data/feats_fmllr_train_clean_100.1.ark:336537643
1624-142933-0020 /scratch/ravanelm/exp/librispeech/s5/fmllr/train_clean_100/data/feats_fmllr_train_clean_100.1.ark:533140956
7148-59157-0004 /scratch/ravanelm/exp/librispeech/s5/fmllr/train_clean_100/data/feats_fmllr_train_clean_100.8.ark:516069788
7794-295947-0017 /scratch/ravanelm/exp/librispeech/s5/fmllr/train_clean_100/data/feats_fmllr_train_clean_100.9.ark:304549037
3699-19401-0010 /scratch/ravanelm/exp/librispeech/s5/fmllr/train_clean_100/data/feats_fmllr_train_clean_100.4.ark:534691224
3983-5371-0027 /scratch/ravanelm/exp/librispeech/s5/fmllr/train_clean_100/data/feats_fmllr_train_clean_100.5.ark:203995299
7178-34644-0069 /scratch/ravanelm/exp/librispeech/s5/fmllr/train_clean_100/data/feats_fmllr_train_clean_100.8.ark:554415492
5456-58161-0002 /scratch/ravanelm/exp/librispeech/s5/fmllr/train_clean_100/data/feats_fmllr_train_clean_100.7.ark:51636804
1502-122619-0087 /scratch/ravanelm/exp/librispeech/s5/fmllr/train_clean_100/data/feats_fmllr_train_clean_100.1.ark:457823486
5022-29411-0055 /scratch/ravanelm/exp/librispeech/s5/fmllr/train_clean_100/data/feats_fmllr_train_clean_100.6.ark:449222619
3486-166424-0067 /scratch/ravanelm/exp/librispeech/s5/fmllr/train_clean_100/data/feats_fmllr_train_clean_100.4.ark:447518737
4297-13006-0014 /scratch/ravanelm/exp/librispeech/s5/fmllr/train_clean_100/data/feats_fmllr_train_clean_100.5.ark:540449554
6000-55211-0019 /scratch/ravanelm/exp/librispeech/s5/fmllr/train_clean_100/data/feats_fmllr_train_clean_100.7.ark:390284393
7800-283478-0032 /scratch/ravanelm/exp/librispeech/s5/fmllr/train_clean_100/data/feats_fmllr_train_clean_100.9.ark:355504255
4340-15220-0093 /scratch/ravanelm/exp/librispeech/s5/fmllr/train_clean_100/data/feats_fmllr_train_clean_100.5.ark:581185844
5688-15787-0039 /scratch/ravanelm/exp/librispeech/s5/fmllr/train_clean_100/data/feats_fmllr_train_clean_100.7.ark:186548362
6078-54013-0054 /scratch/ravanelm/exp/librispeech/s5/fmllr/train_clean_100/data/feats_fmllr_train_clean_100.7.ark:471176147
6272-70171-0037 /scratch/ravanelm/exp/librispeech/s5/fmllr/train_clean_100/data/feats_fmllr_train_clean_100.8.ark:38942618
481-123719-0027 /scratch/ravanelm/exp/librispeech/s5/fmllr/train_clean_100/data/feats_fmllr_train_clean_100.6.ark:294198216
8108-280354-0027 /scratch/ravanelm/exp/librispeech/s5/fmllr/train_clean_100/data/feats_fmllr_train_clean_100.9.ark:544389823
2196-170151-0007 /scratch/ravanelm/exp/librispeech/s5/fmllr/train_clean_100/data/feats_fmllr_train_clean_100.2.ark:536800883
2817-142380-0023 /scratch/ravanelm/exp/librispeech/s5/fmllr/train_clean_100/data/feats_fmllr_train_clean_100.3.ark:405932164
2764-36617-0005 /scratch/ravanelm/exp/librispeech/s5/fmllr/train_clean_100/data/feats_fmllr_train_clean_100.3.ark:370585903
3526-176653-0053 /scratch/ravanelm/exp/librispeech/s5/fmllr/train_clean_100/data/feats_fmllr_train_clean_100.4.ark:481794097
2384-152900-0085 /scratch/ravanelm/exp/librispeech/s5/fmllr/train_clean_100/data/feats_fmllr_train_clean_100.3.ark:100797693
4051-11218-0008 /scratch/ravanelm/exp/librispeech/s5/fmllr/train_clean_100/data/feats_fmllr_train_clean_100.5.ark:344501605
2092-145709-0016 /scratch/ravanelm/exp/librispeech/s5/fmllr/train_clean_100/data/feats_fmllr_train_clean_100.2.ark:437426711
2817-142371-0064 /scratch/ravanelm/exp/librispeech/s5/fmllr/train_clean_100/data/feats_fmllr_train_clean_100.3.ark:398176708
7190-90542-0001 /scratch/ravanelm/exp/librispeech/s5/fmllr/train_clean_100/data/feats_fmllr_train_clean_100.8.ark:563365109
89-218-0044 /scratch/ravanelm/exp/librispeech/s5/fmllr/train_clean_100/data/feats_fmllr_train_clean_100.10.ark:509866919
5104-33406-0017 /scratch/ravanelm/exp/librispeech/s5/fmllr/train_clean_100/data/feats_fmllr_train_clean_100.6.ark:479838619
3240-131232-0022 /scratch/ravanelm/exp/librispeech/s5/fmllr/train_clean_100/data/feats_fmllr_train_clean_100.4.ark:273115797
7059-77897-0024 /scratch/ravanelm/exp/librispeech/s5/fmllr/train_clean_100/data/feats_fmllr_train_clean_100.8.ark:424236245
2092-145706-0048 /scratch/ravanelm/exp/librispeech/s5/fmllr/train_clean_100/data/feats_fmllr_train_clean_100.2.ark:425716567
7148-7763-0021 /scratch/ravanelm/exp/librispeech/s5/fmllr/train_clean_100/data/feats_fmllr_train_clean_100.8.ark:528131915
125-121124-0069 /scratch/ravanelm/exp/librispeech/s5/fmllr/train_clean_100/data/feats_fmllr_train_clean_100.1.ark:261331929
6385-34655-0021 /scratch/ravanelm/exp/librispeech/s5/fmllr/train_clean_100/data/feats_fmllr_train_clean_100.8.ark:85849513
7264-92316-0012 /scratch/ravanelm/exp/librispeech/s5/fmllr/train_clean_100/data/feats_fmllr_train_clean_100.9.ark:26288593
887-123290-0006 /scratch/ravanelm/exp/librispeech/s5/fmllr/train_clean_100/data/feats_fmllr_train_clean_100.10.ark:486489196
1069-133699-0006 /scratch/ravanelm/exp/librispeech/s5/fmllr/train_clean_100/data/feats_fmllr_train_clean_100.1.ark:55177151
911-128684-0007 /scratch/ravanelm/exp/librispeech/s5/fmllr/train_clean_100/data/feats_fmllr_train_clean_100.10.ark:574506763
1447-130552-0016 /scratch/ravanelm/exp/librispeech/s5/fmllr/train_clean_100/data/feats_fmllr_train_clean_100.1.ark:377718899
3947-13262-0015 /scratch/ravanelm/exp/librispeech/s5/fmllr/train_clean_100/data/feats_fmllr_train_clean_100.5.ark:155091467
8468-295198-0002 /scratch/ravanelm/exp/librispeech/s5/fmllr/train_clean_100/data/feats_fmllr_train_clean_100.10.ark:263486163
200-124139-0025 /scratch/ravanelm/exp/librispeech/s5/fmllr/train_clean_100/data/feats_fmllr_train_clean_100.2.ark:323145104
2391-145015-0054 /scratch/ravanelm/exp/librispeech/s5/fmllr/train_clean_100/data/feats_fmllr_train_clean_100.3.ark:112454141
8226-274371-0015 /scratch/ravanelm/exp/librispeech/s5/fmllr/train_clean_100/data/feats_fmllr_train_clean_100.10.ark:26576977
4340-15220-0061 /scratch/ravanelm/exp/librispeech/s5/fmllr/train_clean_100/data/feats_fmllr_train_clean_100.5.ark:574541812
887-123291-0024 /scratch/ravanelm/exp/librispeech/s5/fmllr/train_clean_100/data/feats_fmllr_train_clean_100.10.ark:497411866
2007-132570-0055 /scratch/ravanelm/exp/librispeech/s5/fmllr/train_clean_100/data/feats_fmllr_train_clean_100.2.ark:377045718
6081-41997-0013 /scratch/ravanelm/exp/librispeech/s5/fmllr/train_clean_100/data/feats_fmllr_train_clean_100.7.ark:478531276
5163-39921-0013 /scratch/ravanelm/exp/librispeech/s5/fmllr/train_clean_100/data/feats_fmllr_train_clean_100.6.ark:513707228
887-123289-0002 /scratch/ravanelm/exp/librispeech/s5/fmllr/train_clean_100/data/feats_fmllr_train_clean_100.10.ark:477139992
405-130894-0061 /scratch/ravanelm/exp/librispeech/s5/fmllr/train_clean_100/data/feats_fmllr_train_clean_100.5.ark:319350251
5652-19215-0021 /scratch/ravanelm/exp/librispeech/s5/fmllr/train_clean_100/data/feats_fmllr_train_clean_100.7.ark:134536426
1355-39947-0053 /scratch/ravanelm/exp/librispeech/s5/fmllr/train_clean_100/data/feats_fmllr_train_clean_100.1.ark:332004223
412-126975-0075 /scratch/ravanelm/exp/librispeech/s5/fmllr/train_clean_100/data/feats_fmllr_train_clean_100.5.ark:395866691
6437-66173-0058 /scratch/ravanelm/exp/librispeech/s5/fmllr/train_clean_100/data/feats_fmllr_train_clean_100.8.ark:143151026
6836-61804-0029 /scratch/ravanelm/exp/librispeech/s5/fmllr/train_clean_100/data/feats_fmllr_train_clean_100.8.ark:321087978
2952-410-0041 /scratch/ravanelm/exp/librispeech/s5/fmllr/train_clean_100/data/feats_fmllr_train_clean_100.3.ark:565642554
6385-34655-0028 /scratch/ravanelm/exp/librispeech/s5/fmllr/train_clean_100/data/feats_fmllr_train_clean_100.8.ark:87261570
3436-172171-0062 /scratch/ravanelm/exp/librispeech/s5/fmllr/train_clean_100/data/feats_fmllr_train_clean_100.4.ark:409303089
4680-16041-0041 /scratch/ravanelm/exp/librispeech/s5/fmllr/train_clean_100/data/feats_fmllr_train_clean_100.6.ark:257086519
5104-33407-0033 /scratch/ravanelm/exp/librispeech/s5/fmllr/train_clean_100/data/feats_fmllr_train_clean_100.6.ark:496798797
911-128684-0024 /scratch/ravanelm/exp/librispeech/s5/fmllr/train_clean_100/data/feats_fmllr_train_clean_100.10.ark:578080890
3440-171006-0019 /scratch/ravanelm/exp/librispeech/s5/fmllr/train_clean_100/data/feats_fmllr_train_clean_100.4.ark:414548625
5390-24512-0003 /scratch/ravanelm/exp/librispeech/s5/fmllr/train_clean_100/data/feats_fmllr_train_clean_100.7.ark:583469
7367-86737-0051 /scratch/ravanelm/exp/librispeech/s5/fmllr/train_clean_100/data/feats_fmllr_train_clean_100.9.ark:120214797
6209-34601-0033 /scratch/ravanelm/exp/librispeech/s5/fmllr/train_clean_100/data/feats_fmllr_train_clean_100.7.ark:570803967
1334-135589-0074 /scratch/ravanelm/exp/librispeech/s5/fmllr/train_clean_100/data/feats_fmllr_train_clean_100.1.ark:313161365
8425-292520-0010 /scratch/ravanelm/exp/librispeech/s5/fmllr/train_clean_100/data/feats_fmllr_train_clean_100.10.ark:218044115
8797-294123-0022 /scratch/ravanelm/exp/librispeech/s5/fmllr/train_clean_100/data/feats_fmllr_train_clean_100.10.ark:435597243
4214-7146-0029 /scratch/ravanelm/exp/librispeech/s5/fmllr/train_clean_100/data/feats_fmllr_train_clean_100.5.ark:478029093
226-131533-0025 /scratch/ravanelm/exp/librispeech/s5/fmllr/train_clean_100/data/feats_fmllr_train_clean_100.3.ark:13535316
1355-39947-0019 /scratch/ravanelm/exp/librispeech/s5/fmllr/train_clean_100/data/feats_fmllr_train_clean_100.1.ark:324848929
1723-141149-0064 /scratch/ravanelm/exp/librispeech/s5/fmllr/train_clean_100/data/feats_fmllr_train_clean_100.2.ark:34817454
1624-168623-0037 /scratch/ravanelm/exp/librispeech/s5/fmllr/train_clean_100/data/feats_fmllr_train_clean_100.1.ark:546622684
2764-36616-0011 /scratch/ravanelm/exp/librispeech/s5/fmllr/train_clean_100/data/feats_fmllr_train_clean_100.3.ark:363639440
8425-246962-0009 /scratch/ravanelm/exp/librispeech/s5/fmllr/train_clean_100/data/feats_fmllr_train_clean_100.10.ark:200144435
5789-57158-0016 /scratch/ravanelm/exp/librispeech/s5/fmllr/train_clean_100/data/feats_fmllr_train_clean_100.7.ark:275502225
481-123720-0051 /scratch/ravanelm/exp/librispeech/s5/fmllr/train_clean_100/data/feats_fmllr_train_clean_100.6.ark:306770182
4051-11218-0001 /scratch/ravanelm/exp/librispeech/s5/fmllr/train_clean_100/data/feats_fmllr_train_clean_100.5.ark:343095948
2159-179154-0034 /scratch/ravanelm/exp/librispeech/s5/fmllr/train_clean_100/data/feats_fmllr_train_clean_100.2.ark:494204787
669-129074-0016 /scratch/ravanelm/exp/librispeech/s5/fmllr/train_clean_100/data/feats_fmllr_train_clean_100.8.ark:279245422
8123-275209-0009 /scratch/ravanelm/exp/librispeech/s5/fmllr/train_clean_100/data/feats_fmllr_train_clean_100.9.ark:560143935
5456-62014-0002 /scratch/ravanelm/exp/librispeech/s5/fmllr/train_clean_100/data/feats_fmllr_train_clean_100.7.ark:57259463
5463-39174-0025 /scratch/ravanelm/exp/librispeech/s5/fmllr/train_clean_100/data/feats_fmllr_train_clean_100.7.ark:85473558
2989-138035-0025 /scratch/ravanelm/exp/librispeech/s5/fmllr/train_clean_100/data/feats_fmllr_train_clean_100.4.ark:30094797
3168-173565-0044 /scratch/ravanelm/exp/librispeech/s5/fmllr/train_clean_100/data/feats_fmllr_train_clean_100.4.ark:153832954
5778-54535-0025 /scratch/ravanelm/exp/librispeech/s5/fmllr/train_clean_100/data/feats_fmllr_train_clean_100.7.ark:266934105
1088-134315-0045 /scratch/ravanelm/exp/librispeech/s5/fmllr/train_clean_100/data/feats_fmllr_train_clean_100.1.ark:118482207
198-126831-0040 /scratch/ravanelm/exp/librispeech/s5/fmllr/train_clean_100/data/feats_fmllr_train_clean_100.2.ark:290391028
2196-170151-0002 /scratch/ravanelm/exp/librispeech/s5/fmllr/train_clean_100/data/feats_fmllr_train_clean_100.2.ark:535626803
200-126784-0037 /scratch/ravanelm/exp/librispeech/s5/fmllr/train_clean_100/data/feats_fmllr_train_clean_100.2.ark:342253174
328-129766-0012 /scratch/ravanelm/exp/librispeech/s5/fmllr/train_clean_100/data/feats_fmllr_train_clean_100.4.ark:327001856
2911-12359-0005 /scratch/ravanelm/exp/librispeech/s5/fmllr/train_clean_100/data/feats_fmllr_train_clean_100.3.ark:522713070
4014-186179-0026 /scratch/ravanelm/exp/librispeech/s5/fmllr/train_clean_100/data/feats_fmllr_train_clean_100.5.ark:250425618
1502-122619-0052 /scratch/ravanelm/exp/librispeech/s5/fmllr/train_clean_100/data/feats_fmllr_train_clean_100.1.ark:452211806
3240-131232-0001 /scratch/ravanelm/exp/librispeech/s5/fmllr/train_clean_100/data/feats_fmllr_train_clean_100.4.ark:268695605
6454-107462-0011 /scratch/ravanelm/exp/librispeech/s5/fmllr/train_clean_100/data/feats_fmllr_train_clean_100.8.ark:146823214
7190-90542-0076 /scratch/ravanelm/exp/librispeech/s5/fmllr/train_clean_100/data/feats_fmllr_train_clean_100.8.ark:577529034
27-124992-0014 /scratch/ravanelm/exp/librispeech/s5/fmllr/train_clean_100/data/feats_fmllr_train_clean_100.3.ark:355535548
1502-122619-0023 /scratch/ravanelm/exp/librispeech/s5/fmllr/train_clean_100/data/feats_fmllr_train_clean_100.1.ark:447097118
412-126975-0067 /scratch/ravanelm/exp/librispeech/s5/fmllr/train_clean_100/data/feats_fmllr_train_clean_100.5.ark:393996203
7402-90848-0056 /scratch/ravanelm/exp/librispeech/s5/fmllr/train_clean_100/data/feats_fmllr_train_clean_100.9.ark:157028320
887-123291-0000 /scratch/ravanelm/exp/librispeech/s5/fmllr/train_clean_100/data/feats_fmllr_train_clean_100.10.ark:492181842
1743-142914-0029 /scratch/ravanelm/exp/librispeech/s5/fmllr/train_clean_100/data/feats_fmllr_train_clean_100.2.ark:88352846
332-128985-0042 /scratch/ravanelm/exp/librispeech/s5/fmllr/train_clean_100/data/feats_fmllr_train_clean_100.4.ark:351817535
7511-102419-0007 /scratch/ravanelm/exp/librispeech/s5/fmllr/train_clean_100/data/feats_fmllr_train_clean_100.9.ark:207958989
2952-408-0026 /scratch/ravanelm/exp/librispeech/s5/fmllr/train_clean_100/data/feats_fmllr_train_clean_100.3.ark:556455649
250-142286-0014 /scratch/ravanelm/exp/librispeech/s5/fmllr/train_clean_100/data/feats_fmllr_train_clean_100.3.ark:218704867
5456-62043-0002 /scratch/ravanelm/exp/librispeech/s5/fmllr/train_clean_100/data/feats_fmllr_train_clean_100.7.ark:59666612
2893-139322-0027 /scratch/ravanelm/exp/librispeech/s5/fmllr/train_clean_100/data/feats_fmllr_train_clean_100.3.ark:494341684
8238-283452-0041 /scratch/ravanelm/exp/librispeech/s5/fmllr/train_clean_100/data/feats_fmllr_train_clean_100.10.ark:57098577
1246-124548-0000 /scratch/ravanelm/exp/librispeech/s5/fmllr/train_clean_100/data/feats_fmllr_train_clean_100.1.ark:225237247
3983-5371-0044 /scratch/ravanelm/exp/librispeech/s5/fmllr/train_clean_100/data/feats_fmllr_train_clean_100.5.ark:207378529
5322-7680-0000 /scratch/ravanelm/exp/librispeech/s5/fmllr/train_clean_100/data/feats_fmllr_train_clean_100.6.ark:563176730
6078-54013-0033 /scratch/ravanelm/exp/librispeech/s5/fmllr/train_clean_100/data/feats_fmllr_train_clean_100.7.ark:468370216
6081-41998-0005 /scratch/ravanelm/exp/librispeech/s5/fmllr/train_clean_100/data/feats_fmllr_train_clean_100.7.ark:485086477
7178-34644-0004 /scratch/ravanelm/exp/librispeech/s5/fmllr/train_clean_100/data/feats_fmllr_train_clean_100.8.ark:540193797
2843-152918-0106 /scratch/ravanelm/exp/librispeech/s5/fmllr/train_clean_100/data/feats_fmllr_train_clean_100.3.ark:455760426
4788-94904-0025 /scratch/ravanelm/exp/librispeech/s5/fmllr/train_clean_100/data/feats_fmllr_train_clean_100.6.ark:286237714
7078-271888-0048 /scratch/ravanelm/exp/librispeech/s5/fmllr/train_clean_100/data/feats_fmllr_train_clean_100.8.ark:477642960
7447-91187-0041 /scratch/ravanelm/exp/librispeech/s5/fmllr/train_clean_100/data/feats_fmllr_train_clean_100.9.ark:176398692
322-124146-0028 /scratch/ravanelm/exp/librispeech/s5/fmllr/train_clean_100/data/feats_fmllr_train_clean_100.4.ark:209490883
2391-145015-0120 /scratch/ravanelm/exp/librispeech/s5/fmllr/train_clean_100/data/feats_fmllr_train_clean_100.3.ark:125129053
4481-17499-0004 /scratch/ravanelm/exp/librispeech/s5/fmllr/train_clean_100/data/feats_fmllr_train_clean_100.6.ark:166915237
4195-186238-0020 /scratch/ravanelm/exp/librispeech/s5/fmllr/train_clean_100/data/feats_fmllr_train_clean_100.5.ark:470880129
198-129977-0024 /scratch/ravanelm/exp/librispeech/s5/fmllr/train_clean_100/data/feats_fmllr_train_clean_100.2.ark:296869646
2764-36616-0015 /scratch/ravanelm/exp/librispeech/s5/fmllr/train_clean_100/data/feats_fmllr_train_clean_100.3.ark:364356684
2518-154825-0021 /scratch/ravanelm/exp/librispeech/s5/fmllr/train_clean_100/data/feats_fmllr_train_clean_100.3.ark:250396305
248-130644-0031 /scratch/ravanelm/exp/librispeech/s5/fmllr/train_clean_100/data/feats_fmllr_train_clean_100.3.ark:180415349
118-47824-0035 /scratch/ravanelm/exp/librispeech/s5/fmllr/train_clean_100/data/feats_fmllr_train_clean_100.1.ark:182864933
6818-76332-0009 /scratch/ravanelm/exp/librispeech/s5/fmllr/train_clean_100/data/feats_fmllr_train_clean_100.8.ark:295276547
1447-17506-0001 /scratch/ravanelm/exp/librispeech/s5/fmllr/train_clean_100/data/feats_fmllr_train_clean_100.1.ark:380094673
89-219-0049 /scratch/ravanelm/exp/librispeech/s5/fmllr/train_clean_100/data/feats_fmllr_train_clean_100.10.ark:522120780
3879-174923-0005 /scratch/ravanelm/exp/librispeech/s5/fmllr/train_clean_100/data/feats_fmllr_train_clean_100.5.ark:102607876
7148-7763-0016 /scratch/ravanelm/exp/librispeech/s5/fmllr/train_clean_100/data/feats_fmllr_train_clean_100.8.ark:527351765
2836-5354-0043 /scratch/ravanelm/exp/librispeech/s5/fmllr/train_clean_100/data/feats_fmllr_train_clean_100.3.ark:419308492
5652-39938-0033 /scratch/ravanelm/exp/librispeech/s5/fmllr/train_clean_100/data/feats_fmllr_train_clean_100.7.ark:148348511
403-128339-0011 /scratch/ravanelm/exp/librispeech/s5/fmllr/train_clean_100/data/feats_fmllr_train_clean_100.5.ark:291754086
1841-150351-0029 /scratch/ravanelm/exp/librispeech/s5/fmllr/train_clean_100/data/feats_fmllr_train_clean_100.2.ark:95473806
2893-139322-0042 /scratch/ravanelm/exp/librispeech/s5/fmllr/train_clean_100/data/feats_fmllr_train_clean_100.3.ark:497998324
4397-15666-0003 /scratch/ravanelm/exp/librispeech/s5/fmllr/train_clean_100/data/feats_fmllr_train_clean_100.6.ark:24765986
1898-145724-0024 /scratch/ravanelm/exp/librispeech/s5/fmllr/train_clean_100/data/feats_fmllr_train_clean_100.2.ark:159093550
4088-158077-0080 /scratch/ravanelm/exp/librispeech/s5/fmllr/train_clean_100/data/feats_fmllr_train_clean_100.5.ark:370760751
7794-295948-0016 /scratch/ravanelm/exp/librispeech/s5/fmllr/train_clean_100/data/feats_fmllr_train_clean_100.9.ark:314913069
6925-80680-0075 /scratch/ravanelm/exp/librispeech/s5/fmllr/train_clean_100/data/feats_fmllr_train_clean_100.8.ark:392519760
3526-176653-0014 /scratch/ravanelm/exp/librispeech/s5/fmllr/train_clean_100/data/feats_fmllr_train_clean_100.4.ark:474235409
7278-246956-0021 /scratch/ravanelm/exp/librispeech/s5/fmllr/train_clean_100/data/feats_fmllr_train_clean_100.9.ark:45048976
1235-135887-0015 /scratch/ravanelm/exp/librispeech/s5/fmllr/train_clean_100/data/feats_fmllr_train_clean_100.1.ark:222049823
1723-141149-0084 /scratch/ravanelm/exp/librispeech/s5/fmllr/train_clean_100/data/feats_fmllr_train_clean_100.2.ark:39046414
6019-3185-0035 /scratch/ravanelm/exp/librispeech/s5/fmllr/train_clean_100/data/feats_fmllr_train_clean_100.7.ark:411126621
839-130898-0078 /scratch/ravanelm/exp/librispeech/s5/fmllr/train_clean_100/data/feats_fmllr_train_clean_100.10.ark:169403400
1088-134315-0037 /scratch/ravanelm/exp/librispeech/s5/fmllr/train_clean_100/data/feats_fmllr_train_clean_100.1.ark:116749631
87-121553-0020 /scratch/ravanelm/exp/librispeech/s5/fmllr/train_clean_100/data/feats_fmllr_train_clean_100.10.ark:364706665
2136-5147-0009 /scratch/ravanelm/exp/librispeech/s5/fmllr/train_clean_100/data/feats_fmllr_train_clean_100.2.ark:481086897
5393-19219-0048 /scratch/ravanelm/exp/librispeech/s5/fmllr/train_clean_100/data/feats_fmllr_train_clean_100.7.ark:45283502
307-127540-0004 /scratch/ravanelm/exp/librispeech/s5/fmllr/train_clean_100/data/feats_fmllr_train_clean_100.4.ark:79585599
2836-5355-0021 /scratch/ravanelm/exp/librispeech/s5/fmllr/train_clean_100/data/feats_fmllr_train_clean_100.3.ark:426748362
909-131045-0007 /scratch/ravanelm/exp/librispeech/s5/fmllr/train_clean_100/data/feats_fmllr_train_clean_100.10.ark:564601879
254-27760-0016 /scratch/ravanelm/exp/librispeech/s5/fmllr/train_clean_100/data/feats_fmllr_train_clean_100.3.ark:290077730
2196-174172-0041 /scratch/ravanelm/exp/librispeech/s5/fmllr/train_clean_100/data/feats_fmllr_train_clean_100.2.ark:558880531
6529-62556-0009 /scratch/ravanelm/exp/librispeech/s5/fmllr/train_clean_100/data/feats_fmllr_train_clean_100.8.ark:207614449
3699-19401-0011 /scratch/ravanelm/exp/librispeech/s5/fmllr/train_clean_100/data/feats_fmllr_train_clean_100.4.ark:534888055
1594-135914-0047 /scratch/ravanelm/exp/librispeech/s5/fmllr/train_clean_100/data/feats_fmllr_train_clean_100.1.ark:513584092
8629-261140-0036 /scratch/ravanelm/exp/librispeech/s5/fmllr/train_clean_100/data/feats_fmllr_train_clean_100.10.ark:334908467
2518-154825-0050 /scratch/ravanelm/exp/librispeech/s5/fmllr/train_clean_100/data/feats_fmllr_train_clean_100.3.ark:256920593
27-123349-0035 /scratch/ravanelm/exp/librispeech/s5/fmllr/train_clean_100/data/feats_fmllr_train_clean_100.3.ark:348966408
2514-149482-0032 /scratch/ravanelm/exp/librispeech/s5/fmllr/train_clean_100/data/feats_fmllr_train_clean_100.3.ark:229425201
669-129074-0014 /scratch/ravanelm/exp/librispeech/s5/fmllr/train_clean_100/data/feats_fmllr_train_clean_100.8.ark:278823600
5163-39921-0036 /scratch/ravanelm/exp/librispeech/s5/fmllr/train_clean_100/data/feats_fmllr_train_clean_100.6.ark:518635621
5322-7678-0020 /scratch/ravanelm/exp/librispeech/s5/fmllr/train_clean_100/data/feats_fmllr_train_clean_100.6.ark:550435600
5339-14134-0058 /scratch/ravanelm/exp/librispeech/s5/fmllr/train_clean_100/data/feats_fmllr_train_clean_100.6.ark:590753156
1263-141777-0022 /scratch/ravanelm/exp/librispeech/s5/fmllr/train_clean_100/data/feats_fmllr_train_clean_100.1.ark:292987637
1926-147979-0053 /scratch/ravanelm/exp/librispeech/s5/fmllr/train_clean_100/data/feats_fmllr_train_clean_100.2.ark:203861955
1355-39947-0094 /scratch/ravanelm/exp/librispeech/s5/fmllr/train_clean_100/data/feats_fmllr_train_clean_100.1.ark:341038454
1926-143879-0030 /scratch/ravanelm/exp/librispeech/s5/fmllr/train_clean_100/data/feats_fmllr_train_clean_100.2.ark:190472515
2289-152253-0028 /scratch/ravanelm/exp/librispeech/s5/fmllr/train_clean_100/data/feats_fmllr_train_clean_100.3.ark:21127145
103-1240-0018 /scratch/ravanelm/exp/librispeech/s5/fmllr/train_clean_100/data/feats_fmllr_train_clean_100.1.ark:3901496
3112-9555-0067 /scratch/ravanelm/exp/librispeech/s5/fmllr/train_clean_100/data/feats_fmllr_train_clean_100.4.ark:129397262
8051-118101-0034 /scratch/ravanelm/exp/librispeech/s5/fmllr/train_clean_100/data/feats_fmllr_train_clean_100.9.ark:414169791
8838-298545-0026 /scratch/ravanelm/exp/librispeech/s5/fmllr/train_clean_100/data/feats_fmllr_train_clean_100.10.ark:458758779
7113-86041-0110 /scratch/ravanelm/exp/librispeech/s5/fmllr/train_clean_100/data/feats_fmllr_train_clean_100.8.ark:515206593
8324-286683-0008 /scratch/ravanelm/exp/librispeech/s5/fmllr/train_clean_100/data/feats_fmllr_train_clean_100.10.ark:148744471
200-124140-0009 /scratch/ravanelm/exp/librispeech/s5/fmllr/train_clean_100/data/feats_fmllr_train_clean_100.2.ark:328318297
302-123516-0032 /scratch/ravanelm/exp/librispeech/s5/fmllr/train_clean_100/data/feats_fmllr_train_clean_100.4.ark:53267814
1624-142933-0027 /scratch/ravanelm/exp/librispeech/s5/fmllr/train_clean_100/data/feats_fmllr_train_clean_100.1.ark:534726780
7302-86814-0001 /scratch/ravanelm/exp/librispeech/s5/fmllr/train_clean_100/data/feats_fmllr_train_clean_100.9.ark:81273216
1898-145715-0002 /scratch/ravanelm/exp/librispeech/s5/fmllr/train_clean_100/data/feats_fmllr_train_clean_100.2.ark:141827246
3607-29116-0033 /scratch/ravanelm/exp/librispeech/s5/fmllr/train_clean_100/data/feats_fmllr_train_clean_100.4.ark:500657487
4014-186179-0040 /scratch/ravanelm/exp/librispeech/s5/fmllr/train_clean_100/data/feats_fmllr_train_clean_100.5.ark:252741266
7067-76048-0043 /scratch/ravanelm/exp/librispeech/s5/fmllr/train_clean_100/data/feats_fmllr_train_clean_100.8.ark:463326785
4853-29413-0015 /scratch/ravanelm/exp/librispeech/s5/fmllr/train_clean_100/data/feats_fmllr_train_clean_100.6.ark:380748859
4397-15678-0024 /scratch/ravanelm/exp/librispeech/s5/fmllr/train_clean_100/data/feats_fmllr_train_clean_100.6.ark:43981194
125-121342-0032 /scratch/ravanelm/exp/librispeech/s5/fmllr/train_clean_100/data/feats_fmllr_train_clean_100.1.ark:270390981
4859-22176-0021 /scratch/ravanelm/exp/librispeech/s5/fmllr/train_clean_100/data/feats_fmllr_train_clean_100.6.ark:389650228
4788-294466-0013 /scratch/ravanelm/exp/librispeech/s5/fmllr/train_clean_100/data/feats_fmllr_train_clean_100.6.ark:268487087
1926-143879-0020 /scratch/ravanelm/exp/librispeech/s5/fmllr/train_clean_100/data/feats_fmllr_train_clean_100.2.ark:188598435
200-124140-0030 /scratch/ravanelm/exp/librispeech/s5/fmllr/train_clean_100/data/feats_fmllr_train_clean_100.2.ark:332605028
6181-216552-0102 /scratch/ravanelm/exp/librispeech/s5/fmllr/train_clean_100/data/feats_fmllr_train_clean_100.7.ark:545380876
4680-16042-0000 /scratch/ravanelm/exp/librispeech/s5/fmllr/train_clean_100/data/feats_fmllr_train_clean_100.6.ark:257330070
1246-124550-0006 /scratch/ravanelm/exp/librispeech/s5/fmllr/train_clean_100/data/feats_fmllr_train_clean_100.1.ark:236849983
4267-287369-0010 /scratch/ravanelm/exp/librispeech/s5/fmllr/train_clean_100/data/feats_fmllr_train_clean_100.5.ark:515305451
3982-182255-0013 /scratch/ravanelm/exp/librispeech/s5/fmllr/train_clean_100/data/feats_fmllr_train_clean_100.5.ark:178831175
163-122947-0054 /scratch/ravanelm/exp/librispeech/s5/fmllr/train_clean_100/data/feats_fmllr_train_clean_100.2.ark:11262010
3436-172171-0043 /scratch/ravanelm/exp/librispeech/s5/fmllr/train_clean_100/data/feats_fmllr_train_clean_100.4.ark:405440881
3374-298025-0009 /scratch/ravanelm/exp/librispeech/s5/fmllr/train_clean_100/data/feats_fmllr_train_clean_100.4.ark:363416561
1926-147979-0039 /scratch/ravanelm/exp/librispeech/s5/fmllr/train_clean_100/data/feats_fmllr_train_clean_100.2.ark:201359267
6147-34606-0030 /scratch/ravanelm/exp/librispeech/s5/fmllr/train_clean_100/data/feats_fmllr_train_clean_100.7.ark:514618105
1963-142393-0037 /scratch/ravanelm/exp/librispeech/s5/fmllr/train_clean_100/data/feats_fmllr_train_clean_100.2.ark:241200343
6147-34605-0001 /scratch/ravanelm/exp/librispeech/s5/fmllr/train_clean_100/data/feats_fmllr_train_clean_100.7.ark:500215935
587-54108-0031 /scratch/ravanelm/exp/librispeech/s5/fmllr/train_clean_100/data/feats_fmllr_train_clean_100.7.ark:362179603
7635-105409-0029 /scratch/ravanelm/exp/librispeech/s5/fmllr/train_clean_100/data/feats_fmllr_train_clean_100.9.ark:259968205
8419-286667-0013 /scratch/ravanelm/exp/librispeech/s5/fmllr/train_clean_100/data/feats_fmllr_train_clean_100.10.ark:177124659
7402-90848-0041 /scratch/ravanelm/exp/librispeech/s5/fmllr/train_clean_100/data/feats_fmllr_train_clean_100.9.ark:153866895
4340-15220-0025 /scratch/ravanelm/exp/librispeech/s5/fmllr/train_clean_100/data/feats_fmllr_train_clean_100.5.ark:566825656
8609-262281-0000 /scratch/ravanelm/exp/librispeech/s5/fmllr/train_clean_100/data/feats_fmllr_train_clean_100.10.ark:289428211
7794-295948-0005 /scratch/ravanelm/exp/librispeech/s5/fmllr/train_clean_100/data/feats_fmllr_train_clean_100.9.ark:312383277
2691-156750-0013 /scratch/ravanelm/exp/librispeech/s5/fmllr/train_clean_100/data/feats_fmllr_train_clean_100.3.ark:329730864
1081-128618-0005 /scratch/ravanelm/exp/librispeech/s5/fmllr/train_clean_100/data/feats_fmllr_train_clean_100.1.ark:100564287
6476-57446-0074 /scratch/ravanelm/exp/librispeech/s5/fmllr/train_clean_100/data/feats_fmllr_train_clean_100.8.ark:183915519
196-122159-0031 /scratch/ravanelm/exp/librispeech/s5/fmllr/train_clean_100/data/feats_fmllr_train_clean_100.2.ark:233849176
5339-14134-0027 /scratch/ravanelm/exp/librispeech/s5/fmllr/train_clean_100/data/feats_fmllr_train_clean_100.6.ark:585621155
118-47824-0066 /scratch/ravanelm/exp/librispeech/s5/fmllr/train_clean_100/data/feats_fmllr_train_clean_100.1.ark:188122663
3807-4923-0014 /scratch/ravanelm/exp/librispeech/s5/fmllr/train_clean_100/data/feats_fmllr_train_clean_100.5.ark:27135938
4441-76263-0007 /scratch/ravanelm/exp/librispeech/s5/fmllr/train_clean_100/data/feats_fmllr_train_clean_100.6.ark:113247822
7794-295955-0000 /scratch/ravanelm/exp/librispeech/s5/fmllr/train_clean_100/data/feats_fmllr_train_clean_100.9.ark:317139021
3607-135982-0032 /scratch/ravanelm/exp/librispeech/s5/fmllr/train_clean_100/data/feats_fmllr_train_clean_100.4.ark:489372785
5789-70653-0017 /scratch/ravanelm/exp/librispeech/s5/fmllr/train_clean_100/data/feats_fmllr_train_clean_100.7.ark:291924741
6836-76549-0002 /scratch/ravanelm/exp/librispeech/s5/fmllr/train_clean_100/data/feats_fmllr_train_clean_100.8.ark:323516190
163-122947-0082 /scratch/ravanelm/exp/librispeech/s5/fmllr/train_clean_100/data/feats_fmllr_train_clean_100.2.ark:17498718
625-132118-0024 /scratch/ravanelm/exp/librispeech/s5/fmllr/train_clean_100/data/feats_fmllr_train_clean_100.8.ark:18064189
1553-140048-0005 /scratch/ravanelm/exp/librispeech/s5/fmllr/train_clean_100/data/feats_fmllr_train_clean_100.1.ark:471430750
6081-42010-0022 /scratch/ravanelm/exp/librispeech/s5/fmllr/train_clean_100/data/feats_fmllr_train_clean_100.7.ark:496933328
87-121553-0018 /scratch/ravanelm/exp/librispeech/s5/fmllr/train_clean_100/data/feats_fmllr_train_clean_100.10.ark:364341645
1723-141149-0037 /scratch/ravanelm/exp/librispeech/s5/fmllr/train_clean_100/data/feats_fmllr_train_clean_100.2.ark:29115790
2136-5140-0024 /scratch/ravanelm/exp/librispeech/s5/fmllr/train_clean_100/data/feats_fmllr_train_clean_100.2.ark:468016927
3879-174923-0049 /scratch/ravanelm/exp/librispeech/s5/fmllr/train_clean_100/data/feats_fmllr_train_clean_100.5.ark:112094884
289-121652-0012 /scratch/ravanelm/exp/librispeech/s5/fmllr/train_clean_100/data/feats_fmllr_train_clean_100.3.ark:460498237
5808-48608-0027 /scratch/ravanelm/exp/librispeech/s5/fmllr/train_clean_100/data/feats_fmllr_train_clean_100.7.ark:302076758
5678-43301-0022 /scratch/ravanelm/exp/librispeech/s5/fmllr/train_clean_100/data/feats_fmllr_train_clean_100.7.ark:159572167
625-132118-0042 /scratch/ravanelm/exp/librispeech/s5/fmllr/train_clean_100/data/feats_fmllr_train_clean_100.8.ark:22019147
1926-147987-0012 /scratch/ravanelm/exp/librispeech/s5/fmllr/train_clean_100/data/feats_fmllr_train_clean_100.2.ark:206051331
4014-186179-0007 /scratch/ravanelm/exp/librispeech/s5/fmllr/train_clean_100/data/feats_fmllr_train_clean_100.5.ark:247369010
103-1240-0002 /scratch/ravanelm/exp/librispeech/s5/fmllr/train_clean_100/data/feats_fmllr_train_clean_100.1.ark:480072
196-122150-0028 /scratch/ravanelm/exp/librispeech/s5/fmllr/train_clean_100/data/feats_fmllr_train_clean_100.2.ark:216459398
5049-25947-0100 /scratch/ravanelm/exp/librispeech/s5/fmllr/train_clean_100/data/feats_fmllr_train_clean_100.6.ark:471403815
4406-16882-0018 /scratch/ravanelm/exp/librispeech/s5/fmllr/train_clean_100/data/feats_fmllr_train_clean_100.6.ark:51904132
89-218-0029 /scratch/ravanelm/exp/librispeech/s5/fmllr/train_clean_100/data/feats_fmllr_train_clean_100.10.ark:506669394
730-358-0022 /scratch/ravanelm/exp/librispeech/s5/fmllr/train_clean_100/data/feats_fmllr_train_clean_100.9.ark:60477610
6531-61334-0085 /scratch/ravanelm/exp/librispeech/s5/fmllr/train_clean_100/data/feats_fmllr_train_clean_100.8.ark:230272275
7517-100437-0021 /scratch/ravanelm/exp/librispeech/s5/fmllr/train_clean_100/data/feats_fmllr_train_clean_100.9.ark:242395629
26-495-0061 /scratch/ravanelm/exp/librispeech/s5/fmllr/train_clean_100/data/feats_fmllr_train_clean_100.3.ark:306232744
426-122821-0014 /scratch/ravanelm/exp/librispeech/s5/fmllr/train_clean_100/data/feats_fmllr_train_clean_100.5.ark:499669515
6529-62554-0049 /scratch/ravanelm/exp/librispeech/s5/fmllr/train_clean_100/data/feats_fmllr_train_clean_100.8.ark:203667842
2893-139310-0048 /scratch/ravanelm/exp/librispeech/s5/fmllr/train_clean_100/data/feats_fmllr_train_clean_100.3.ark:486889588
8324-286682-0014 /scratch/ravanelm/exp/librispeech/s5/fmllr/train_clean_100/data/feats_fmllr_train_clean_100.10.ark:139102135
1867-148436-0033 /scratch/ravanelm/exp/librispeech/s5/fmllr/train_clean_100/data/feats_fmllr_train_clean_100.2.ark:119420494
5703-47212-0022 /scratch/ravanelm/exp/librispeech/s5/fmllr/train_clean_100/data/feats_fmllr_train_clean_100.7.ark:221036068
458-126290-0011 /scratch/ravanelm/exp/librispeech/s5/fmllr/train_clean_100/data/feats_fmllr_train_clean_100.6.ark:178876622
32-21631-0018 /scratch/ravanelm/exp/librispeech/s5/fmllr/train_clean_100/data/feats_fmllr_train_clean_100.4.ark:165300011
5703-47198-0022 /scratch/ravanelm/exp/librispeech/s5/fmllr/train_clean_100/data/feats_fmllr_train_clean_100.7.ark:208174528
481-123720-0060 /scratch/ravanelm/exp/librispeech/s5/fmllr/train_clean_100/data/feats_fmllr_train_clean_100.6.ark:308813181
4813-248638-0055 /scratch/ravanelm/exp/librispeech/s5/fmllr/train_clean_100/data/feats_fmllr_train_clean_100.6.ark:325334148
7302-86815-0064 /scratch/ravanelm/exp/librispeech/s5/fmllr/train_clean_100/data/feats_fmllr_train_clean_100.9.ark:101088719
1624-168623-0003 /scratch/ravanelm/exp/librispeech/s5/fmllr/train_clean_100/data/feats_fmllr_train_clean_100.1.ark:539390556
6437-66172-0025 /scratch/ravanelm/exp/librispeech/s5/fmllr/train_clean_100/data/feats_fmllr_train_clean_100.8.ark:125748288
5808-48608-0021 /scratch/ravanelm/exp/librispeech/s5/fmllr/train_clean_100/data/feats_fmllr_train_clean_100.7.ark:300819292
5514-19193-0010 /scratch/ravanelm/exp/librispeech/s5/fmllr/train_clean_100/data/feats_fmllr_train_clean_100.7.ark:102221695
5049-25947-0109 /scratch/ravanelm/exp/librispeech/s5/fmllr/train_clean_100/data/feats_fmllr_train_clean_100.6.ark:473132734
460-172359-0008 /scratch/ravanelm/exp/librispeech/s5/fmllr/train_clean_100/data/feats_fmllr_train_clean_100.6.ark:200198437
7148-7763-0022 /scratch/ravanelm/exp/librispeech/s5/fmllr/train_clean_100/data/feats_fmllr_train_clean_100.8.ark:528320745
5688-41232-0023 /scratch/ravanelm/exp/librispeech/s5/fmllr/train_clean_100/data/feats_fmllr_train_clean_100.7.ark:192439532
1034-121119-0024 /scratch/ravanelm/exp/librispeech/s5/fmllr/train_clean_100/data/feats_fmllr_train_clean_100.1.ark:26866143
3240-131231-0019 /scratch/ravanelm/exp/librispeech/s5/fmllr/train_clean_100/data/feats_fmllr_train_clean_100.4.ark:255911669
60-121082-0091 /scratch/ravanelm/exp/librispeech/s5/fmllr/train_clean_100/data/feats_fmllr_train_clean_100.7.ark:385648423
32-21634-0002 /scratch/ravanelm/exp/librispeech/s5/fmllr/train_clean_100/data/feats_fmllr_train_clean_100.4.ark:166115007
311-124404-0058 /scratch/ravanelm/exp/librispeech/s5/fmllr/train_clean_100/data/feats_fmllr_train_clean_100.4.ark:98364069
1355-39947-0064 /scratch/ravanelm/exp/librispeech/s5/fmllr/train_clean_100/data/feats_fmllr_train_clean_100.1.ark:334492724
211-122442-0023 /scratch/ravanelm/exp/librispeech/s5/fmllr/train_clean_100/data/feats_fmllr_train_clean_100.2.ark:454577197
7113-86041-0070 /scratch/ravanelm/exp/librispeech/s5/fmllr/train_clean_100/data/feats_fmllr_train_clean_100.8.ark:506388713
19-227-0041 /scratch/ravanelm/exp/librispeech/s5/fmllr/train_clean_100/data/feats_fmllr_train_clean_100.2.ark:178908126
2514-149482-0019 /scratch/ravanelm/exp/librispeech/s5/fmllr/train_clean_100/data/feats_fmllr_train_clean_100.3.ark:226399345
1034-121119-0040 /scratch/ravanelm/exp/librispeech/s5/fmllr/train_clean_100/data/feats_fmllr_train_clean_100.1.ark:29473055
211-122425-0000 /scratch/ravanelm/exp/librispeech/s5/fmllr/train_clean_100/data/feats_fmllr_train_clean_100.2.ark:438655382
7517-100429-0001 /scratch/ravanelm/exp/librispeech/s5/fmllr/train_clean_100/data/feats_fmllr_train_clean_100.9.ark:230919373
254-145458-0005 /scratch/ravanelm/exp/librispeech/s5/fmllr/train_clean_100/data/feats_fmllr_train_clean_100.3.ark:284073204
4441-76263-0014 /scratch/ravanelm/exp/librispeech/s5/fmllr/train_clean_100/data/feats_fmllr_train_clean_100.6.ark:114304359
