8088-284756-0020 /scratch/ravanelm/exp/librispeech/s5/fmllr/train_clean_100/data/feats_fmllr_train_clean_100.9.ark:459344255
307-127539-0014 /scratch/ravanelm/exp/librispeech/s5/fmllr/train_clean_100/data/feats_fmllr_train_clean_100.4.ark:73298687
2136-5143-0017 /scratch/ravanelm/exp/librispeech/s5/fmllr/train_clean_100/data/feats_fmllr_train_clean_100.2.ark:474845307
7190-90542-0030 /scratch/ravanelm/exp/librispeech/s5/fmllr/train_clean_100/data/feats_fmllr_train_clean_100.8.ark:568542648
4340-15220-0049 /scratch/ravanelm/exp/librispeech/s5/fmllr/train_clean_100/data/feats_fmllr_train_clean_100.5.ark:572119840
405-130895-0021 /scratch/ravanelm/exp/librispeech/s5/fmllr/train_clean_100/data/feats_fmllr_train_clean_100.5.ark:327678020
7178-34644-0026 /scratch/ravanelm/exp/librispeech/s5/fmllr/train_clean_100/data/feats_fmllr_train_clean_100.8.ark:545300399
1455-138263-0007 /scratch/ravanelm/exp/librispeech/s5/fmllr/train_clean_100/data/feats_fmllr_train_clean_100.1.ark:401610160
1183-128659-0018 /scratch/ravanelm/exp/librispeech/s5/fmllr/train_clean_100/data/feats_fmllr_train_clean_100.1.ark:194373343
2843-152918-0104 /scratch/ravanelm/exp/librispeech/s5/fmllr/train_clean_100/data/feats_fmllr_train_clean_100.3.ark:455329482
8014-112586-0010 /scratch/ravanelm/exp/librispeech/s5/fmllr/train_clean_100/data/feats_fmllr_train_clean_100.9.ark:395796991
1116-137572-0046 /scratch/ravanelm/exp/librispeech/s5/fmllr/train_clean_100/data/feats_fmllr_train_clean_100.1.ark:165573055
6818-68772-0031 /scratch/ravanelm/exp/librispeech/s5/fmllr/train_clean_100/data/feats_fmllr_train_clean_100.8.ark:289137439
831-130739-0011 /scratch/ravanelm/exp/librispeech/s5/fmllr/train_clean_100/data/feats_fmllr_train_clean_100.10.ark:84490471
7190-90542-0034 /scratch/ravanelm/exp/librispeech/s5/fmllr/train_clean_100/data/feats_fmllr_train_clean_100.8.ark:569315092
322-124147-0007 /scratch/ravanelm/exp/librispeech/s5/fmllr/train_clean_100/data/feats_fmllr_train_clean_100.4.ark:212807570
5390-24512-0038 /scratch/ravanelm/exp/librispeech/s5/fmllr/train_clean_100/data/feats_fmllr_train_clean_100.7.ark:7695274
1926-147979-0011 /scratch/ravanelm/exp/librispeech/s5/fmllr/train_clean_100/data/feats_fmllr_train_clean_100.2.ark:195198211
198-126831-0040 /scratch/ravanelm/exp/librispeech/s5/fmllr/train_clean_100/data/feats_fmllr_train_clean_100.2.ark:290391028
1743-142913-0015 /scratch/ravanelm/exp/librispeech/s5/fmllr/train_clean_100/data/feats_fmllr_train_clean_100.2.ark:79296046
8123-275216-0038 /scratch/ravanelm/exp/librispeech/s5/fmllr/train_clean_100/data/feats_fmllr_train_clean_100.10.ark:8648913
7148-59157-0021 /scratch/ravanelm/exp/librispeech/s5/fmllr/train_clean_100/data/feats_fmllr_train_clean_100.8.ark:519465835
7078-271888-0090 /scratch/ravanelm/exp/librispeech/s5/fmllr/train_clean_100/data/feats_fmllr_train_clean_100.8.ark:485676304
587-41611-0004 /scratch/ravanelm/exp/librispeech/s5/fmllr/train_clean_100/data/feats_fmllr_train_clean_100.7.ark:343835103
2836-5354-0014 /scratch/ravanelm/exp/librispeech/s5/fmllr/train_clean_100/data/feats_fmllr_train_clean_100.3.ark:413143942
8630-305213-0032 /scratch/ravanelm/exp/librispeech/s5/fmllr/train_clean_100/data/feats_fmllr_train_clean_100.10.ark:354800531
1737-142397-0018 /scratch/ravanelm/exp/librispeech/s5/fmllr/train_clean_100/data/feats_fmllr_train_clean_100.2.ark:52660174
2691-156745-0021 /scratch/ravanelm/exp/librispeech/s5/fmllr/train_clean_100/data/feats_fmllr_train_clean_100.3.ark:322423280
7067-76048-0018 /scratch/ravanelm/exp/librispeech/s5/fmllr/train_clean_100/data/feats_fmllr_train_clean_100.8.ark:457867290
3526-175658-0033 /scratch/ravanelm/exp/librispeech/s5/fmllr/train_clean_100/data/feats_fmllr_train_clean_100.4.ark:465152369
1363-135842-0009 /scratch/ravanelm/exp/librispeech/s5/fmllr/train_clean_100/data/feats_fmllr_train_clean_100.1.ark:343362867
4014-186175-0006 /scratch/ravanelm/exp/librispeech/s5/fmllr/train_clean_100/data/feats_fmllr_train_clean_100.5.ark:235301426
8468-286673-0018 /scratch/ravanelm/exp/librispeech/s5/fmllr/train_clean_100/data/feats_fmllr_train_clean_100.10.ark:250171027
1355-39947-0031 /scratch/ravanelm/exp/librispeech/s5/fmllr/train_clean_100/data/feats_fmllr_train_clean_100.1.ark:327607701
150-132655-0023 /scratch/ravanelm/exp/librispeech/s5/fmllr/train_clean_100/data/feats_fmllr_train_clean_100.1.ark:433179050
7367-86737-0041 /scratch/ravanelm/exp/librispeech/s5/fmllr/train_clean_100/data/feats_fmllr_train_clean_100.9.ark:118376727
3699-175950-0023 /scratch/ravanelm/exp/librispeech/s5/fmllr/train_clean_100/data/feats_fmllr_train_clean_100.4.ark:532053539
211-122442-0013 /scratch/ravanelm/exp/librispeech/s5/fmllr/train_clean_100/data/feats_fmllr_train_clean_100.2.ark:453159447
6836-61803-0034 /scratch/ravanelm/exp/librispeech/s5/fmllr/train_clean_100/data/feats_fmllr_train_clean_100.8.ark:313449329
5778-12761-0048 /scratch/ravanelm/exp/librispeech/s5/fmllr/train_clean_100/data/feats_fmllr_train_clean_100.7.ark:261211028
60-121082-0091 /scratch/ravanelm/exp/librispeech/s5/fmllr/train_clean_100/data/feats_fmllr_train_clean_100.7.ark:385648423
7800-283492-0040 /scratch/ravanelm/exp/librispeech/s5/fmllr/train_clean_100/data/feats_fmllr_train_clean_100.9.ark:364421471
3526-175658-0003 /scratch/ravanelm/exp/librispeech/s5/fmllr/train_clean_100/data/feats_fmllr_train_clean_100.4.ark:458774929
118-47824-0017 /scratch/ravanelm/exp/librispeech/s5/fmllr/train_clean_100/data/feats_fmllr_train_clean_100.1.ark:180352873
8629-261139-0073 /scratch/ravanelm/exp/librispeech/s5/fmllr/train_clean_100/data/feats_fmllr_train_clean_100.10.ark:327812467
445-123860-0024 /scratch/ravanelm/exp/librispeech/s5/fmllr/train_clean_100/data/feats_fmllr_train_clean_100.6.ark:130455660
5789-70653-0025 /scratch/ravanelm/exp/librispeech/s5/fmllr/train_clean_100/data/feats_fmllr_train_clean_100.7.ark:293529949
211-122442-0068 /scratch/ravanelm/exp/librispeech/s5/fmllr/train_clean_100/data/feats_fmllr_train_clean_100.2.ark:461309632
1898-145715-0027 /scratch/ravanelm/exp/librispeech/s5/fmllr/train_clean_100/data/feats_fmllr_train_clean_100.2.ark:146883566
4640-19189-0027 /scratch/ravanelm/exp/librispeech/s5/fmllr/train_clean_100/data/feats_fmllr_train_clean_100.6.ark:238438779
150-126112-0006 /scratch/ravanelm/exp/librispeech/s5/fmllr/train_clean_100/data/feats_fmllr_train_clean_100.1.ark:421581216
196-122159-0016 /scratch/ravanelm/exp/librispeech/s5/fmllr/train_clean_100/data/feats_fmllr_train_clean_100.2.ark:230578631
32-4137-0002 /scratch/ravanelm/exp/librispeech/s5/fmllr/train_clean_100/data/feats_fmllr_train_clean_100.4.ark:169906144
5703-47212-0001 /scratch/ravanelm/exp/librispeech/s5/fmllr/train_clean_100/data/feats_fmllr_train_clean_100.7.ark:216419897
2843-152918-0054 /scratch/ravanelm/exp/librispeech/s5/fmllr/train_clean_100/data/feats_fmllr_train_clean_100.3.ark:445276842
8238-274553-0072 /scratch/ravanelm/exp/librispeech/s5/fmllr/train_clean_100/data/feats_fmllr_train_clean_100.10.ark:47987729
118-47824-0001 /scratch/ravanelm/exp/librispeech/s5/fmllr/train_clean_100/data/feats_fmllr_train_clean_100.1.ark:177289033
5456-62043-0006 /scratch/ravanelm/exp/librispeech/s5/fmllr/train_clean_100/data/feats_fmllr_train_clean_100.7.ark:60600336
587-41611-0024 /scratch/ravanelm/exp/librispeech/s5/fmllr/train_clean_100/data/feats_fmllr_train_clean_100.7.ark:348264983
307-127535-0021 /scratch/ravanelm/exp/librispeech/s5/fmllr/train_clean_100/data/feats_fmllr_train_clean_100.4.ark:66340998
911-128684-0049 /scratch/ravanelm/exp/librispeech/s5/fmllr/train_clean_100/data/feats_fmllr_train_clean_100.10.ark:583048065
2384-152900-0079 /scratch/ravanelm/exp/librispeech/s5/fmllr/train_clean_100/data/feats_fmllr_train_clean_100.3.ark:99445021
6848-252322-0012 /scratch/ravanelm/exp/librispeech/s5/fmllr/train_clean_100/data/feats_fmllr_train_clean_100.8.ark:332958176
3857-182315-0025 /scratch/ravanelm/exp/librispeech/s5/fmllr/train_clean_100/data/feats_fmllr_train_clean_100.5.ark:80401668
4441-76250-0005 /scratch/ravanelm/exp/librispeech/s5/fmllr/train_clean_100/data/feats_fmllr_train_clean_100.6.ark:97448124
1624-168623-0007 /scratch/ravanelm/exp/librispeech/s5/fmllr/train_clean_100/data/feats_fmllr_train_clean_100.1.ark:540347964
7635-105661-0008 /scratch/ravanelm/exp/librispeech/s5/fmllr/train_clean_100/data/feats_fmllr_train_clean_100.9.ark:269781517
3235-28452-0020 /scratch/ravanelm/exp/librispeech/s5/fmllr/train_clean_100/data/feats_fmllr_train_clean_100.4.ark:249604706
3982-182255-0030 /scratch/ravanelm/exp/librispeech/s5/fmllr/train_clean_100/data/feats_fmllr_train_clean_100.5.ark:182478759
3982-178459-0056 /scratch/ravanelm/exp/librispeech/s5/fmllr/train_clean_100/data/feats_fmllr_train_clean_100.5.ark:173863047
4137-11701-0019 /scratch/ravanelm/exp/librispeech/s5/fmllr/train_clean_100/data/feats_fmllr_train_clean_100.5.ark:404300860
2817-142380-0010 /scratch/ravanelm/exp/librispeech/s5/fmllr/train_clean_100/data/feats_fmllr_train_clean_100.3.ark:402984068
5390-30102-0009 /scratch/ravanelm/exp/librispeech/s5/fmllr/train_clean_100/data/feats_fmllr_train_clean_100.7.ark:18985619
8226-274369-0037 /scratch/ravanelm/exp/librispeech/s5/fmllr/train_clean_100/data/feats_fmllr_train_clean_100.10.ark:17929873
4297-13006-0011 /scratch/ravanelm/exp/librispeech/s5/fmllr/train_clean_100/data/feats_fmllr_train_clean_100.5.ark:539803381
1455-138263-0033 /scratch/ravanelm/exp/librispeech/s5/fmllr/train_clean_100/data/feats_fmllr_train_clean_100.1.ark:406327952
322-124147-0012 /scratch/ravanelm/exp/librispeech/s5/fmllr/train_clean_100/data/feats_fmllr_train_clean_100.4.ark:213929805
2843-152918-0099 /scratch/ravanelm/exp/librispeech/s5/fmllr/train_clean_100/data/feats_fmllr_train_clean_100.3.ark:454310762
289-121652-0016 /scratch/ravanelm/exp/librispeech/s5/fmllr/train_clean_100/data/feats_fmllr_train_clean_100.3.ark:461300281
8797-294123-0092 /scratch/ravanelm/exp/librispeech/s5/fmllr/train_clean_100/data/feats_fmllr_train_clean_100.10.ark:449990043
2196-174172-0033 /scratch/ravanelm/exp/librispeech/s5/fmllr/train_clean_100/data/feats_fmllr_train_clean_100.2.ark:557434515
6078-54013-0038 /scratch/ravanelm/exp/librispeech/s5/fmllr/train_clean_100/data/feats_fmllr_train_clean_100.7.ark:468891171
7800-283493-0008 /scratch/ravanelm/exp/librispeech/s5/fmllr/train_clean_100/data/feats_fmllr_train_clean_100.9.ark:366506559
6272-70191-0006 /scratch/ravanelm/exp/librispeech/s5/fmllr/train_clean_100/data/feats_fmllr_train_clean_100.8.ark:41189039
5393-19219-0056 /scratch/ravanelm/exp/librispeech/s5/fmllr/train_clean_100/data/feats_fmllr_train_clean_100.7.ark:46775270
163-122947-0058 /scratch/ravanelm/exp/librispeech/s5/fmllr/train_clean_100/data/feats_fmllr_train_clean_100.2.ark:12161814
4640-19188-0004 /scratch/ravanelm/exp/librispeech/s5/fmllr/train_clean_100/data/feats_fmllr_train_clean_100.6.ark:225217435
1235-135883-0042 /scratch/ravanelm/exp/librispeech/s5/fmllr/train_clean_100/data/feats_fmllr_train_clean_100.1.ark:209306911
8419-286667-0025 /scratch/ravanelm/exp/librispeech/s5/fmllr/train_clean_100/data/feats_fmllr_train_clean_100.10.ark:179604403
87-121553-0006 /scratch/ravanelm/exp/librispeech/s5/fmllr/train_clean_100/data/feats_fmllr_train_clean_100.10.ark:361517765
7402-90848-0037 /scratch/ravanelm/exp/librispeech/s5/fmllr/train_clean_100/data/feats_fmllr_train_clean_100.9.ark:152981651
83-9960-0028 /scratch/ravanelm/exp/librispeech/s5/fmllr/train_clean_100/data/feats_fmllr_train_clean_100.10.ark:76514915
125-121124-0024 /scratch/ravanelm/exp/librispeech/s5/fmllr/train_clean_100/data/feats_fmllr_train_clean_100.1.ark:253100934
6147-34605-0010 /scratch/ravanelm/exp/librispeech/s5/fmllr/train_clean_100/data/feats_fmllr_train_clean_100.7.ark:502298774
5163-18515-0006 /scratch/ravanelm/exp/librispeech/s5/fmllr/train_clean_100/data/feats_fmllr_train_clean_100.6.ark:501490230
4813-248638-0037 /scratch/ravanelm/exp/librispeech/s5/fmllr/train_clean_100/data/feats_fmllr_train_clean_100.6.ark:321334852
8770-295465-0022 /scratch/ravanelm/exp/librispeech/s5/fmllr/train_clean_100/data/feats_fmllr_train_clean_100.10.ark:426561691
3486-166446-0011 /scratch/ravanelm/exp/librispeech/s5/fmllr/train_clean_100/data/feats_fmllr_train_clean_100.4.ark:451565937
1098-133695-0012 /scratch/ravanelm/exp/librispeech/s5/fmllr/train_clean_100/data/feats_fmllr_train_clean_100.1.ark:128609663
4267-72637-0014 /scratch/ravanelm/exp/librispeech/s5/fmllr/train_clean_100/data/feats_fmllr_train_clean_100.5.ark:524740060
4051-11217-0030 /scratch/ravanelm/exp/librispeech/s5/fmllr/train_clean_100/data/feats_fmllr_train_clean_100.5.ark:341006745
887-123290-0026 /scratch/ravanelm/exp/librispeech/s5/fmllr/train_clean_100/data/feats_fmllr_train_clean_100.10.ark:490913496
7367-86737-0108 /scratch/ravanelm/exp/librispeech/s5/fmllr/train_clean_100/data/feats_fmllr_train_clean_100.9.ark:132278324
5456-58161-0018 /scratch/ravanelm/exp/librispeech/s5/fmllr/train_clean_100/data/feats_fmllr_train_clean_100.7.ark:54642100
8629-261140-0049 /scratch/ravanelm/exp/librispeech/s5/fmllr/train_clean_100/data/feats_fmllr_train_clean_100.10.ark:337249203
8580-287364-0025 /scratch/ravanelm/exp/librispeech/s5/fmllr/train_clean_100/data/feats_fmllr_train_clean_100.10.ark:284039091
3879-174923-0061 /scratch/ravanelm/exp/librispeech/s5/fmllr/train_clean_100/data/feats_fmllr_train_clean_100.5.ark:114362948
6181-216552-0111 /scratch/ravanelm/exp/librispeech/s5/fmllr/train_clean_100/data/feats_fmllr_train_clean_100.7.ark:547437484
2436-2481-0018 /scratch/ravanelm/exp/librispeech/s5/fmllr/train_clean_100/data/feats_fmllr_train_clean_100.3.ark:169512347
5561-39621-0039 /scratch/ravanelm/exp/librispeech/s5/fmllr/train_clean_100/data/feats_fmllr_train_clean_100.7.ark:113477630
89-219-0016 /scratch/ravanelm/exp/librispeech/s5/fmllr/train_clean_100/data/feats_fmllr_train_clean_100.10.ark:515783089
374-180299-0036 /scratch/ravanelm/exp/librispeech/s5/fmllr/train_clean_100/data/feats_fmllr_train_clean_100.5.ark:21748778
6925-80680-0026 /scratch/ravanelm/exp/librispeech/s5/fmllr/train_clean_100/data/feats_fmllr_train_clean_100.8.ark:383466241
6078-54013-0023 /scratch/ravanelm/exp/librispeech/s5/fmllr/train_clean_100/data/feats_fmllr_train_clean_100.7.ark:466534226
7367-86737-0002 /scratch/ravanelm/exp/librispeech/s5/fmllr/train_clean_100/data/feats_fmllr_train_clean_100.9.ark:110575998
4051-11218-0021 /scratch/ravanelm/exp/librispeech/s5/fmllr/train_clean_100/data/feats_fmllr_train_clean_100.5.ark:347097048
5678-43303-0004 /scratch/ravanelm/exp/librispeech/s5/fmllr/train_clean_100/data/feats_fmllr_train_clean_100.7.ark:171345908
4397-15668-0025 /scratch/ravanelm/exp/librispeech/s5/fmllr/train_clean_100/data/feats_fmllr_train_clean_100.6.ark:35624625
248-130652-0006 /scratch/ravanelm/exp/librispeech/s5/fmllr/train_clean_100/data/feats_fmllr_train_clean_100.3.ark:182808681
7113-86041-0043 /scratch/ravanelm/exp/librispeech/s5/fmllr/train_clean_100/data/feats_fmllr_train_clean_100.8.ark:500506276
2893-139310-0046 /scratch/ravanelm/exp/librispeech/s5/fmllr/train_clean_100/data/feats_fmllr_train_clean_100.3.ark:486396084
458-126294-0016 /scratch/ravanelm/exp/librispeech/s5/fmllr/train_clean_100/data/feats_fmllr_train_clean_100.6.ark:184000437
3526-176651-0002 /scratch/ravanelm/exp/librispeech/s5/fmllr/train_clean_100/data/feats_fmllr_train_clean_100.4.ark:466241809
4481-17499-0027 /scratch/ravanelm/exp/librispeech/s5/fmllr/train_clean_100/data/feats_fmllr_train_clean_100.6.ark:171848270
1553-140048-0019 /scratch/ravanelm/exp/librispeech/s5/fmllr/train_clean_100/data/feats_fmllr_train_clean_100.1.ark:474500958
4267-78186-0030 /scratch/ravanelm/exp/librispeech/s5/fmllr/train_clean_100/data/feats_fmllr_train_clean_100.5.ark:535508232
6367-65536-0068 /scratch/ravanelm/exp/librispeech/s5/fmllr/train_clean_100/data/feats_fmllr_train_clean_100.8.ark:63088459
8770-295462-0032 /scratch/ravanelm/exp/librispeech/s5/fmllr/train_clean_100/data/feats_fmllr_train_clean_100.10.ark:413798651
8088-284756-0031 /scratch/ravanelm/exp/librispeech/s5/fmllr/train_clean_100/data/feats_fmllr_train_clean_100.9.ark:461921247
1355-39947-0082 /scratch/ravanelm/exp/librispeech/s5/fmllr/train_clean_100/data/feats_fmllr_train_clean_100.1.ark:338486882
2391-145015-0055 /scratch/ravanelm/exp/librispeech/s5/fmllr/train_clean_100/data/feats_fmllr_train_clean_100.3.ark:112589693
1867-148436-0027 /scratch/ravanelm/exp/librispeech/s5/fmllr/train_clean_100/data/feats_fmllr_train_clean_100.2.ark:118430702
1235-135883-0003 /scratch/ravanelm/exp/librispeech/s5/fmllr/train_clean_100/data/feats_fmllr_train_clean_100.1.ark:201804383
3983-5371-0011 /scratch/ravanelm/exp/librispeech/s5/fmllr/train_clean_100/data/feats_fmllr_train_clean_100.5.ark:200750339
6019-3185-0073 /scratch/ravanelm/exp/librispeech/s5/fmllr/train_clean_100/data/feats_fmllr_train_clean_100.7.ark:419831441
696-93314-0055 /scratch/ravanelm/exp/librispeech/s5/fmllr/train_clean_100/data/feats_fmllr_train_clean_100.8.ark:416197350
250-140277-0013 /scratch/ravanelm/exp/librispeech/s5/fmllr/train_clean_100/data/feats_fmllr_train_clean_100.3.ark:200638325
8468-295198-0031 /scratch/ravanelm/exp/librispeech/s5/fmllr/train_clean_100/data/feats_fmllr_train_clean_100.10.ark:269775731
625-132118-0044 /scratch/ravanelm/exp/librispeech/s5/fmllr/train_clean_100/data/feats_fmllr_train_clean_100.8.ark:22434249
887-123289-0019 /scratch/ravanelm/exp/librispeech/s5/fmllr/train_clean_100/data/feats_fmllr_train_clean_100.10.ark:480828679
3168-173565-0052 /scratch/ravanelm/exp/librispeech/s5/fmllr/train_clean_100/data/feats_fmllr_train_clean_100.4.ark:155382330
89-218-0007 /scratch/ravanelm/exp/librispeech/s5/fmllr/train_clean_100/data/feats_fmllr_train_clean_100.10.ark:502131680
887-123289-0012 /scratch/ravanelm/exp/librispeech/s5/fmllr/train_clean_100/data/feats_fmllr_train_clean_100.10.ark:479363022
1088-134315-0045 /scratch/ravanelm/exp/librispeech/s5/fmllr/train_clean_100/data/feats_fmllr_train_clean_100.1.ark:118482207
211-122442-0032 /scratch/ravanelm/exp/librispeech/s5/fmllr/train_clean_100/data/feats_fmllr_train_clean_100.2.ark:455552356
1334-135589-0089 /scratch/ravanelm/exp/librispeech/s5/fmllr/train_clean_100/data/feats_fmllr_train_clean_100.1.ark:316356245
4853-27671-0005 /scratch/ravanelm/exp/librispeech/s5/fmllr/train_clean_100/data/feats_fmllr_train_clean_100.6.ark:369715278
6147-34606-0002 /scratch/ravanelm/exp/librispeech/s5/fmllr/train_clean_100/data/feats_fmllr_train_clean_100.7.ark:508887957
7302-86814-0006 /scratch/ravanelm/exp/librispeech/s5/fmllr/train_clean_100/data/feats_fmllr_train_clean_100.9.ark:82446491
200-124139-0025 /scratch/ravanelm/exp/librispeech/s5/fmllr/train_clean_100/data/feats_fmllr_train_clean_100.2.ark:323145104
5393-19219-0011 /scratch/ravanelm/exp/librispeech/s5/fmllr/train_clean_100/data/feats_fmllr_train_clean_100.7.ark:38337075
7059-88364-0009 /scratch/ravanelm/exp/librispeech/s5/fmllr/train_clean_100/data/feats_fmllr_train_clean_100.8.ark:437169976
2893-139310-0024 /scratch/ravanelm/exp/librispeech/s5/fmllr/train_clean_100/data/feats_fmllr_train_clean_100.3.ark:481559060
7078-271888-0004 /scratch/ravanelm/exp/librispeech/s5/fmllr/train_clean_100/data/feats_fmllr_train_clean_100.8.ark:467806192
3857-182317-0031 /scratch/ravanelm/exp/librispeech/s5/fmllr/train_clean_100/data/feats_fmllr_train_clean_100.5.ark:91979492
405-130894-0070 /scratch/ravanelm/exp/librispeech/s5/fmllr/train_clean_100/data/feats_fmllr_train_clean_100.5.ark:321453410
3374-298032-0034 /scratch/ravanelm/exp/librispeech/s5/fmllr/train_clean_100/data/feats_fmllr_train_clean_100.4.ark:384182481
5778-54535-0046 /scratch/ravanelm/exp/librispeech/s5/fmllr/train_clean_100/data/feats_fmllr_train_clean_100.7.ark:271400196
6147-34607-0017 /scratch/ravanelm/exp/librispeech/s5/fmllr/train_clean_100/data/feats_fmllr_train_clean_100.7.ark:518917507
5778-54535-0023 /scratch/ravanelm/exp/librispeech/s5/fmllr/train_clean_100/data/feats_fmllr_train_clean_100.7.ark:266460283
7367-86737-0063 /scratch/ravanelm/exp/librispeech/s5/fmllr/train_clean_100/data/feats_fmllr_train_clean_100.9.ark:122883489
911-130578-0019 /scratch/ravanelm/exp/librispeech/s5/fmllr/train_clean_100/data/feats_fmllr_train_clean_100.10.ark:595320707
39-121914-0008 /scratch/ravanelm/exp/librispeech/s5/fmllr/train_clean_100/data/feats_fmllr_train_clean_100.5.ark:118172050
1926-143879-0033 /scratch/ravanelm/exp/librispeech/s5/fmllr/train_clean_100/data/feats_fmllr_train_clean_100.2.ark:190831171
4397-15666-0013 /scratch/ravanelm/exp/librispeech/s5/fmllr/train_clean_100/data/feats_fmllr_train_clean_100.6.ark:26906136
5808-48608-0011 /scratch/ravanelm/exp/librispeech/s5/fmllr/train_clean_100/data/feats_fmllr_train_clean_100.7.ark:298536102
4441-76262-0019 /scratch/ravanelm/exp/librispeech/s5/fmllr/train_clean_100/data/feats_fmllr_train_clean_100.6.ark:108234567
6476-96661-0022 /scratch/ravanelm/exp/librispeech/s5/fmllr/train_clean_100/data/feats_fmllr_train_clean_100.8.ark:191057275
2159-179154-0006 /scratch/ravanelm/exp/librispeech/s5/fmllr/train_clean_100/data/feats_fmllr_train_clean_100.2.ark:488263731
1926-147987-0015 /scratch/ravanelm/exp/librispeech/s5/fmllr/train_clean_100/data/feats_fmllr_train_clean_100.2.ark:206723267
6531-61334-0071 /scratch/ravanelm/exp/librispeech/s5/fmllr/train_clean_100/data/feats_fmllr_train_clean_100.8.ark:228593121
3664-11714-0030 /scratch/ravanelm/exp/librispeech/s5/fmllr/train_clean_100/data/feats_fmllr_train_clean_100.4.ark:510151780
6181-216552-0032 /scratch/ravanelm/exp/librispeech/s5/fmllr/train_clean_100/data/feats_fmllr_train_clean_100.7.ark:530538476
4788-91208-0025 /scratch/ravanelm/exp/librispeech/s5/fmllr/train_clean_100/data/feats_fmllr_train_clean_100.6.ark:278340469
8238-274553-0074 /scratch/ravanelm/exp/librispeech/s5/fmllr/train_clean_100/data/feats_fmllr_train_clean_100.10.ark:48218673
1116-137572-0023 /scratch/ravanelm/exp/librispeech/s5/fmllr/train_clean_100/data/feats_fmllr_train_clean_100.1.ark:161058879
4018-103416-0020 /scratch/ravanelm/exp/librispeech/s5/fmllr/train_clean_100/data/feats_fmllr_train_clean_100.5.ark:262765074
3259-158083-0116 /scratch/ravanelm/exp/librispeech/s5/fmllr/train_clean_100/data/feats_fmllr_train_clean_100.4.ark:322571245
8324-286682-0031 /scratch/ravanelm/exp/librispeech/s5/fmllr/train_clean_100/data/feats_fmllr_train_clean_100.10.ark:142903639
4898-28461-0060 /scratch/ravanelm/exp/librispeech/s5/fmllr/train_clean_100/data/feats_fmllr_train_clean_100.6.ark:426485671
201-122255-0010 /scratch/ravanelm/exp/librispeech/s5/fmllr/train_clean_100/data/feats_fmllr_train_clean_100.2.ark:392285643
5561-39621-0035 /scratch/ravanelm/exp/librispeech/s5/fmllr/train_clean_100/data/feats_fmllr_train_clean_100.7.ark:113073986
831-130746-0025 /scratch/ravanelm/exp/librispeech/s5/fmllr/train_clean_100/data/feats_fmllr_train_clean_100.10.ark:99300058
8419-286676-0028 /scratch/ravanelm/exp/librispeech/s5/fmllr/train_clean_100/data/feats_fmllr_train_clean_100.10.ark:187248371
5678-43302-0030 /scratch/ravanelm/exp/librispeech/s5/fmllr/train_clean_100/data/feats_fmllr_train_clean_100.7.ark:167919043
78-368-0009 /scratch/ravanelm/exp/librispeech/s5/fmllr/train_clean_100/data/feats_fmllr_train_clean_100.9.ark:326585883
332-128985-0030 /scratch/ravanelm/exp/librispeech/s5/fmllr/train_clean_100/data/feats_fmllr_train_clean_100.4.ark:349493163
2384-152900-0059 /scratch/ravanelm/exp/librispeech/s5/fmllr/train_clean_100/data/feats_fmllr_train_clean_100.3.ark:95311261
6000-86686-0013 /scratch/ravanelm/exp/librispeech/s5/fmllr/train_clean_100/data/feats_fmllr_train_clean_100.7.ark:401435729
200-124139-0002 /scratch/ravanelm/exp/librispeech/s5/fmllr/train_clean_100/data/feats_fmllr_train_clean_100.2.ark:318689991
7059-77900-0032 /scratch/ravanelm/exp/librispeech/s5/fmllr/train_clean_100/data/feats_fmllr_train_clean_100.8.ark:432942316
3259-158083-0087 /scratch/ravanelm/exp/librispeech/s5/fmllr/train_clean_100/data/feats_fmllr_train_clean_100.4.ark:316884077
3486-166424-0043 /scratch/ravanelm/exp/librispeech/s5/fmllr/train_clean_100/data/feats_fmllr_train_clean_100.4.ark:443096209
2952-408-0021 /scratch/ravanelm/exp/librispeech/s5/fmllr/train_clean_100/data/feats_fmllr_train_clean_100.3.ark:555300624
5561-41615-0029 /scratch/ravanelm/exp/librispeech/s5/fmllr/train_clean_100/data/feats_fmllr_train_clean_100.7.ark:119761466
6454-120342-0008 /scratch/ravanelm/exp/librispeech/s5/fmllr/train_clean_100/data/feats_fmllr_train_clean_100.8.ark:154768974
1553-140048-0014 /scratch/ravanelm/exp/librispeech/s5/fmllr/train_clean_100/data/feats_fmllr_train_clean_100.1.ark:473496478
441-130108-0013 /scratch/ravanelm/exp/librispeech/s5/fmllr/train_clean_100/data/feats_fmllr_train_clean_100.6.ark:90651870
7302-86815-0002 /scratch/ravanelm/exp/librispeech/s5/fmllr/train_clean_100/data/feats_fmllr_train_clean_100.9.ark:90787117
5808-54425-0048 /scratch/ravanelm/exp/librispeech/s5/fmllr/train_clean_100/data/feats_fmllr_train_clean_100.7.ark:318462180
2910-131096-0022 /scratch/ravanelm/exp/librispeech/s5/fmllr/train_clean_100/data/feats_fmllr_train_clean_100.3.ark:505304500
4018-107312-0007 /scratch/ravanelm/exp/librispeech/s5/fmllr/train_clean_100/data/feats_fmllr_train_clean_100.5.ark:268569906
7302-86815-0023 /scratch/ravanelm/exp/librispeech/s5/fmllr/train_clean_100/data/feats_fmllr_train_clean_100.9.ark:93784568
1088-134315-0048 /scratch/ravanelm/exp/librispeech/s5/fmllr/train_clean_100/data/feats_fmllr_train_clean_100.1.ark:119005343
8609-283227-0046 /scratch/ravanelm/exp/librispeech/s5/fmllr/train_clean_100/data/feats_fmllr_train_clean_100.10.ark:307793171
8063-274112-0034 /scratch/ravanelm/exp/librispeech/s5/fmllr/train_clean_100/data/feats_fmllr_train_clean_100.9.ark:437124063
40-121026-0020 /scratch/ravanelm/exp/librispeech/s5/fmllr/train_clean_100/data/feats_fmllr_train_clean_100.5.ark:213977339
4297-13006-0014 /scratch/ravanelm/exp/librispeech/s5/fmllr/train_clean_100/data/feats_fmllr_train_clean_100.5.ark:540449554
5778-12761-0037 /scratch/ravanelm/exp/librispeech/s5/fmllr/train_clean_100/data/feats_fmllr_train_clean_100.7.ark:258896607
2416-152139-0008 /scratch/ravanelm/exp/librispeech/s5/fmllr/train_clean_100/data/feats_fmllr_train_clean_100.3.ark:135616509
2196-170151-0019 /scratch/ravanelm/exp/librispeech/s5/fmllr/train_clean_100/data/feats_fmllr_train_clean_100.2.ark:539524467
8063-274117-0021 /scratch/ravanelm/exp/librispeech/s5/fmllr/train_clean_100/data/feats_fmllr_train_clean_100.9.ark:453259295
1246-124548-0004 /scratch/ravanelm/exp/librispeech/s5/fmllr/train_clean_100/data/feats_fmllr_train_clean_100.1.ark:226177695
7794-295947-0044 /scratch/ravanelm/exp/librispeech/s5/fmllr/train_clean_100/data/feats_fmllr_train_clean_100.9.ark:310838701
446-123501-0054 /scratch/ravanelm/exp/librispeech/s5/fmllr/train_clean_100/data/feats_fmllr_train_clean_100.6.ark:142880307
374-180299-0046 /scratch/ravanelm/exp/librispeech/s5/fmllr/train_clean_100/data/feats_fmllr_train_clean_100.5.ark:23873408
6367-65536-0015 /scratch/ravanelm/exp/librispeech/s5/fmllr/train_clean_100/data/feats_fmllr_train_clean_100.8.ark:51354016
1594-135914-0027 /scratch/ravanelm/exp/librispeech/s5/fmllr/train_clean_100/data/feats_fmllr_train_clean_100.1.ark:510187932
3664-178355-0000 /scratch/ravanelm/exp/librispeech/s5/fmllr/train_clean_100/data/feats_fmllr_train_clean_100.4.ark:510558243
4137-11702-0060 /scratch/ravanelm/exp/librispeech/s5/fmllr/train_clean_100/data/feats_fmllr_train_clean_100.5.ark:424133534
6078-54013-0056 /scratch/ravanelm/exp/librispeech/s5/fmllr/train_clean_100/data/feats_fmllr_train_clean_100.7.ark:471599089
5339-14134-0021 /scratch/ravanelm/exp/librispeech/s5/fmllr/train_clean_100/data/feats_fmllr_train_clean_100.6.ark:584944329
226-131533-0012 /scratch/ravanelm/exp/librispeech/s5/fmllr/train_clean_100/data/feats_fmllr_train_clean_100.3.ark:10609153
3374-298026-0042 /scratch/ravanelm/exp/librispeech/s5/fmllr/train_clean_100/data/feats_fmllr_train_clean_100.4.ark:376516753
298-126791-0067 /scratch/ravanelm/exp/librispeech/s5/fmllr/train_clean_100/data/feats_fmllr_train_clean_100.4.ark:13846413
4267-78186-0012 /scratch/ravanelm/exp/librispeech/s5/fmllr/train_clean_100/data/feats_fmllr_train_clean_100.5.ark:531557274
3607-135982-0048 /scratch/ravanelm/exp/librispeech/s5/fmllr/train_clean_100/data/feats_fmllr_train_clean_100.4.ark:492867857
1081-128618-0012 /scratch/ravanelm/exp/librispeech/s5/fmllr/train_clean_100/data/feats_fmllr_train_clean_100.1.ark:101939231
4898-28461-0021 /scratch/ravanelm/exp/librispeech/s5/fmllr/train_clean_100/data/feats_fmllr_train_clean_100.6.ark:418280942
4441-76250-0026 /scratch/ravanelm/exp/librispeech/s5/fmllr/train_clean_100/data/feats_fmllr_train_clean_100.6.ark:102007815
8747-293952-0060 /scratch/ravanelm/exp/librispeech/s5/fmllr/train_clean_100/data/feats_fmllr_train_clean_100.10.ark:396039707
6181-216552-0093 /scratch/ravanelm/exp/librispeech/s5/fmllr/train_clean_100/data/feats_fmllr_train_clean_100.7.ark:543324268
6563-63821-0019 /scratch/ravanelm/exp/librispeech/s5/fmllr/train_clean_100/data/feats_fmllr_train_clean_100.8.ark:251507312
1553-140048-0041 /scratch/ravanelm/exp/librispeech/s5/fmllr/train_clean_100/data/feats_fmllr_train_clean_100.1.ark:478800222
6415-116629-0026 /scratch/ravanelm/exp/librispeech/s5/fmllr/train_clean_100/data/feats_fmllr_train_clean_100.8.ark:117409786
6415-116629-0024 /scratch/ravanelm/exp/librispeech/s5/fmllr/train_clean_100/data/feats_fmllr_train_clean_100.8.ark:116965562
6147-34605-0039 /scratch/ravanelm/exp/librispeech/s5/fmllr/train_clean_100/data/feats_fmllr_train_clean_100.7.ark:508359353
26-496-0024 /scratch/ravanelm/exp/librispeech/s5/fmllr/train_clean_100/data/feats_fmllr_train_clean_100.3.ark:317688922
103-1241-0039 /scratch/ravanelm/exp/librispeech/s5/fmllr/train_clean_100/data/feats_fmllr_train_clean_100.1.ark:21694347
426-122819-0036 /scratch/ravanelm/exp/librispeech/s5/fmllr/train_clean_100/data/feats_fmllr_train_clean_100.5.ark:496563930
1081-128618-0006 /scratch/ravanelm/exp/librispeech/s5/fmllr/train_clean_100/data/feats_fmllr_train_clean_100.1.ark:100751199
2092-145706-0040 /scratch/ravanelm/exp/librispeech/s5/fmllr/train_clean_100/data/feats_fmllr_train_clean_100.2.ark:423867031
5652-19215-0055 /scratch/ravanelm/exp/librispeech/s5/fmllr/train_clean_100/data/feats_fmllr_train_clean_100.7.ark:140163400
40-222-0007 /scratch/ravanelm/exp/librispeech/s5/fmllr/train_clean_100/data/feats_fmllr_train_clean_100.5.ark:220884035
6147-34606-0032 /scratch/ravanelm/exp/librispeech/s5/fmllr/train_clean_100/data/feats_fmllr_train_clean_100.7.ark:514881847
839-130898-0000 /scratch/ravanelm/exp/librispeech/s5/fmllr/train_clean_100/data/feats_fmllr_train_clean_100.10.ark:154953462
4018-107312-0001 /scratch/ravanelm/exp/librispeech/s5/fmllr/train_clean_100/data/feats_fmllr_train_clean_100.5.ark:267176434
201-122255-0006 /scratch/ravanelm/exp/librispeech/s5/fmllr/train_clean_100/data/feats_fmllr_train_clean_100.2.ark:391540079
3807-4923-0015 /scratch/ravanelm/exp/librispeech/s5/fmllr/train_clean_100/data/feats_fmllr_train_clean_100.5.ark:27242528
1594-135914-0011 /scratch/ravanelm/exp/librispeech/s5/fmllr/train_clean_100/data/feats_fmllr_train_clean_100.1.ark:507005020
625-132118-0026 /scratch/ravanelm/exp/librispeech/s5/fmllr/train_clean_100/data/feats_fmllr_train_clean_100.8.ark:18493211
7226-86964-0033 /scratch/ravanelm/exp/librispeech/s5/fmllr/train_clean_100/data/feats_fmllr_train_clean_100.8.ark:595166322
7859-102518-0024 /scratch/ravanelm/exp/librispeech/s5/fmllr/train_clean_100/data/feats_fmllr_train_clean_100.9.ark:377710239
8098-275181-0001 /scratch/ravanelm/exp/librispeech/s5/fmllr/train_clean_100/data/feats_fmllr_train_clean_100.9.ark:503897471
911-128684-0009 /scratch/ravanelm/exp/librispeech/s5/fmllr/train_clean_100/data/feats_fmllr_train_clean_100.10.ark:574968745
374-180298-0024 /scratch/ravanelm/exp/librispeech/s5/fmllr/train_clean_100/data/feats_fmllr_train_clean_100.5.ark:5388760
1578-6379-0022 /scratch/ravanelm/exp/librispeech/s5/fmllr/train_clean_100/data/feats_fmllr_train_clean_100.1.ark:499386736
5561-41616-0019 /scratch/ravanelm/exp/librispeech/s5/fmllr/train_clean_100/data/feats_fmllr_train_clean_100.7.ark:126859795
3436-172162-0025 /scratch/ravanelm/exp/librispeech/s5/fmllr/train_clean_100/data/feats_fmllr_train_clean_100.4.ark:391077969
3259-158083-0075 /scratch/ravanelm/exp/librispeech/s5/fmllr/train_clean_100/data/feats_fmllr_train_clean_100.4.ark:314600333
5678-43303-0020 /scratch/ravanelm/exp/librispeech/s5/fmllr/train_clean_100/data/feats_fmllr_train_clean_100.7.ark:174688804
8629-261140-0050 /scratch/ravanelm/exp/librispeech/s5/fmllr/train_clean_100/data/feats_fmllr_train_clean_100.10.ark:337497075
8419-286667-0018 /scratch/ravanelm/exp/librispeech/s5/fmllr/train_clean_100/data/feats_fmllr_train_clean_100.10.ark:178226099
669-129061-0018 /scratch/ravanelm/exp/librispeech/s5/fmllr/train_clean_100/data/feats_fmllr_train_clean_100.8.ark:261456418
226-122538-0017 /scratch/ravanelm/exp/librispeech/s5/fmllr/train_clean_100/data/feats_fmllr_train_clean_100.2.ark:563403201
4160-11550-0017 /scratch/ravanelm/exp/librispeech/s5/fmllr/train_clean_100/data/feats_fmllr_train_clean_100.5.ark:436678821
911-128684-0090 /scratch/ravanelm/exp/librispeech/s5/fmllr/train_clean_100/data/feats_fmllr_train_clean_100.10.ark:591193176
8609-283227-0026 /scratch/ravanelm/exp/librispeech/s5/fmllr/train_clean_100/data/feats_fmllr_train_clean_100.10.ark:303908051
5463-39173-0037 /scratch/ravanelm/exp/librispeech/s5/fmllr/train_clean_100/data/feats_fmllr_train_clean_100.7.ark:74593546
403-126855-0001 /scratch/ravanelm/exp/librispeech/s5/fmllr/train_clean_100/data/feats_fmllr_train_clean_100.5.ark:282616464
26-496-0011 /scratch/ravanelm/exp/librispeech/s5/fmllr/train_clean_100/data/feats_fmllr_train_clean_100.3.ark:314853051
4640-19187-0035 /scratch/ravanelm/exp/librispeech/s5/fmllr/train_clean_100/data/feats_fmllr_train_clean_100.6.ark:223540134
405-130895-0014 /scratch/ravanelm/exp/librispeech/s5/fmllr/train_clean_100/data/feats_fmllr_train_clean_100.5.ark:326528843
6064-56168-0027 /scratch/ravanelm/exp/librispeech/s5/fmllr/train_clean_100/data/feats_fmllr_train_clean_100.7.ark:450428644
7859-102519-0018 /scratch/ravanelm/exp/librispeech/s5/fmllr/train_clean_100/data/feats_fmllr_train_clean_100.9.ark:383051167
3699-47246-0023 /scratch/ravanelm/exp/librispeech/s5/fmllr/train_clean_100/data/feats_fmllr_train_clean_100.4.ark:549559185
27-124992-0068 /scratch/ravanelm/exp/librispeech/s5/fmllr/train_clean_100/data/feats_fmllr_train_clean_100.3.ark:360264048
8226-274369-0059 /scratch/ravanelm/exp/librispeech/s5/fmllr/train_clean_100/data/feats_fmllr_train_clean_100.10.ark:22201777
125-121124-0045 /scratch/ravanelm/exp/librispeech/s5/fmllr/train_clean_100/data/feats_fmllr_train_clean_100.1.ark:257180305
5561-39621-0045 /scratch/ravanelm/exp/librispeech/s5/fmllr/train_clean_100/data/feats_fmllr_train_clean_100.7.ark:114402616
4214-7146-0066 /scratch/ravanelm/exp/librispeech/s5/fmllr/train_clean_100/data/feats_fmllr_train_clean_100.5.ark:485771003
4137-11701-0005 /scratch/ravanelm/exp/librispeech/s5/fmllr/train_clean_100/data/feats_fmllr_train_clean_100.5.ark:401433386
3526-175658-0016 /scratch/ravanelm/exp/librispeech/s5/fmllr/train_clean_100/data/feats_fmllr_train_clean_100.4.ark:461365585
250-142286-0024 /scratch/ravanelm/exp/librispeech/s5/fmllr/train_clean_100/data/feats_fmllr_train_clean_100.3.ark:220542937
3807-4923-0049 /scratch/ravanelm/exp/librispeech/s5/fmllr/train_clean_100/data/feats_fmllr_train_clean_100.5.ark:34332828
4397-15668-0026 /scratch/ravanelm/exp/librispeech/s5/fmllr/train_clean_100/data/feats_fmllr_train_clean_100.6.ark:35885936
1594-135914-0026 /scratch/ravanelm/exp/librispeech/s5/fmllr/train_clean_100/data/feats_fmllr_train_clean_100.1.ark:509929820
7190-90542-0076 /scratch/ravanelm/exp/librispeech/s5/fmllr/train_clean_100/data/feats_fmllr_train_clean_100.8.ark:577529034
307-127540-0028 /scratch/ravanelm/exp/librispeech/s5/fmllr/train_clean_100/data/feats_fmllr_train_clean_100.4.ark:84799463
233-134440-0059 /scratch/ravanelm/exp/librispeech/s5/fmllr/train_clean_100/data/feats_fmllr_train_clean_100.3.ark:71582031
248-130697-0023 /scratch/ravanelm/exp/librispeech/s5/fmllr/train_clean_100/data/feats_fmllr_train_clean_100.3.ark:195167568
7264-92310-0028 /scratch/ravanelm/exp/librispeech/s5/fmllr/train_clean_100/data/feats_fmllr_train_clean_100.9.ark:16078274
7264-92316-0013 /scratch/ravanelm/exp/librispeech/s5/fmllr/train_clean_100/data/feats_fmllr_train_clean_100.9.ark:26534864
625-132118-0001 /scratch/ravanelm/exp/librispeech/s5/fmllr/train_clean_100/data/feats_fmllr_train_clean_100.8.ark:12987796
2391-145015-0041 /scratch/ravanelm/exp/librispeech/s5/fmllr/train_clean_100/data/feats_fmllr_train_clean_100.3.ark:109834845
3214-167606-0010 /scratch/ravanelm/exp/librispeech/s5/fmllr/train_clean_100/data/feats_fmllr_train_clean_100.4.ark:189589120
2910-131096-0056 /scratch/ravanelm/exp/librispeech/s5/fmllr/train_clean_100/data/feats_fmllr_train_clean_100.3.ark:512761588
8419-286667-0014 /scratch/ravanelm/exp/librispeech/s5/fmllr/train_clean_100/data/feats_fmllr_train_clean_100.10.ark:177352531
8063-274112-0003 /scratch/ravanelm/exp/librispeech/s5/fmllr/train_clean_100/data/feats_fmllr_train_clean_100.9.ark:432177791
587-41619-0007 /scratch/ravanelm/exp/librispeech/s5/fmllr/train_clean_100/data/feats_fmllr_train_clean_100.7.ark:351225853
5339-14133-0011 /scratch/ravanelm/exp/librispeech/s5/fmllr/train_clean_100/data/feats_fmllr_train_clean_100.6.ark:572204492
4014-186175-0031 /scratch/ravanelm/exp/librispeech/s5/fmllr/train_clean_100/data/feats_fmllr_train_clean_100.5.ark:238703506
5463-39174-0048 /scratch/ravanelm/exp/librispeech/s5/fmllr/train_clean_100/data/feats_fmllr_train_clean_100.7.ark:90587391
4859-26870-0006 /scratch/ravanelm/exp/librispeech/s5/fmllr/train_clean_100/data/feats_fmllr_train_clean_100.6.ark:391723658
3259-158083-0074 /scratch/ravanelm/exp/librispeech/s5/fmllr/train_clean_100/data/feats_fmllr_train_clean_100.4.ark:314361901
1737-142396-0022 /scratch/ravanelm/exp/librispeech/s5/fmllr/train_clean_100/data/feats_fmllr_train_clean_100.2.ark:49323534
8238-274553-0035 /scratch/ravanelm/exp/librispeech/s5/fmllr/train_clean_100/data/feats_fmllr_train_clean_100.10.ark:41327665
4406-16883-0049 /scratch/ravanelm/exp/librispeech/s5/fmllr/train_clean_100/data/feats_fmllr_train_clean_100.6.ark:69888032
1898-145724-0010 /scratch/ravanelm/exp/librispeech/s5/fmllr/train_clean_100/data/feats_fmllr_train_clean_100.2.ark:156962222
5561-41615-0006 /scratch/ravanelm/exp/librispeech/s5/fmllr/train_clean_100/data/feats_fmllr_train_clean_100.7.ark:115468113
298-126790-0015 /scratch/ravanelm/exp/librispeech/s5/fmllr/train_clean_100/data/feats_fmllr_train_clean_100.3.ark:573127441
233-155990-0021 /scratch/ravanelm/exp/librispeech/s5/fmllr/train_clean_100/data/feats_fmllr_train_clean_100.3.ark:76847926
909-131045-0043 /scratch/ravanelm/exp/librispeech/s5/fmllr/train_clean_100/data/feats_fmllr_train_clean_100.10.ark:572601395
4267-78186-0027 /scratch/ravanelm/exp/librispeech/s5/fmllr/train_clean_100/data/feats_fmllr_train_clean_100.5.ark:535051339
8468-294887-0029 /scratch/ravanelm/exp/librispeech/s5/fmllr/train_clean_100/data/feats_fmllr_train_clean_100.10.ark:260183411
403-128339-0032 /scratch/ravanelm/exp/librispeech/s5/fmllr/train_clean_100/data/feats_fmllr_train_clean_100.5.ark:296317137
5322-7679-0037 /scratch/ravanelm/exp/librispeech/s5/fmllr/train_clean_100/data/feats_fmllr_train_clean_100.6.ark:562818590
6064-300880-0002 /scratch/ravanelm/exp/librispeech/s5/fmllr/train_clean_100/data/feats_fmllr_train_clean_100.7.ark:428380677
6437-66173-0021 /scratch/ravanelm/exp/librispeech/s5/fmllr/train_clean_100/data/feats_fmllr_train_clean_100.8.ark:135247319
3699-19402-0002 /scratch/ravanelm/exp/librispeech/s5/fmllr/train_clean_100/data/feats_fmllr_train_clean_100.4.ark:538659173
1040-133433-0075 /scratch/ravanelm/exp/librispeech/s5/fmllr/train_clean_100/data/feats_fmllr_train_clean_100.1.ark:52704287
6880-216547-0072 /scratch/ravanelm/exp/librispeech/s5/fmllr/train_clean_100/data/feats_fmllr_train_clean_100.8.ark:369053308
587-54108-0016 /scratch/ravanelm/exp/librispeech/s5/fmllr/train_clean_100/data/feats_fmllr_train_clean_100.7.ark:359248593
8098-278252-0035 /scratch/ravanelm/exp/librispeech/s5/fmllr/train_clean_100/data/feats_fmllr_train_clean_100.9.ark:518114047
5688-41232-0048 /scratch/ravanelm/exp/librispeech/s5/fmllr/train_clean_100/data/feats_fmllr_train_clean_100.7.ark:197243187
7517-100429-0014 /scratch/ravanelm/exp/librispeech/s5/fmllr/train_clean_100/data/feats_fmllr_train_clean_100.9.ark:233631789
5049-25947-0044 /scratch/ravanelm/exp/librispeech/s5/fmllr/train_clean_100/data/feats_fmllr_train_clean_100.6.ark:461291519
6476-57446-0047 /scratch/ravanelm/exp/librispeech/s5/fmllr/train_clean_100/data/feats_fmllr_train_clean_100.8.ark:178621562
5778-12761-0047 /scratch/ravanelm/exp/librispeech/s5/fmllr/train_clean_100/data/feats_fmllr_train_clean_100.7.ark:261010517
445-123857-0022 /scratch/ravanelm/exp/librispeech/s5/fmllr/train_clean_100/data/feats_fmllr_train_clean_100.6.ark:124227855
322-124147-0074 /scratch/ravanelm/exp/librispeech/s5/fmllr/train_clean_100/data/feats_fmllr_train_clean_100.4.ark:226781327
78-369-0058 /scratch/ravanelm/exp/librispeech/s5/fmllr/train_clean_100/data/feats_fmllr_train_clean_100.9.ark:347457944
7148-82991-0016 /scratch/ravanelm/exp/librispeech/s5/fmllr/train_clean_100/data/feats_fmllr_train_clean_100.8.ark:534709982
1088-129236-0022 /scratch/ravanelm/exp/librispeech/s5/fmllr/train_clean_100/data/feats_fmllr_train_clean_100.1.ark:106975039
5339-14134-0015 /scratch/ravanelm/exp/librispeech/s5/fmllr/train_clean_100/data/feats_fmllr_train_clean_100.6.ark:583539023
200-124140-0032 /scratch/ravanelm/exp/librispeech/s5/fmllr/train_clean_100/data/feats_fmllr_train_clean_100.2.ark:333092130
374-180298-0055 /scratch/ravanelm/exp/librispeech/s5/fmllr/train_clean_100/data/feats_fmllr_train_clean_100.5.ark:12002361
83-9960-0031 /scratch/ravanelm/exp/librispeech/s5/fmllr/train_clean_100/data/feats_fmllr_train_clean_100.10.ark:77119159
2518-154826-0028 /scratch/ravanelm/exp/librispeech/s5/fmllr/train_clean_100/data/feats_fmllr_train_clean_100.3.ark:264458833
6019-3185-0028 /scratch/ravanelm/exp/librispeech/s5/fmllr/train_clean_100/data/feats_fmllr_train_clean_100.7.ark:409854091
1963-142393-0009 /scratch/ravanelm/exp/librispeech/s5/fmllr/train_clean_100/data/feats_fmllr_train_clean_100.2.ark:235853047
289-121652-0021 /scratch/ravanelm/exp/librispeech/s5/fmllr/train_clean_100/data/feats_fmllr_train_clean_100.3.ark:462511956
8468-294887-0033 /scratch/ravanelm/exp/librispeech/s5/fmllr/train_clean_100/data/feats_fmllr_train_clean_100.10.ark:260956499
4018-107312-0018 /scratch/ravanelm/exp/librispeech/s5/fmllr/train_clean_100/data/feats_fmllr_train_clean_100.5.ark:270911218
6415-111615-0004 /scratch/ravanelm/exp/librispeech/s5/fmllr/train_clean_100/data/feats_fmllr_train_clean_100.8.ark:104231482
6818-68772-0048 /scratch/ravanelm/exp/librispeech/s5/fmllr/train_clean_100/data/feats_fmllr_train_clean_100.8.ark:292800206
6209-34600-0033 /scratch/ravanelm/exp/librispeech/s5/fmllr/train_clean_100/data/feats_fmllr_train_clean_100.7.ark:563182371
2518-154826-0008 /scratch/ravanelm/exp/librispeech/s5/fmllr/train_clean_100/data/feats_fmllr_train_clean_100.3.ark:260296593
322-124147-0045 /scratch/ravanelm/exp/librispeech/s5/fmllr/train_clean_100/data/feats_fmllr_train_clean_100.4.ark:220655308
1898-145720-0002 /scratch/ravanelm/exp/librispeech/s5/fmllr/train_clean_100/data/feats_fmllr_train_clean_100.2.ark:151561838
163-122947-0057 /scratch/ravanelm/exp/librispeech/s5/fmllr/train_clean_100/data/feats_fmllr_train_clean_100.2.ark:11936983
7190-90543-0020 /scratch/ravanelm/exp/librispeech/s5/fmllr/train_clean_100/data/feats_fmllr_train_clean_100.8.ark:582704782
8425-291444-0019 /scratch/ravanelm/exp/librispeech/s5/fmllr/train_clean_100/data/feats_fmllr_train_clean_100.10.ark:215923443
311-124404-0044 /scratch/ravanelm/exp/librispeech/s5/fmllr/train_clean_100/data/feats_fmllr_train_clean_100.4.ark:95256595
4397-15668-0027 /scratch/ravanelm/exp/librispeech/s5/fmllr/train_clean_100/data/feats_fmllr_train_clean_100.6.ark:36054767
2007-149877-0048 /scratch/ravanelm/exp/librispeech/s5/fmllr/train_clean_100/data/feats_fmllr_train_clean_100.2.ark:388037206
4640-19188-0006 /scratch/ravanelm/exp/librispeech/s5/fmllr/train_clean_100/data/feats_fmllr_train_clean_100.6.ark:225544217
374-180298-0033 /scratch/ravanelm/exp/librispeech/s5/fmllr/train_clean_100/data/feats_fmllr_train_clean_100.5.ark:7344239
3699-47246-0002 /scratch/ravanelm/exp/librispeech/s5/fmllr/train_clean_100/data/feats_fmllr_train_clean_100.4.ark:544955174
3857-182315-0010 /scratch/ravanelm/exp/librispeech/s5/fmllr/train_clean_100/data/feats_fmllr_train_clean_100.5.ark:77052708
8770-295462-0038 /scratch/ravanelm/exp/librispeech/s5/fmllr/train_clean_100/data/feats_fmllr_train_clean_100.10.ark:415198363
7302-86814-0012 /scratch/ravanelm/exp/librispeech/s5/fmllr/train_clean_100/data/feats_fmllr_train_clean_100.9.ark:83868757
446-123502-0010 /scratch/ravanelm/exp/librispeech/s5/fmllr/train_clean_100/data/feats_fmllr_train_clean_100.6.ark:146521314
405-130894-0014 /scratch/ravanelm/exp/librispeech/s5/fmllr/train_clean_100/data/feats_fmllr_train_clean_100.5.ark:309899034
1263-141777-0035 /scratch/ravanelm/exp/librispeech/s5/fmllr/train_clean_100/data/feats_fmllr_train_clean_100.1.ark:296027093
3664-11714-0009 /scratch/ravanelm/exp/librispeech/s5/fmllr/train_clean_100/data/feats_fmllr_train_clean_100.4.ark:505616729
7511-102420-0012 /scratch/ravanelm/exp/librispeech/s5/fmllr/train_clean_100/data/feats_fmllr_train_clean_100.9.ark:221622093
6064-56165-0020 /scratch/ravanelm/exp/librispeech/s5/fmllr/train_clean_100/data/feats_fmllr_train_clean_100.7.ark:440511440
7517-100429-0023 /scratch/ravanelm/exp/librispeech/s5/fmllr/train_clean_100/data/feats_fmllr_train_clean_100.9.ark:235650637
2911-15045-0010 /scratch/ravanelm/exp/librispeech/s5/fmllr/train_clean_100/data/feats_fmllr_train_clean_100.3.ark:528043951
7148-82991-0021 /scratch/ravanelm/exp/librispeech/s5/fmllr/train_clean_100/data/feats_fmllr_train_clean_100.8.ark:535615737
40-121026-0040 /scratch/ravanelm/exp/librispeech/s5/fmllr/train_clean_100/data/feats_fmllr_train_clean_100.5.ark:218246259
669-129061-0003 /scratch/ravanelm/exp/librispeech/s5/fmllr/train_clean_100/data/feats_fmllr_train_clean_100.8.ark:258623313
2514-149482-0106 /scratch/ravanelm/exp/librispeech/s5/fmllr/train_clean_100/data/feats_fmllr_train_clean_100.3.ark:245525329
2836-5354-0040 /scratch/ravanelm/exp/librispeech/s5/fmllr/train_clean_100/data/feats_fmllr_train_clean_100.3.ark:418968722
3112-9554-0012 /scratch/ravanelm/exp/librispeech/s5/fmllr/train_clean_100/data/feats_fmllr_train_clean_100.4.ark:113328492
2691-156745-0027 /scratch/ravanelm/exp/librispeech/s5/fmllr/train_clean_100/data/feats_fmllr_train_clean_100.3.ark:323680752
3168-173565-0008 /scratch/ravanelm/exp/librispeech/s5/fmllr/train_clean_100/data/feats_fmllr_train_clean_100.4.ark:146309722
5867-48852-0027 /scratch/ravanelm/exp/librispeech/s5/fmllr/train_clean_100/data/feats_fmllr_train_clean_100.7.ark:325260318
3259-158083-0113 /scratch/ravanelm/exp/librispeech/s5/fmllr/train_clean_100/data/feats_fmllr_train_clean_100.4.ark:321977709
1970-10594-0035 /scratch/ravanelm/exp/librispeech/s5/fmllr/train_clean_100/data/feats_fmllr_train_clean_100.2.ark:265134931
1246-124548-0034 /scratch/ravanelm/exp/librispeech/s5/fmllr/train_clean_100/data/feats_fmllr_train_clean_100.1.ark:232374015
730-358-0011 /scratch/ravanelm/exp/librispeech/s5/fmllr/train_clean_100/data/feats_fmllr_train_clean_100.9.ark:58685302
1578-140049-0037 /scratch/ravanelm/exp/librispeech/s5/fmllr/train_clean_100/data/feats_fmllr_train_clean_100.1.ark:494806814
6454-107462-0014 /scratch/ravanelm/exp/librispeech/s5/fmllr/train_clean_100/data/feats_fmllr_train_clean_100.8.ark:147540590
2182-150130-0039 /scratch/ravanelm/exp/librispeech/s5/fmllr/train_clean_100/data/feats_fmllr_train_clean_100.2.ark:520042227
1455-138263-0012 /scratch/ravanelm/exp/librispeech/s5/fmllr/train_clean_100/data/feats_fmllr_train_clean_100.1.ark:402185840
2952-410-0031 /scratch/ravanelm/exp/librispeech/s5/fmllr/train_clean_100/data/feats_fmllr_train_clean_100.3.ark:563463384
5789-57158-0022 /scratch/ravanelm/exp/librispeech/s5/fmllr/train_clean_100/data/feats_fmllr_train_clean_100.7.ark:276819371
6078-54013-0018 /scratch/ravanelm/exp/librispeech/s5/fmllr/train_clean_100/data/feats_fmllr_train_clean_100.7.ark:465543511
441-128988-0004 /scratch/ravanelm/exp/librispeech/s5/fmllr/train_clean_100/data/feats_fmllr_train_clean_100.6.ark:80845515
7859-102521-0015 /scratch/ravanelm/exp/librispeech/s5/fmllr/train_clean_100/data/feats_fmllr_train_clean_100.9.ark:392842655
4297-13009-0047 /scratch/ravanelm/exp/librispeech/s5/fmllr/train_clean_100/data/feats_fmllr_train_clean_100.5.ark:557404932
1355-39947-0041 /scratch/ravanelm/exp/librispeech/s5/fmllr/train_clean_100/data/feats_fmllr_train_clean_100.1.ark:329879531
7148-82991-0012 /scratch/ravanelm/exp/librispeech/s5/fmllr/train_clean_100/data/feats_fmllr_train_clean_100.8.ark:534095298
2691-156745-0028 /scratch/ravanelm/exp/librispeech/s5/fmllr/train_clean_100/data/feats_fmllr_train_clean_100.3.ark:323943824
2196-170151-0026 /scratch/ravanelm/exp/librispeech/s5/fmllr/train_clean_100/data/feats_fmllr_train_clean_100.2.ark:541128851
163-122947-0028 /scratch/ravanelm/exp/librispeech/s5/fmllr/train_clean_100/data/feats_fmllr_train_clean_100.2.ark:5285044
5688-41232-0069 /scratch/ravanelm/exp/librispeech/s5/fmllr/train_clean_100/data/feats_fmllr_train_clean_100.7.ark:201305918
3242-8112-0031 /scratch/ravanelm/exp/librispeech/s5/fmllr/train_clean_100/data/feats_fmllr_train_clean_100.4.ark:298215751
446-123502-0040 /scratch/ravanelm/exp/librispeech/s5/fmllr/train_clean_100/data/feats_fmllr_train_clean_100.6.ark:153104804
7264-92316-0022 /scratch/ravanelm/exp/librispeech/s5/fmllr/train_clean_100/data/feats_fmllr_train_clean_100.9.ark:28306983
4406-16882-0029 /scratch/ravanelm/exp/librispeech/s5/fmllr/train_clean_100/data/feats_fmllr_train_clean_100.6.ark:53927833
481-123720-0080 /scratch/ravanelm/exp/librispeech/s5/fmllr/train_clean_100/data/feats_fmllr_train_clean_100.6.ark:312630921
1841-159771-0002 /scratch/ravanelm/exp/librispeech/s5/fmllr/train_clean_100/data/feats_fmllr_train_clean_100.2.ark:96734638
8088-284756-0114 /scratch/ravanelm/exp/librispeech/s5/fmllr/train_clean_100/data/feats_fmllr_train_clean_100.9.ark:478347743
3242-67153-0016 /scratch/ravanelm/exp/librispeech/s5/fmllr/train_clean_100/data/feats_fmllr_train_clean_100.4.ark:280169700
8419-293469-0025 /scratch/ravanelm/exp/librispeech/s5/fmllr/train_clean_100/data/feats_fmllr_train_clean_100.10.ark:193026163
4788-94904-0035 /scratch/ravanelm/exp/librispeech/s5/fmllr/train_clean_100/data/feats_fmllr_train_clean_100.6.ark:288556104
2989-138035-0031 /scratch/ravanelm/exp/librispeech/s5/fmllr/train_clean_100/data/feats_fmllr_train_clean_100.4.ark:31054349
4788-94904-0005 /scratch/ravanelm/exp/librispeech/s5/fmllr/train_clean_100/data/feats_fmllr_train_clean_100.6.ark:281809254
289-121652-0038 /scratch/ravanelm/exp/librispeech/s5/fmllr/train_clean_100/data/feats_fmllr_train_clean_100.3.ark:466231843
6880-216547-0027 /scratch/ravanelm/exp/librispeech/s5/fmllr/train_clean_100/data/feats_fmllr_train_clean_100.8.ark:359819708
5104-33407-0010 /scratch/ravanelm/exp/librispeech/s5/fmllr/train_clean_100/data/feats_fmllr_train_clean_100.6.ark:491476164
5652-19215-0008 /scratch/ravanelm/exp/librispeech/s5/fmllr/train_clean_100/data/feats_fmllr_train_clean_100.7.ark:132352663
8797-294123-0077 /scratch/ravanelm/exp/librispeech/s5/fmllr/train_clean_100/data/feats_fmllr_train_clean_100.10.ark:446808123
3807-4923-0040 /scratch/ravanelm/exp/librispeech/s5/fmllr/train_clean_100/data/feats_fmllr_train_clean_100.5.ark:32557358
3982-178459-0031 /scratch/ravanelm/exp/librispeech/s5/fmllr/train_clean_100/data/feats_fmllr_train_clean_100.5.ark:168705447
7059-77900-0025 /scratch/ravanelm/exp/librispeech/s5/fmllr/train_clean_100/data/feats_fmllr_train_clean_100.8.ark:431598099
7635-105409-0022 /scratch/ravanelm/exp/librispeech/s5/fmllr/train_clean_100/data/feats_fmllr_train_clean_100.9.ark:258641741
2289-152254-0017 /scratch/ravanelm/exp/librispeech/s5/fmllr/train_clean_100/data/feats_fmllr_train_clean_100.3.ark:24667145
2518-154825-0036 /scratch/ravanelm/exp/librispeech/s5/fmllr/train_clean_100/data/feats_fmllr_train_clean_100.3.ark:253745745
8238-274553-0034 /scratch/ravanelm/exp/librispeech/s5/fmllr/train_clean_100/data/feats_fmllr_train_clean_100.10.ark:41126673
19-227-0044 /scratch/ravanelm/exp/librispeech/s5/fmllr/train_clean_100/data/feats_fmllr_train_clean_100.2.ark:179666607
6081-41997-0000 /scratch/ravanelm/exp/librispeech/s5/fmllr/train_clean_100/data/feats_fmllr_train_clean_100.7.ark:475898713
8629-261139-0066 /scratch/ravanelm/exp/librispeech/s5/fmllr/train_clean_100/data/feats_fmllr_train_clean_100.10.ark:326316883
1867-154071-0015 /scratch/ravanelm/exp/librispeech/s5/fmllr/train_clean_100/data/feats_fmllr_train_clean_100.2.ark:123754990
2989-138035-0057 /scratch/ravanelm/exp/librispeech/s5/fmllr/train_clean_100/data/feats_fmllr_train_clean_100.4.ark:35319021
4137-11702-0010 /scratch/ravanelm/exp/librispeech/s5/fmllr/train_clean_100/data/feats_fmllr_train_clean_100.5.ark:413425104
5514-19192-0047 /scratch/ravanelm/exp/librispeech/s5/fmllr/train_clean_100/data/feats_fmllr_train_clean_100.7.ark:99956621
1246-124548-0022 /scratch/ravanelm/exp/librispeech/s5/fmllr/train_clean_100/data/feats_fmllr_train_clean_100.1.ark:229822911
7367-86737-0089 /scratch/ravanelm/exp/librispeech/s5/fmllr/train_clean_100/data/feats_fmllr_train_clean_100.9.ark:128567335
8123-275209-0022 /scratch/ravanelm/exp/librispeech/s5/fmllr/train_clean_100/data/feats_fmllr_train_clean_100.9.ark:562894271
7190-90543-0030 /scratch/ravanelm/exp/librispeech/s5/fmllr/train_clean_100/data/feats_fmllr_train_clean_100.8.ark:584574052
6437-66172-0001 /scratch/ravanelm/exp/librispeech/s5/fmllr/train_clean_100/data/feats_fmllr_train_clean_100.8.ark:120500344
6147-34605-0003 /scratch/ravanelm/exp/librispeech/s5/fmllr/train_clean_100/data/feats_fmllr_train_clean_100.7.ark:500702397
403-128339-0029 /scratch/ravanelm/exp/librispeech/s5/fmllr/train_clean_100/data/feats_fmllr_train_clean_100.5.ark:295584244
445-123860-0013 /scratch/ravanelm/exp/librispeech/s5/fmllr/train_clean_100/data/feats_fmllr_train_clean_100.6.ark:128554359
3242-8112-0022 /scratch/ravanelm/exp/librispeech/s5/fmllr/train_clean_100/data/feats_fmllr_train_clean_100.4.ark:296825401
4297-13009-0001 /scratch/ravanelm/exp/librispeech/s5/fmllr/train_clean_100/data/feats_fmllr_train_clean_100.5.ark:547288786
8838-298545-0033 /scratch/ravanelm/exp/librispeech/s5/fmllr/train_clean_100/data/feats_fmllr_train_clean_100.10.ark:460443163
1578-140049-0002 /scratch/ravanelm/exp/librispeech/s5/fmllr/train_clean_100/data/feats_fmllr_train_clean_100.1.ark:487465214
8095-274346-0028 /scratch/ravanelm/exp/librispeech/s5/fmllr/train_clean_100/data/feats_fmllr_train_clean_100.9.ark:493785023
374-180298-0042 /scratch/ravanelm/exp/librispeech/s5/fmllr/train_clean_100/data/feats_fmllr_train_clean_100.5.ark:9220518
1594-135914-0008 /scratch/ravanelm/exp/librispeech/s5/fmllr/train_clean_100/data/feats_fmllr_train_clean_100.1.ark:506404444
78-368-0002 /scratch/ravanelm/exp/librispeech/s5/fmllr/train_clean_100/data/feats_fmllr_train_clean_100.9.ark:325123614
4788-94904-0000 /scratch/ravanelm/exp/librispeech/s5/fmllr/train_clean_100/data/feats_fmllr_train_clean_100.6.ark:280605739
3242-67168-0032 /scratch/ravanelm/exp/librispeech/s5/fmllr/train_clean_100/data/feats_fmllr_train_clean_100.4.ark:290911054
40-222-0062 /scratch/ravanelm/exp/librispeech/s5/fmllr/train_clean_100/data/feats_fmllr_train_clean_100.5.ark:232929200
2416-152139-0047 /scratch/ravanelm/exp/librispeech/s5/fmllr/train_clean_100/data/feats_fmllr_train_clean_100.3.ark:143764477
5703-47198-0039 /scratch/ravanelm/exp/librispeech/s5/fmllr/train_clean_100/data/feats_fmllr_train_clean_100.7.ark:211852975
2391-145015-0110 /scratch/ravanelm/exp/librispeech/s5/fmllr/train_clean_100/data/feats_fmllr_train_clean_100.3.ark:123095133
3983-5331-0039 /scratch/ravanelm/exp/librispeech/s5/fmllr/train_clean_100/data/feats_fmllr_train_clean_100.5.ark:195274199
911-128684-0091 /scratch/ravanelm/exp/librispeech/s5/fmllr/train_clean_100/data/feats_fmllr_train_clean_100.10.ark:591428727
5778-12761-0028 /scratch/ravanelm/exp/librispeech/s5/fmllr/train_clean_100/data/feats_fmllr_train_clean_100.7.ark:257164168
4267-287369-0023 /scratch/ravanelm/exp/librispeech/s5/fmllr/train_clean_100/data/feats_fmllr_train_clean_100.5.ark:518342187
1898-145715-0017 /scratch/ravanelm/exp/librispeech/s5/fmllr/train_clean_100/data/feats_fmllr_train_clean_100.2.ark:144744206
4640-19188-0001 /scratch/ravanelm/exp/librispeech/s5/fmllr/train_clean_100/data/feats_fmllr_train_clean_100.6.ark:224901822
6019-3185-0075 /scratch/ravanelm/exp/librispeech/s5/fmllr/train_clean_100/data/feats_fmllr_train_clean_100.7.ark:420290221
8238-274553-0037 /scratch/ravanelm/exp/librispeech/s5/fmllr/train_clean_100/data/feats_fmllr_train_clean_100.10.ark:41735889
7113-86041-0086 /scratch/ravanelm/exp/librispeech/s5/fmllr/train_clean_100/data/feats_fmllr_train_clean_100.8.ark:509783929
8770-295462-0001 /scratch/ravanelm/exp/librispeech/s5/fmllr/train_clean_100/data/feats_fmllr_train_clean_100.10.ark:406992859
4680-16042-0002 /scratch/ravanelm/exp/librispeech/s5/fmllr/train_clean_100/data/feats_fmllr_train_clean_100.6.ark:257638132
4859-29340-0004 /scratch/ravanelm/exp/librispeech/s5/fmllr/train_clean_100/data/feats_fmllr_train_clean_100.6.ark:396633842
1363-139304-0021 /scratch/ravanelm/exp/librispeech/s5/fmllr/train_clean_100/data/feats_fmllr_train_clean_100.1.ark:357084915
8088-284756-0082 /scratch/ravanelm/exp/librispeech/s5/fmllr/train_clean_100/data/feats_fmllr_train_clean_100.9.ark:472163679
1970-10594-0026 /scratch/ravanelm/exp/librispeech/s5/fmllr/train_clean_100/data/feats_fmllr_train_clean_100.2.ark:263571932
5688-15787-0016 /scratch/ravanelm/exp/librispeech/s5/fmllr/train_clean_100/data/feats_fmllr_train_clean_100.7.ark:182168769
831-130746-0026 /scratch/ravanelm/exp/librispeech/s5/fmllr/train_clean_100/data/feats_fmllr_train_clean_100.10.ark:99506489
7800-283478-0013 /scratch/ravanelm/exp/librispeech/s5/fmllr/train_clean_100/data/feats_fmllr_train_clean_100.9.ark:351633727
446-123501-0002 /scratch/ravanelm/exp/librispeech/s5/fmllr/train_clean_100/data/feats_fmllr_train_clean_100.6.ark:131561575
730-360-0002 /scratch/ravanelm/exp/librispeech/s5/fmllr/train_clean_100/data/feats_fmllr_train_clean_100.9.ark:74178218
8312-279790-0006 /scratch/ravanelm/exp/librispeech/s5/fmllr/train_clean_100/data/feats_fmllr_train_clean_100.10.ark:108150647
458-126294-0006 /scratch/ravanelm/exp/librispeech/s5/fmllr/train_clean_100/data/feats_fmllr_train_clean_100.6.ark:182045247
426-122822-0022 /scratch/ravanelm/exp/librispeech/s5/fmllr/train_clean_100/data/feats_fmllr_train_clean_100.5.ark:510319416
4397-15666-0026 /scratch/ravanelm/exp/librispeech/s5/fmllr/train_clean_100/data/feats_fmllr_train_clean_100.6.ark:29813419
2159-179154-0003 /scratch/ravanelm/exp/librispeech/s5/fmllr/train_clean_100/data/feats_fmllr_train_clean_100.2.ark:487598515
6836-61803-0030 /scratch/ravanelm/exp/librispeech/s5/fmllr/train_clean_100/data/feats_fmllr_train_clean_100.8.ark:312609525
226-131533-0025 /scratch/ravanelm/exp/librispeech/s5/fmllr/train_clean_100/data/feats_fmllr_train_clean_100.3.ark:13535316
26-495-0080 /scratch/ravanelm/exp/librispeech/s5/fmllr/train_clean_100/data/feats_fmllr_train_clean_100.3.ark:310564457
5867-48852-0105 /scratch/ravanelm/exp/librispeech/s5/fmllr/train_clean_100/data/feats_fmllr_train_clean_100.7.ark:341564656
5867-48852-0011 /scratch/ravanelm/exp/librispeech/s5/fmllr/train_clean_100/data/feats_fmllr_train_clean_100.7.ark:322387822
1081-125237-0002 /scratch/ravanelm/exp/librispeech/s5/fmllr/train_clean_100/data/feats_fmllr_train_clean_100.1.ark:78207839
4195-186236-0017 /scratch/ravanelm/exp/librispeech/s5/fmllr/train_clean_100/data/feats_fmllr_train_clean_100.5.ark:458757217
5322-7678-0013 /scratch/ravanelm/exp/librispeech/s5/fmllr/train_clean_100/data/feats_fmllr_train_clean_100.6.ark:549120990
201-127786-0003 /scratch/ravanelm/exp/librispeech/s5/fmllr/train_clean_100/data/feats_fmllr_train_clean_100.2.ark:399429061
40-222-0046 /scratch/ravanelm/exp/librispeech/s5/fmllr/train_clean_100/data/feats_fmllr_train_clean_100.5.ark:229382848
1363-135842-0030 /scratch/ravanelm/exp/librispeech/s5/fmllr/train_clean_100/data/feats_fmllr_train_clean_100.1.ark:347682739
3168-173565-0009 /scratch/ravanelm/exp/librispeech/s5/fmllr/train_clean_100/data/feats_fmllr_train_clean_100.4.ark:146505114
8088-284756-0078 /scratch/ravanelm/exp/librispeech/s5/fmllr/train_clean_100/data/feats_fmllr_train_clean_100.9.ark:471681951
4051-11218-0035 /scratch/ravanelm/exp/librispeech/s5/fmllr/train_clean_100/data/feats_fmllr_train_clean_100.5.ark:349634762
3807-4923-0007 /scratch/ravanelm/exp/librispeech/s5/fmllr/train_clean_100/data/feats_fmllr_train_clean_100.5.ark:25630288
2910-131096-0003 /scratch/ravanelm/exp/librispeech/s5/fmllr/train_clean_100/data/feats_fmllr_train_clean_100.3.ark:501012692
481-123720-0008 /scratch/ravanelm/exp/librispeech/s5/fmllr/train_clean_100/data/feats_fmllr_train_clean_100.6.ark:298810609
26-495-0011 /scratch/ravanelm/exp/librispeech/s5/fmllr/train_clean_100/data/feats_fmllr_train_clean_100.3.ark:296256194
4680-16026-0026 /scratch/ravanelm/exp/librispeech/s5/fmllr/train_clean_100/data/feats_fmllr_train_clean_100.6.ark:245724303
4680-16042-0012 /scratch/ravanelm/exp/librispeech/s5/fmllr/train_clean_100/data/feats_fmllr_train_clean_100.6.ark:259717802
1183-133255-0003 /scratch/ravanelm/exp/librispeech/s5/fmllr/train_clean_100/data/feats_fmllr_train_clean_100.1.ark:195059903
8226-274369-0039 /scratch/ravanelm/exp/librispeech/s5/fmllr/train_clean_100/data/feats_fmllr_train_clean_100.10.ark:18192177
1578-6379-0030 /scratch/ravanelm/exp/librispeech/s5/fmllr/train_clean_100/data/feats_fmllr_train_clean_100.1.ark:500734816
7178-34644-0032 /scratch/ravanelm/exp/librispeech/s5/fmllr/train_clean_100/data/feats_fmllr_train_clean_100.8.ark:546237705
1246-135815-0015 /scratch/ravanelm/exp/librispeech/s5/fmllr/train_clean_100/data/feats_fmllr_train_clean_100.1.ark:247821471
1737-142396-0020 /scratch/ravanelm/exp/librispeech/s5/fmllr/train_clean_100/data/feats_fmllr_train_clean_100.2.ark:48850030
8226-274369-0027 /scratch/ravanelm/exp/librispeech/s5/fmllr/train_clean_100/data/feats_fmllr_train_clean_100.10.ark:15725073
1898-145715-0035 /scratch/ravanelm/exp/librispeech/s5/fmllr/train_clean_100/data/feats_fmllr_train_clean_100.2.ark:148473902
7511-102419-0010 /scratch/ravanelm/exp/librispeech/s5/fmllr/train_clean_100/data/feats_fmllr_train_clean_100.9.ark:208373165
6818-76332-0051 /scratch/ravanelm/exp/librispeech/s5/fmllr/train_clean_100/data/feats_fmllr_train_clean_100.8.ark:304964409
7302-86815-0074 /scratch/ravanelm/exp/librispeech/s5/fmllr/train_clean_100/data/feats_fmllr_train_clean_100.9.ark:103232549
78-369-0002 /scratch/ravanelm/exp/librispeech/s5/fmllr/train_clean_100/data/feats_fmllr_train_clean_100.9.ark:335607952
163-122947-0047 /scratch/ravanelm/exp/librispeech/s5/fmllr/train_clean_100/data/feats_fmllr_train_clean_100.2.ark:9698273
328-129766-0036 /scratch/ravanelm/exp/librispeech/s5/fmllr/train_clean_100/data/feats_fmllr_train_clean_100.4.ark:331582920
4481-17498-0041 /scratch/ravanelm/exp/librispeech/s5/fmllr/train_clean_100/data/feats_fmllr_train_clean_100.6.ark:164215505
1334-135589-0050 /scratch/ravanelm/exp/librispeech/s5/fmllr/train_clean_100/data/feats_fmllr_train_clean_100.1.ark:308474357
27-123349-0039 /scratch/ravanelm/exp/librispeech/s5/fmllr/train_clean_100/data/feats_fmllr_train_clean_100.3.ark:349786688
198-129977-0024 /scratch/ravanelm/exp/librispeech/s5/fmllr/train_clean_100/data/feats_fmllr_train_clean_100.2.ark:296869646
1898-145715-0030 /scratch/ravanelm/exp/librispeech/s5/fmllr/train_clean_100/data/feats_fmllr_train_clean_100.2.ark:147582542
5808-48608-0016 /scratch/ravanelm/exp/librispeech/s5/fmllr/train_clean_100/data/feats_fmllr_train_clean_100.7.ark:299688897
2893-139310-0044 /scratch/ravanelm/exp/librispeech/s5/fmllr/train_clean_100/data/feats_fmllr_train_clean_100.3.ark:485960340
7302-86815-0047 /scratch/ravanelm/exp/librispeech/s5/fmllr/train_clean_100/data/feats_fmllr_train_clean_100.9.ark:98180192
1737-142397-0009 /scratch/ravanelm/exp/librispeech/s5/fmllr/train_clean_100/data/feats_fmllr_train_clean_100.2.ark:51439086
150-132655-0018 /scratch/ravanelm/exp/librispeech/s5/fmllr/train_clean_100/data/feats_fmllr_train_clean_100.1.ark:432081135
7402-90848-0051 /scratch/ravanelm/exp/librispeech/s5/fmllr/train_clean_100/data/feats_fmllr_train_clean_100.9.ark:155838405
3486-166424-0005 /scratch/ravanelm/exp/librispeech/s5/fmllr/train_clean_100/data/feats_fmllr_train_clean_100.4.ark:435086993
8468-294887-0028 /scratch/ravanelm/exp/librispeech/s5/fmllr/train_clean_100/data/feats_fmllr_train_clean_100.10.ark:260012499
2436-2477-0036 /scratch/ravanelm/exp/librispeech/s5/fmllr/train_clean_100/data/feats_fmllr_train_clean_100.3.ark:165739937
412-126975-0043 /scratch/ravanelm/exp/librispeech/s5/fmllr/train_clean_100/data/feats_fmllr_train_clean_100.5.ark:388647779
8063-274112-0013 /scratch/ravanelm/exp/librispeech/s5/fmllr/train_clean_100/data/feats_fmllr_train_clean_100.9.ark:433461791
4788-294466-0004 /scratch/ravanelm/exp/librispeech/s5/fmllr/train_clean_100/data/feats_fmllr_train_clean_100.6.ark:266466479
60-121082-0005 /scratch/ravanelm/exp/librispeech/s5/fmllr/train_clean_100/data/feats_fmllr_train_clean_100.7.ark:368021683
298-126791-0031 /scratch/ravanelm/exp/librispeech/s5/fmllr/train_clean_100/data/feats_fmllr_train_clean_100.4.ark:6348497
5463-39173-0025 /scratch/ravanelm/exp/librispeech/s5/fmllr/train_clean_100/data/feats_fmllr_train_clean_100.7.ark:72109014
7800-283493-0015 /scratch/ravanelm/exp/librispeech/s5/fmllr/train_clean_100/data/feats_fmllr_train_clean_100.9.ark:368017343
1040-133433-0059 /scratch/ravanelm/exp/librispeech/s5/fmllr/train_clean_100/data/feats_fmllr_train_clean_100.1.ark:49948575
6147-34607-0019 /scratch/ravanelm/exp/librispeech/s5/fmllr/train_clean_100/data/feats_fmllr_train_clean_100.7.ark:519412449
229-130880-0087 /scratch/ravanelm/exp/librispeech/s5/fmllr/train_clean_100/data/feats_fmllr_train_clean_100.3.ark:57472305
4267-72637-0006 /scratch/ravanelm/exp/librispeech/s5/fmllr/train_clean_100/data/feats_fmllr_train_clean_100.5.ark:523018052
8098-275181-0029 /scratch/ravanelm/exp/librispeech/s5/fmllr/train_clean_100/data/feats_fmllr_train_clean_100.9.ark:510075327
1841-179183-0015 /scratch/ravanelm/exp/librispeech/s5/fmllr/train_clean_100/data/feats_fmllr_train_clean_100.2.ark:108589870
6437-66172-0017 /scratch/ravanelm/exp/librispeech/s5/fmllr/train_clean_100/data/feats_fmllr_train_clean_100.8.ark:123962280
6529-62554-0013 /scratch/ravanelm/exp/librispeech/s5/fmllr/train_clean_100/data/feats_fmllr_train_clean_100.8.ark:195584806
1502-122615-0038 /scratch/ravanelm/exp/librispeech/s5/fmllr/train_clean_100/data/feats_fmllr_train_clean_100.1.ark:442560030
5322-7678-0022 /scratch/ravanelm/exp/librispeech/s5/fmllr/train_clean_100/data/feats_fmllr_train_clean_100.6.ark:550914380
7190-90542-0060 /scratch/ravanelm/exp/librispeech/s5/fmllr/train_clean_100/data/feats_fmllr_train_clean_100.8.ark:574655898
4362-15663-0055 /scratch/ravanelm/exp/librispeech/s5/fmllr/train_clean_100/data/feats_fmllr_train_clean_100.6.ark:12468121
103-1240-0019 /scratch/ravanelm/exp/librispeech/s5/fmllr/train_clean_100/data/feats_fmllr_train_clean_100.1.ark:4086965
2952-410-0054 /scratch/ravanelm/exp/librispeech/s5/fmllr/train_clean_100/data/feats_fmllr_train_clean_100.3.ark:568466931
5678-43303-0025 /scratch/ravanelm/exp/librispeech/s5/fmllr/train_clean_100/data/feats_fmllr_train_clean_100.7.ark:175830559
6209-34601-0007 /scratch/ravanelm/exp/librispeech/s5/fmllr/train_clean_100/data/feats_fmllr_train_clean_100.7.ark:565236601
3440-171006-0023 /scratch/ravanelm/exp/librispeech/s5/fmllr/train_clean_100/data/feats_fmllr_train_clean_100.4.ark:415458033
4898-28461-0004 /scratch/ravanelm/exp/librispeech/s5/fmllr/train_clean_100/data/feats_fmllr_train_clean_100.6.ark:414342175
887-123289-0035 /scratch/ravanelm/exp/librispeech/s5/fmllr/train_clean_100/data/feats_fmllr_train_clean_100.10.ark:484170775
1034-121119-0049 /scratch/ravanelm/exp/librispeech/s5/fmllr/train_clean_100/data/feats_fmllr_train_clean_100.1.ark:30966623
198-129977-0005 /scratch/ravanelm/exp/librispeech/s5/fmllr/train_clean_100/data/feats_fmllr_train_clean_100.2.ark:293148417
587-54108-0041 /scratch/ravanelm/exp/librispeech/s5/fmllr/train_clean_100/data/feats_fmllr_train_clean_100.7.ark:364116223
26-495-0023 /scratch/ravanelm/exp/librispeech/s5/fmllr/train_clean_100/data/feats_fmllr_train_clean_100.3.ark:298248198
5022-29411-0049 /scratch/ravanelm/exp/librispeech/s5/fmllr/train_clean_100/data/feats_fmllr_train_clean_100.6.ark:447962753
3259-158083-0059 /scratch/ravanelm/exp/librispeech/s5/fmllr/train_clean_100/data/feats_fmllr_train_clean_100.4.ark:310936941
5022-29411-0067 /scratch/ravanelm/exp/librispeech/s5/fmllr/train_clean_100/data/feats_fmllr_train_clean_100.6.ark:451553231
32-4137-0027 /scratch/ravanelm/exp/librispeech/s5/fmllr/train_clean_100/data/feats_fmllr_train_clean_100.4.ark:174640284
5808-54425-0009 /scratch/ravanelm/exp/librispeech/s5/fmllr/train_clean_100/data/feats_fmllr_train_clean_100.7.ark:311008491
289-121652-0001 /scratch/ravanelm/exp/librispeech/s5/fmllr/train_clean_100/data/feats_fmllr_train_clean_100.3.ark:458277096
2911-15045-0025 /scratch/ravanelm/exp/librispeech/s5/fmllr/train_clean_100/data/feats_fmllr_train_clean_100.3.ark:530791456
163-122947-0016 /scratch/ravanelm/exp/librispeech/s5/fmllr/train_clean_100/data/feats_fmllr_train_clean_100.2.ark:2821312
26-495-0041 /scratch/ravanelm/exp/librispeech/s5/fmllr/train_clean_100/data/feats_fmllr_train_clean_100.3.ark:301803564
441-128982-0011 /scratch/ravanelm/exp/librispeech/s5/fmllr/train_clean_100/data/feats_fmllr_train_clean_100.6.ark:74641385
8014-112602-0012 /scratch/ravanelm/exp/librispeech/s5/fmllr/train_clean_100/data/feats_fmllr_train_clean_100.9.ark:399734207
6880-216547-0092 /scratch/ravanelm/exp/librispeech/s5/fmllr/train_clean_100/data/feats_fmllr_train_clean_100.8.ark:373552028
5561-41616-0015 /scratch/ravanelm/exp/librispeech/s5/fmllr/train_clean_100/data/feats_fmllr_train_clean_100.7.ark:126211671
481-123719-0036 /scratch/ravanelm/exp/librispeech/s5/fmllr/train_clean_100/data/feats_fmllr_train_clean_100.6.ark:296020735
2196-174172-0030 /scratch/ravanelm/exp/librispeech/s5/fmllr/train_clean_100/data/feats_fmllr_train_clean_100.2.ark:556744499
201-127786-0001 /scratch/ravanelm/exp/librispeech/s5/fmllr/train_clean_100/data/feats_fmllr_train_clean_100.2.ark:398968039
