3214-167602-0009 /scratch/ravanelm/exp/librispeech/s5/fmllr/train_clean_100/data/feats_fmllr_train_clean_100.4.ark:182083392
5339-14134-0003 /scratch/ravanelm/exp/librispeech/s5/fmllr/train_clean_100/data/feats_fmllr_train_clean_100.6.ark:581114011
307-127535-0043 /scratch/ravanelm/exp/librispeech/s5/fmllr/train_clean_100/data/feats_fmllr_train_clean_100.4.ark:70311440
7078-271888-0065 /scratch/ravanelm/exp/librispeech/s5/fmllr/train_clean_100/data/feats_fmllr_train_clean_100.8.ark:480693264
289-121652-0034 /scratch/ravanelm/exp/librispeech/s5/fmllr/train_clean_100/data/feats_fmllr_train_clean_100.3.ark:465265159
7511-102419-0027 /scratch/ravanelm/exp/librispeech/s5/fmllr/train_clean_100/data/feats_fmllr_train_clean_100.9.ark:212175629
2136-5143-0010 /scratch/ravanelm/exp/librispeech/s5/fmllr/train_clean_100/data/feats_fmllr_train_clean_100.2.ark:473598697
2436-2477-0024 /scratch/ravanelm/exp/librispeech/s5/fmllr/train_clean_100/data/feats_fmllr_train_clean_100.3.ark:163474777
8226-274369-0001 /scratch/ravanelm/exp/librispeech/s5/fmllr/train_clean_100/data/feats_fmllr_train_clean_100.10.ark:10390961
2196-170379-0026 /scratch/ravanelm/exp/librispeech/s5/fmllr/train_clean_100/data/feats_fmllr_train_clean_100.2.ark:548010931
1867-154071-0030 /scratch/ravanelm/exp/librispeech/s5/fmllr/train_clean_100/data/feats_fmllr_train_clean_100.2.ark:126381390
3982-178459-0022 /scratch/ravanelm/exp/librispeech/s5/fmllr/train_clean_100/data/feats_fmllr_train_clean_100.5.ark:166595879
7302-86815-0063 /scratch/ravanelm/exp/librispeech/s5/fmllr/train_clean_100/data/feats_fmllr_train_clean_100.9.ark:100859728
3436-172171-0036 /scratch/ravanelm/exp/librispeech/s5/fmllr/train_clean_100/data/feats_fmllr_train_clean_100.4.ark:404025457
6078-54013-0042 /scratch/ravanelm/exp/librispeech/s5/fmllr/train_clean_100/data/feats_fmllr_train_clean_100.7.ark:469390975
7113-86041-0050 /scratch/ravanelm/exp/librispeech/s5/fmllr/train_clean_100/data/feats_fmllr_train_clean_100.8.ark:501825693
6078-54013-0078 /scratch/ravanelm/exp/librispeech/s5/fmllr/train_clean_100/data/feats_fmllr_train_clean_100.7.ark:475639451
254-27760-0001 /scratch/ravanelm/exp/librispeech/s5/fmllr/train_clean_100/data/feats_fmllr_train_clean_100.3.ark:287772640
1926-147979-0009 /scratch/ravanelm/exp/librispeech/s5/fmllr/train_clean_100/data/feats_fmllr_train_clean_100.2.ark:194793667
1898-145715-0004 /scratch/ravanelm/exp/librispeech/s5/fmllr/train_clean_100/data/feats_fmllr_train_clean_100.2.ark:142125390
587-41619-0000 /scratch/ravanelm/exp/librispeech/s5/fmllr/train_clean_100/data/feats_fmllr_train_clean_100.7.ark:349628043
6925-80680-0013 /scratch/ravanelm/exp/librispeech/s5/fmllr/train_clean_100/data/feats_fmllr_train_clean_100.8.ark:381301198
5778-54535-0030 /scratch/ravanelm/exp/librispeech/s5/fmllr/train_clean_100/data/feats_fmllr_train_clean_100.7.ark:268025140
4051-11217-0017 /scratch/ravanelm/exp/librispeech/s5/fmllr/train_clean_100/data/feats_fmllr_train_clean_100.5.ark:338530982
196-122150-0029 /scratch/ravanelm/exp/librispeech/s5/fmllr/train_clean_100/data/feats_fmllr_train_clean_100.2.ark:216689029
7511-102419-0015 /scratch/ravanelm/exp/librispeech/s5/fmllr/train_clean_100/data/feats_fmllr_train_clean_100.9.ark:209530125
5322-7678-0021 /scratch/ravanelm/exp/librispeech/s5/fmllr/train_clean_100/data/feats_fmllr_train_clean_100.6.ark:550670030
8609-283227-0022 /scratch/ravanelm/exp/librispeech/s5/fmllr/train_clean_100/data/feats_fmllr_train_clean_100.10.ark:303045683
125-121342-0045 /scratch/ravanelm/exp/librispeech/s5/fmllr/train_clean_100/data/feats_fmllr_train_clean_100.1.ark:272667704
3242-8112-0013 /scratch/ravanelm/exp/librispeech/s5/fmllr/train_clean_100/data/feats_fmllr_train_clean_100.4.ark:295018091
8468-295198-0002 /scratch/ravanelm/exp/librispeech/s5/fmllr/train_clean_100/data/feats_fmllr_train_clean_100.10.ark:263486163
4853-27671-0007 /scratch/ravanelm/exp/librispeech/s5/fmllr/train_clean_100/data/feats_fmllr_train_clean_100.6.ark:370165900
8465-246940-0004 /scratch/ravanelm/exp/librispeech/s5/fmllr/train_clean_100/data/feats_fmllr_train_clean_100.10.ark:223378163
5678-43302-0033 /scratch/ravanelm/exp/librispeech/s5/fmllr/train_clean_100/data/feats_fmllr_train_clean_100.7.ark:168519296
328-129766-0094 /scratch/ravanelm/exp/librispeech/s5/fmllr/train_clean_100/data/feats_fmllr_train_clean_100.4.ark:342333838
3168-173565-0026 /scratch/ravanelm/exp/librispeech/s5/fmllr/train_clean_100/data/feats_fmllr_train_clean_100.4.ark:150299258
1069-133699-0046 /scratch/ravanelm/exp/librispeech/s5/fmllr/train_clean_100/data/feats_fmllr_train_clean_100.1.ark:64177791
1183-128659-0011 /scratch/ravanelm/exp/librispeech/s5/fmllr/train_clean_100/data/feats_fmllr_train_clean_100.1.ark:193571999
6019-3185-0035 /scratch/ravanelm/exp/librispeech/s5/fmllr/train_clean_100/data/feats_fmllr_train_clean_100.7.ark:411126621
3723-171115-0007 /scratch/ravanelm/exp/librispeech/s5/fmllr/train_clean_100/data/feats_fmllr_train_clean_100.4.ark:552806920
3830-12530-0015 /scratch/ravanelm/exp/librispeech/s5/fmllr/train_clean_100/data/feats_fmllr_train_clean_100.5.ark:49858820
27-123349-0057 /scratch/ravanelm/exp/librispeech/s5/fmllr/train_clean_100/data/feats_fmllr_train_clean_100.3.ark:353849468
4267-78186-0030 /scratch/ravanelm/exp/librispeech/s5/fmllr/train_clean_100/data/feats_fmllr_train_clean_100.5.ark:535508232
4362-15663-0036 /scratch/ravanelm/exp/librispeech/s5/fmllr/train_clean_100/data/feats_fmllr_train_clean_100.6.ark:8116332
322-124147-0014 /scratch/ravanelm/exp/librispeech/s5/fmllr/train_clean_100/data/feats_fmllr_train_clean_100.4.ark:214380747
1867-148436-0016 /scratch/ravanelm/exp/librispeech/s5/fmllr/train_clean_100/data/feats_fmllr_train_clean_100.2.ark:116410510
426-122821-0016 /scratch/ravanelm/exp/librispeech/s5/fmllr/train_clean_100/data/feats_fmllr_train_clean_100.5.ark:500145897
2989-138035-0000 /scratch/ravanelm/exp/librispeech/s5/fmllr/train_clean_100/data/feats_fmllr_train_clean_100.4.ark:26304557
458-126290-0012 /scratch/ravanelm/exp/librispeech/s5/fmllr/train_clean_100/data/feats_fmllr_train_clean_100.6.ark:179123213
5808-48608-0013 /scratch/ravanelm/exp/librispeech/s5/fmllr/train_clean_100/data/feats_fmllr_train_clean_100.7.ark:299039684
4481-17499-0025 /scratch/ravanelm/exp/librispeech/s5/fmllr/train_clean_100/data/feats_fmllr_train_clean_100.6.ark:171339568
8425-287387-0004 /scratch/ravanelm/exp/librispeech/s5/fmllr/train_clean_100/data/feats_fmllr_train_clean_100.10.ark:206053747
7635-105409-0030 /scratch/ravanelm/exp/librispeech/s5/fmllr/train_clean_100/data/feats_fmllr_train_clean_100.9.ark:260220077
909-131044-0007 /scratch/ravanelm/exp/librispeech/s5/fmllr/train_clean_100/data/feats_fmllr_train_clean_100.10.ark:557044665
118-47824-0051 /scratch/ravanelm/exp/librispeech/s5/fmllr/train_clean_100/data/feats_fmllr_train_clean_100.1.ark:185526853
412-126975-0006 /scratch/ravanelm/exp/librispeech/s5/fmllr/train_clean_100/data/feats_fmllr_train_clean_100.5.ark:380234792
150-126112-0017 /scratch/ravanelm/exp/librispeech/s5/fmllr/train_clean_100/data/feats_fmllr_train_clean_100.1.ark:424072597
1098-133695-0058 /scratch/ravanelm/exp/librispeech/s5/fmllr/train_clean_100/data/feats_fmllr_train_clean_100.1.ark:137609695
311-124404-0082 /scratch/ravanelm/exp/librispeech/s5/fmllr/train_clean_100/data/feats_fmllr_train_clean_100.4.ark:102618093
198-209-0019 /scratch/ravanelm/exp/librispeech/s5/fmllr/train_clean_100/data/feats_fmllr_train_clean_100.2.ark:302464694
1081-125237-0002 /scratch/ravanelm/exp/librispeech/s5/fmllr/train_clean_100/data/feats_fmllr_train_clean_100.1.ark:78207839
200-124139-0032 /scratch/ravanelm/exp/librispeech/s5/fmllr/train_clean_100/data/feats_fmllr_train_clean_100.2.ark:324687561
4195-186236-0025 /scratch/ravanelm/exp/librispeech/s5/fmllr/train_clean_100/data/feats_fmllr_train_clean_100.5.ark:460097793
1867-154075-0026 /scratch/ravanelm/exp/librispeech/s5/fmllr/train_clean_100/data/feats_fmllr_train_clean_100.2.ark:133480462
4898-28461-0041 /scratch/ravanelm/exp/librispeech/s5/fmllr/train_clean_100/data/feats_fmllr_train_clean_100.6.ark:422943322
730-359-0040 /scratch/ravanelm/exp/librispeech/s5/fmllr/train_clean_100/data/feats_fmllr_train_clean_100.9.ark:72222814
6529-62556-0041 /scratch/ravanelm/exp/librispeech/s5/fmllr/train_clean_100/data/feats_fmllr_train_clean_100.8.ark:214925681
730-360-0009 /scratch/ravanelm/exp/librispeech/s5/fmllr/train_clean_100/data/feats_fmllr_train_clean_100.9.ark:75314414
89-218-0040 /scratch/ravanelm/exp/librispeech/s5/fmllr/train_clean_100/data/feats_fmllr_train_clean_100.10.ark:509117851
3168-173565-0054 /scratch/ravanelm/exp/librispeech/s5/fmllr/train_clean_100/data/feats_fmllr_train_clean_100.4.ark:155696154
1040-133433-0059 /scratch/ravanelm/exp/librispeech/s5/fmllr/train_clean_100/data/feats_fmllr_train_clean_100.1.ark:49948575
5561-39621-0022 /scratch/ravanelm/exp/librispeech/s5/fmllr/train_clean_100/data/feats_fmllr_train_clean_100.7.ark:110640143
6531-61334-0084 /scratch/ravanelm/exp/librispeech/s5/fmllr/train_clean_100/data/feats_fmllr_train_clean_100.8.ark:230216244
83-11691-0022 /scratch/ravanelm/exp/librispeech/s5/fmllr/train_clean_100/data/feats_fmllr_train_clean_100.10.ark:62498156
1841-159771-0007 /scratch/ravanelm/exp/librispeech/s5/fmllr/train_clean_100/data/feats_fmllr_train_clean_100.2.ark:97841678
6437-66173-0030 /scratch/ravanelm/exp/librispeech/s5/fmllr/train_clean_100/data/feats_fmllr_train_clean_100.8.ark:137162158
8063-274116-0017 /scratch/ravanelm/exp/librispeech/s5/fmllr/train_clean_100/data/feats_fmllr_train_clean_100.9.ark:447335615
4137-11701-0049 /scratch/ravanelm/exp/librispeech/s5/fmllr/train_clean_100/data/feats_fmllr_train_clean_100.5.ark:410433790
1963-147036-0008 /scratch/ravanelm/exp/librispeech/s5/fmllr/train_clean_100/data/feats_fmllr_train_clean_100.2.ark:252853431
6147-34607-0021 /scratch/ravanelm/exp/librispeech/s5/fmllr/train_clean_100/data/feats_fmllr_train_clean_100.7.ark:519832191
2518-154825-0002 /scratch/ravanelm/exp/librispeech/s5/fmllr/train_clean_100/data/feats_fmllr_train_clean_100.3.ark:246381777
2002-139469-0109 /scratch/ravanelm/exp/librispeech/s5/fmllr/train_clean_100/data/feats_fmllr_train_clean_100.2.ark:365200694
460-172359-0075 /scratch/ravanelm/exp/librispeech/s5/fmllr/train_clean_100/data/feats_fmllr_train_clean_100.6.ark:212914114
5652-39938-0033 /scratch/ravanelm/exp/librispeech/s5/fmllr/train_clean_100/data/feats_fmllr_train_clean_100.7.ark:148348511
7148-59157-0038 /scratch/ravanelm/exp/librispeech/s5/fmllr/train_clean_100/data/feats_fmllr_train_clean_100.8.ark:522867642
6209-34601-0005 /scratch/ravanelm/exp/librispeech/s5/fmllr/train_clean_100/data/feats_fmllr_train_clean_100.7.ark:564897179
2159-179154-0027 /scratch/ravanelm/exp/librispeech/s5/fmllr/train_clean_100/data/feats_fmllr_train_clean_100.2.ark:492570643
1088-134315-0045 /scratch/ravanelm/exp/librispeech/s5/fmllr/train_clean_100/data/feats_fmllr_train_clean_100.1.ark:118482207
163-122947-0075 /scratch/ravanelm/exp/librispeech/s5/fmllr/train_clean_100/data/feats_fmllr_train_clean_100.2.ark:15997061
6415-116629-0027 /scratch/ravanelm/exp/librispeech/s5/fmllr/train_clean_100/data/feats_fmllr_train_clean_100.8.ark:117641978
7635-105409-0063 /scratch/ravanelm/exp/librispeech/s5/fmllr/train_clean_100/data/feats_fmllr_train_clean_100.9.ark:266309613
8312-279791-0042 /scratch/ravanelm/exp/librispeech/s5/fmllr/train_clean_100/data/feats_fmllr_train_clean_100.10.ark:127883063
2416-152139-0042 /scratch/ravanelm/exp/librispeech/s5/fmllr/train_clean_100/data/feats_fmllr_train_clean_100.3.ark:142747357
1737-142396-0011 /scratch/ravanelm/exp/librispeech/s5/fmllr/train_clean_100/data/feats_fmllr_train_clean_100.2.ark:47273262
8580-287363-0010 /scratch/ravanelm/exp/librispeech/s5/fmllr/train_clean_100/data/feats_fmllr_train_clean_100.10.ark:272572627
831-130746-0056 /scratch/ravanelm/exp/librispeech/s5/fmllr/train_clean_100/data/feats_fmllr_train_clean_100.10.ark:105816539
669-129061-0047 /scratch/ravanelm/exp/librispeech/s5/fmllr/train_clean_100/data/feats_fmllr_train_clean_100.8.ark:267768677
1594-135914-0034 /scratch/ravanelm/exp/librispeech/s5/fmllr/train_clean_100/data/feats_fmllr_train_clean_100.1.ark:511385116
8063-274116-0006 /scratch/ravanelm/exp/librispeech/s5/fmllr/train_clean_100/data/feats_fmllr_train_clean_100.9.ark:445569823
3947-13260-0012 /scratch/ravanelm/exp/librispeech/s5/fmllr/train_clean_100/data/feats_fmllr_train_clean_100.5.ark:143308673
1723-141149-0071 /scratch/ravanelm/exp/librispeech/s5/fmllr/train_clean_100/data/feats_fmllr_train_clean_100.2.ark:36341518
5163-39921-0041 /scratch/ravanelm/exp/librispeech/s5/fmllr/train_clean_100/data/feats_fmllr_train_clean_100.6.ark:519679776
1743-142914-0029 /scratch/ravanelm/exp/librispeech/s5/fmllr/train_clean_100/data/feats_fmllr_train_clean_100.2.ark:88352846
6385-34669-0017 /scratch/ravanelm/exp/librispeech/s5/fmllr/train_clean_100/data/feats_fmllr_train_clean_100.8.ark:92635785
7859-102519-0023 /scratch/ravanelm/exp/librispeech/s5/fmllr/train_clean_100/data/feats_fmllr_train_clean_100.9.ark:383558207
5750-100289-0076 /scratch/ravanelm/exp/librispeech/s5/fmllr/train_clean_100/data/feats_fmllr_train_clean_100.7.ark:243166182
8088-284756-0089 /scratch/ravanelm/exp/librispeech/s5/fmllr/train_clean_100/data/feats_fmllr_train_clean_100.9.ark:473495423
2002-139469-0106 /scratch/ravanelm/exp/librispeech/s5/fmllr/train_clean_100/data/feats_fmllr_train_clean_100.2.ark:364560758
5750-35690-0029 /scratch/ravanelm/exp/librispeech/s5/fmllr/train_clean_100/data/feats_fmllr_train_clean_100.7.ark:250492936
3857-180923-0005 /scratch/ravanelm/exp/librispeech/s5/fmllr/train_clean_100/data/feats_fmllr_train_clean_100.5.ark:69623108
1040-133433-0002 /scratch/ravanelm/exp/librispeech/s5/fmllr/train_clean_100/data/feats_fmllr_train_clean_100.1.ark:39243551
7447-91187-0010 /scratch/ravanelm/exp/librispeech/s5/fmllr/train_clean_100/data/feats_fmllr_train_clean_100.9.ark:169585411
2518-154826-0019 /scratch/ravanelm/exp/librispeech/s5/fmllr/train_clean_100/data/feats_fmllr_train_clean_100.3.ark:262439665
1594-135914-0081 /scratch/ravanelm/exp/librispeech/s5/fmllr/train_clean_100/data/feats_fmllr_train_clean_100.1.ark:519847260
4340-15220-0058 /scratch/ravanelm/exp/librispeech/s5/fmllr/train_clean_100/data/feats_fmllr_train_clean_100.5.ark:574004599
8609-262281-0015 /scratch/ravanelm/exp/librispeech/s5/fmllr/train_clean_100/data/feats_fmllr_train_clean_100.10.ark:292528691
6531-61334-0056 /scratch/ravanelm/exp/librispeech/s5/fmllr/train_clean_100/data/feats_fmllr_train_clean_100.8.ark:226830576
696-93314-0040 /scratch/ravanelm/exp/librispeech/s5/fmllr/train_clean_100/data/feats_fmllr_train_clean_100.8.ark:412629220
4406-16883-0011 /scratch/ravanelm/exp/librispeech/s5/fmllr/train_clean_100/data/feats_fmllr_train_clean_100.6.ark:62744774
4397-15668-0023 /scratch/ravanelm/exp/librispeech/s5/fmllr/train_clean_100/data/feats_fmllr_train_clean_100.6.ark:35156083
7113-86041-0021 /scratch/ravanelm/exp/librispeech/s5/fmllr/train_clean_100/data/feats_fmllr_train_clean_100.8.ark:495633274
1898-145715-0029 /scratch/ravanelm/exp/librispeech/s5/fmllr/train_clean_100/data/feats_fmllr_train_clean_100.2.ark:147359150
5393-19218-0023 /scratch/ravanelm/exp/librispeech/s5/fmllr/train_clean_100/data/feats_fmllr_train_clean_100.7.ark:28247685
302-123504-0022 /scratch/ravanelm/exp/librispeech/s5/fmllr/train_clean_100/data/feats_fmllr_train_clean_100.4.ark:43120246
4406-16883-0041 /scratch/ravanelm/exp/librispeech/s5/fmllr/train_clean_100/data/feats_fmllr_train_clean_100.6.ark:68674824
2764-36619-0031 /scratch/ravanelm/exp/librispeech/s5/fmllr/train_clean_100/data/feats_fmllr_train_clean_100.3.ark:383536718
1235-135883-0000 /scratch/ravanelm/exp/librispeech/s5/fmllr/train_clean_100/data/feats_fmllr_train_clean_100.1.ark:201185087
3242-8112-0019 /scratch/ravanelm/exp/librispeech/s5/fmllr/train_clean_100/data/feats_fmllr_train_clean_100.4.ark:296188511
8419-286676-0025 /scratch/ravanelm/exp/librispeech/s5/fmllr/train_clean_100/data/feats_fmllr_train_clean_100.10.ark:186669235
8629-261140-0011 /scratch/ravanelm/exp/librispeech/s5/fmllr/train_clean_100/data/feats_fmllr_train_clean_100.10.ark:330404307
4397-15678-0035 /scratch/ravanelm/exp/librispeech/s5/fmllr/train_clean_100/data/feats_fmllr_train_clean_100.6.ark:46374015
2196-174172-0018 /scratch/ravanelm/exp/librispeech/s5/fmllr/train_clean_100/data/feats_fmllr_train_clean_100.2.ark:553919635
3374-298026-0015 /scratch/ravanelm/exp/librispeech/s5/fmllr/train_clean_100/data/feats_fmllr_train_clean_100.4.ark:371214449
1963-142393-0043 /scratch/ravanelm/exp/librispeech/s5/fmllr/train_clean_100/data/feats_fmllr_train_clean_100.2.ark:242303895
7402-90848-0058 /scratch/ravanelm/exp/librispeech/s5/fmllr/train_clean_100/data/feats_fmllr_train_clean_100.9.ark:157494302
587-41619-0004 /scratch/ravanelm/exp/librispeech/s5/fmllr/train_clean_100/data/feats_fmllr_train_clean_100.7.ark:350555043
1098-133695-0029 /scratch/ravanelm/exp/librispeech/s5/fmllr/train_clean_100/data/feats_fmllr_train_clean_100.1.ark:131806687
7859-102518-0009 /scratch/ravanelm/exp/librispeech/s5/fmllr/train_clean_100/data/feats_fmllr_train_clean_100.9.ark:374893599
2989-138035-0063 /scratch/ravanelm/exp/librispeech/s5/fmllr/train_clean_100/data/feats_fmllr_train_clean_100.4.ark:36123853
7780-274562-0068 /scratch/ravanelm/exp/librispeech/s5/fmllr/train_clean_100/data/feats_fmllr_train_clean_100.9.ark:292459277
8238-274553-0003 /scratch/ravanelm/exp/librispeech/s5/fmllr/train_clean_100/data/feats_fmllr_train_clean_100.10.ark:35144401
6181-216552-0047 /scratch/ravanelm/exp/librispeech/s5/fmllr/train_clean_100/data/feats_fmllr_train_clean_100.7.ark:533778316
2911-12359-0017 /scratch/ravanelm/exp/librispeech/s5/fmllr/train_clean_100/data/feats_fmllr_train_clean_100.3.ark:524263042
2764-36617-0000 /scratch/ravanelm/exp/librispeech/s5/fmllr/train_clean_100/data/feats_fmllr_train_clean_100.3.ark:369507348
6563-285357-0006 /scratch/ravanelm/exp/librispeech/s5/fmllr/train_clean_100/data/feats_fmllr_train_clean_100.8.ark:238658436
8312-279791-0046 /scratch/ravanelm/exp/librispeech/s5/fmllr/train_clean_100/data/feats_fmllr_train_clean_100.10.ark:128879671
5789-57195-0013 /scratch/ravanelm/exp/librispeech/s5/fmllr/train_clean_100/data/feats_fmllr_train_clean_100.7.ark:283054639
248-130644-0023 /scratch/ravanelm/exp/librispeech/s5/fmllr/train_clean_100/data/feats_fmllr_train_clean_100.3.ark:178740381
909-131041-0000 /scratch/ravanelm/exp/librispeech/s5/fmllr/train_clean_100/data/feats_fmllr_train_clean_100.10.ark:548867776
7505-83618-0007 /scratch/ravanelm/exp/librispeech/s5/fmllr/train_clean_100/data/feats_fmllr_train_clean_100.9.ark:203130304
5163-18515-0041 /scratch/ravanelm/exp/librispeech/s5/fmllr/train_clean_100/data/feats_fmllr_train_clean_100.6.ark:508663315
8095-274345-0021 /scratch/ravanelm/exp/librispeech/s5/fmllr/train_clean_100/data/feats_fmllr_train_clean_100.9.ark:484459807
2002-139469-0112 /scratch/ravanelm/exp/librispeech/s5/fmllr/train_clean_100/data/feats_fmllr_train_clean_100.2.ark:365701750
2002-139469-0097 /scratch/ravanelm/exp/librispeech/s5/fmllr/train_clean_100/data/feats_fmllr_train_clean_100.2.ark:362652630
7226-86964-0027 /scratch/ravanelm/exp/librispeech/s5/fmllr/train_clean_100/data/feats_fmllr_train_clean_100.8.ark:593788696
6529-62556-0009 /scratch/ravanelm/exp/librispeech/s5/fmllr/train_clean_100/data/feats_fmllr_train_clean_100.8.ark:207614449
7078-271888-0090 /scratch/ravanelm/exp/librispeech/s5/fmllr/train_clean_100/data/feats_fmllr_train_clean_100.8.ark:485676304
8095-274345-0010 /scratch/ravanelm/exp/librispeech/s5/fmllr/train_clean_100/data/feats_fmllr_train_clean_100.9.ark:481907935
2910-131096-0090 /scratch/ravanelm/exp/librispeech/s5/fmllr/train_clean_100/data/feats_fmllr_train_clean_100.3.ark:520500916
2159-179157-0017 /scratch/ravanelm/exp/librispeech/s5/fmllr/train_clean_100/data/feats_fmllr_train_clean_100.2.ark:507064595
4680-16042-0031 /scratch/ravanelm/exp/librispeech/s5/fmllr/train_clean_100/data/feats_fmllr_train_clean_100.6.ark:263512631
6181-216552-0086 /scratch/ravanelm/exp/librispeech/s5/fmllr/train_clean_100/data/feats_fmllr_train_clean_100.7.ark:541810764
5514-19192-0031 /scratch/ravanelm/exp/librispeech/s5/fmllr/train_clean_100/data/feats_fmllr_train_clean_100.7.ark:97316925
5703-47198-0019 /scratch/ravanelm/exp/librispeech/s5/fmllr/train_clean_100/data/feats_fmllr_train_clean_100.7.ark:207436835
2007-149877-0015 /scratch/ravanelm/exp/librispeech/s5/fmllr/train_clean_100/data/feats_fmllr_train_clean_100.2.ark:381498070
1040-133433-0076 /scratch/ravanelm/exp/librispeech/s5/fmllr/train_clean_100/data/feats_fmllr_train_clean_100.1.ark:52945119
2764-36616-0031 /scratch/ravanelm/exp/librispeech/s5/fmllr/train_clean_100/data/feats_fmllr_train_clean_100.3.ark:367622460
4051-11217-0038 /scratch/ravanelm/exp/librispeech/s5/fmllr/train_clean_100/data/feats_fmllr_train_clean_100.5.ark:342283313
6019-3185-0048 /scratch/ravanelm/exp/librispeech/s5/fmllr/train_clean_100/data/feats_fmllr_train_clean_100.7.ark:413947811
1594-135914-0039 /scratch/ravanelm/exp/librispeech/s5/fmllr/train_clean_100/data/feats_fmllr_train_clean_100.1.ark:512363836
1246-135815-0013 /scratch/ravanelm/exp/librispeech/s5/fmllr/train_clean_100/data/feats_fmllr_train_clean_100.1.ark:247414047
8419-293469-0020 /scratch/ravanelm/exp/librispeech/s5/fmllr/train_clean_100/data/feats_fmllr_train_clean_100.10.ark:192101203
3947-13260-0050 /scratch/ravanelm/exp/librispeech/s5/fmllr/train_clean_100/data/feats_fmllr_train_clean_100.5.ark:151685371
8088-284756-0084 /scratch/ravanelm/exp/librispeech/s5/fmllr/train_clean_100/data/feats_fmllr_train_clean_100.9.ark:472409663
196-122150-0011 /scratch/ravanelm/exp/librispeech/s5/fmllr/train_clean_100/data/feats_fmllr_train_clean_100.2.ark:212533591
8770-295462-0017 /scratch/ravanelm/exp/librispeech/s5/fmllr/train_clean_100/data/feats_fmllr_train_clean_100.10.ark:410619771
8226-274369-0020 /scratch/ravanelm/exp/librispeech/s5/fmllr/train_clean_100/data/feats_fmllr_train_clean_100.10.ark:14413969
2910-131096-0029 /scratch/ravanelm/exp/librispeech/s5/fmllr/train_clean_100/data/feats_fmllr_train_clean_100.3.ark:506753044
1034-121119-0057 /scratch/ravanelm/exp/librispeech/s5/fmllr/train_clean_100/data/feats_fmllr_train_clean_100.1.ark:32774399
2952-408-0015 /scratch/ravanelm/exp/librispeech/s5/fmllr/train_clean_100/data/feats_fmllr_train_clean_100.3.ark:553959010
2952-410-0013 /scratch/ravanelm/exp/librispeech/s5/fmllr/train_clean_100/data/feats_fmllr_train_clean_100.3.ark:559627662
254-145458-0006 /scratch/ravanelm/exp/librispeech/s5/fmllr/train_clean_100/data/feats_fmllr_train_clean_100.3.ark:284216435
4397-15678-0016 /scratch/ravanelm/exp/librispeech/s5/fmllr/train_clean_100/data/feats_fmllr_train_clean_100.6.ark:42174226
1263-138246-0024 /scratch/ravanelm/exp/librispeech/s5/fmllr/train_clean_100/data/feats_fmllr_train_clean_100.1.ark:278530997
233-134440-0027 /scratch/ravanelm/exp/librispeech/s5/fmllr/train_clean_100/data/feats_fmllr_train_clean_100.3.ark:64816239
8770-295465-0028 /scratch/ravanelm/exp/librispeech/s5/fmllr/train_clean_100/data/feats_fmllr_train_clean_100.10.ark:427890043
405-130895-0025 /scratch/ravanelm/exp/librispeech/s5/fmllr/train_clean_100/data/feats_fmllr_train_clean_100.5.ark:328560224
201-122255-0007 /scratch/ravanelm/exp/librispeech/s5/fmllr/train_clean_100/data/feats_fmllr_train_clean_100.2.ark:391751310
5778-12761-0038 /scratch/ravanelm/exp/librispeech/s5/fmllr/train_clean_100/data/feats_fmllr_train_clean_100.7.ark:259117118
3486-166424-0040 /scratch/ravanelm/exp/librispeech/s5/fmllr/train_clean_100/data/feats_fmllr_train_clean_100.4.ark:442510193
4014-186176-0012 /scratch/ravanelm/exp/librispeech/s5/fmllr/train_clean_100/data/feats_fmllr_train_clean_100.5.ark:242100722
5561-39621-0027 /scratch/ravanelm/exp/librispeech/s5/fmllr/train_clean_100/data/feats_fmllr_train_clean_100.7.ark:111522858
1578-140049-0037 /scratch/ravanelm/exp/librispeech/s5/fmllr/train_clean_100/data/feats_fmllr_train_clean_100.1.ark:494806814
1992-141719-0007 /scratch/ravanelm/exp/librispeech/s5/fmllr/train_clean_100/data/feats_fmllr_train_clean_100.2.ark:307957962
289-121665-0013 /scratch/ravanelm/exp/librispeech/s5/fmllr/train_clean_100/data/feats_fmllr_train_clean_100.3.ark:469354517
8770-295462-0010 /scratch/ravanelm/exp/librispeech/s5/fmllr/train_clean_100/data/feats_fmllr_train_clean_100.10.ark:409098267
8770-295463-0023 /scratch/ravanelm/exp/librispeech/s5/fmllr/train_clean_100/data/feats_fmllr_train_clean_100.10.ark:420621307
200-126784-0001 /scratch/ravanelm/exp/librispeech/s5/fmllr/train_clean_100/data/feats_fmllr_train_clean_100.2.ark:334485498
6147-34607-0010 /scratch/ravanelm/exp/librispeech/s5/fmllr/train_clean_100/data/feats_fmllr_train_clean_100.7.ark:517516810
26-495-0000 /scratch/ravanelm/exp/librispeech/s5/fmllr/train_clean_100/data/feats_fmllr_train_clean_100.3.ark:294090617
2911-7601-0050 /scratch/ravanelm/exp/librispeech/s5/fmllr/train_clean_100/data/feats_fmllr_train_clean_100.3.ark:545318984
4214-7146-0025 /scratch/ravanelm/exp/librispeech/s5/fmllr/train_clean_100/data/feats_fmllr_train_clean_100.5.ark:477383373
1502-122619-0015 /scratch/ravanelm/exp/librispeech/s5/fmllr/train_clean_100/data/feats_fmllr_train_clean_100.1.ark:445486142
229-130880-0045 /scratch/ravanelm/exp/librispeech/s5/fmllr/train_clean_100/data/feats_fmllr_train_clean_100.3.ark:48926843
83-11691-0010 /scratch/ravanelm/exp/librispeech/s5/fmllr/train_clean_100/data/feats_fmllr_train_clean_100.10.ark:60434768
3242-67153-0011 /scratch/ravanelm/exp/librispeech/s5/fmllr/train_clean_100/data/feats_fmllr_train_clean_100.4.ark:279259465
3879-173592-0012 /scratch/ravanelm/exp/librispeech/s5/fmllr/train_clean_100/data/feats_fmllr_train_clean_100.5.ark:95262052
3240-131231-0075 /scratch/ravanelm/exp/librispeech/s5/fmllr/train_clean_100/data/feats_fmllr_train_clean_100.4.ark:266270421
8425-291444-0006 /scratch/ravanelm/exp/librispeech/s5/fmllr/train_clean_100/data/feats_fmllr_train_clean_100.10.ark:212933107
1040-133433-0050 /scratch/ravanelm/exp/librispeech/s5/fmllr/train_clean_100/data/feats_fmllr_train_clean_100.1.ark:48250687
1867-154075-0007 /scratch/ravanelm/exp/librispeech/s5/fmllr/train_clean_100/data/feats_fmllr_train_clean_100.2.ark:129784334
6367-74004-0021 /scratch/ravanelm/exp/librispeech/s5/fmllr/train_clean_100/data/feats_fmllr_train_clean_100.8.ark:68936847
1578-6379-0024 /scratch/ravanelm/exp/librispeech/s5/fmllr/train_clean_100/data/feats_fmllr_train_clean_100.1.ark:499723276
1040-133433-0058 /scratch/ravanelm/exp/librispeech/s5/fmllr/train_clean_100/data/feats_fmllr_train_clean_100.1.ark:49705983
8975-270782-0077 /scratch/ravanelm/exp/librispeech/s5/fmllr/train_clean_100/data/feats_fmllr_train_clean_100.10.ark:541200161
8609-262281-0016 /scratch/ravanelm/exp/librispeech/s5/fmllr/train_clean_100/data/feats_fmllr_train_clean_100.10.ark:292759923
1841-159771-0013 /scratch/ravanelm/exp/librispeech/s5/fmllr/train_clean_100/data/feats_fmllr_train_clean_100.2.ark:99140750
103-1240-0007 /scratch/ravanelm/exp/librispeech/s5/fmllr/train_clean_100/data/feats_fmllr_train_clean_100.1.ark:1533657
7067-76047-0049 /scratch/ravanelm/exp/librispeech/s5/fmllr/train_clean_100/data/feats_fmllr_train_clean_100.8.ark:454009741
5322-7678-0030 /scratch/ravanelm/exp/librispeech/s5/fmllr/train_clean_100/data/feats_fmllr_train_clean_100.6.ark:552696860
1183-133255-0010 /scratch/ravanelm/exp/librispeech/s5/fmllr/train_clean_100/data/feats_fmllr_train_clean_100.1.ark:196132767
8088-284756-0014 /scratch/ravanelm/exp/librispeech/s5/fmllr/train_clean_100/data/feats_fmllr_train_clean_100.9.ark:458202463
8088-284756-0022 /scratch/ravanelm/exp/librispeech/s5/fmllr/train_clean_100/data/feats_fmllr_train_clean_100.9.ark:459866879
5022-29405-0002 /scratch/ravanelm/exp/librispeech/s5/fmllr/train_clean_100/data/feats_fmllr_train_clean_100.6.ark:428917532
1841-150351-0018 /scratch/ravanelm/exp/librispeech/s5/fmllr/train_clean_100/data/feats_fmllr_train_clean_100.2.ark:93363854
911-128684-0077 /scratch/ravanelm/exp/librispeech/s5/fmllr/train_clean_100/data/feats_fmllr_train_clean_100.10.ark:588634213
8063-274115-0026 /scratch/ravanelm/exp/librispeech/s5/fmllr/train_clean_100/data/feats_fmllr_train_clean_100.9.ark:442876159
3699-19402-0019 /scratch/ravanelm/exp/librispeech/s5/fmllr/train_clean_100/data/feats_fmllr_train_clean_100.4.ark:542205460
2989-138035-0003 /scratch/ravanelm/exp/librispeech/s5/fmllr/train_clean_100/data/feats_fmllr_train_clean_100.4.ark:27001453
1034-121119-0066 /scratch/ravanelm/exp/librispeech/s5/fmllr/train_clean_100/data/feats_fmllr_train_clean_100.1.ark:34394847
1069-133709-0042 /scratch/ravanelm/exp/librispeech/s5/fmllr/train_clean_100/data/feats_fmllr_train_clean_100.1.ark:75467263
7367-86737-0114 /scratch/ravanelm/exp/librispeech/s5/fmllr/train_clean_100/data/feats_fmllr_train_clean_100.9.ark:133516910
7264-92314-0029 /scratch/ravanelm/exp/librispeech/s5/fmllr/train_clean_100/data/feats_fmllr_train_clean_100.9.ark:23572288
8014-112586-0012 /scratch/ravanelm/exp/librispeech/s5/fmllr/train_clean_100/data/feats_fmllr_train_clean_100.9.ark:396026655
1963-147036-0033 /scratch/ravanelm/exp/librispeech/s5/fmllr/train_clean_100/data/feats_fmllr_train_clean_100.2.ark:257853751
3486-166424-0002 /scratch/ravanelm/exp/librispeech/s5/fmllr/train_clean_100/data/feats_fmllr_train_clean_100.4.ark:434446737
6880-216547-0095 /scratch/ravanelm/exp/librispeech/s5/fmllr/train_clean_100/data/feats_fmllr_train_clean_100.8.ark:374224124
328-129766-0020 /scratch/ravanelm/exp/librispeech/s5/fmllr/train_clean_100/data/feats_fmllr_train_clean_100.4.ark:328577944
198-129977-0006 /scratch/ravanelm/exp/librispeech/s5/fmllr/train_clean_100/data/feats_fmllr_train_clean_100.2.ark:293262688
254-27760-0018 /scratch/ravanelm/exp/librispeech/s5/fmllr/train_clean_100/data/feats_fmllr_train_clean_100.3.ark:290520670
311-124404-0032 /scratch/ravanelm/exp/librispeech/s5/fmllr/train_clean_100/data/feats_fmllr_train_clean_100.4.ark:93030623
8770-295465-0033 /scratch/ravanelm/exp/librispeech/s5/fmllr/train_clean_100/data/feats_fmllr_train_clean_100.10.ark:428931803
307-127535-0038 /scratch/ravanelm/exp/librispeech/s5/fmllr/train_clean_100/data/feats_fmllr_train_clean_100.4.ark:69359605
5678-43302-0001 /scratch/ravanelm/exp/librispeech/s5/fmllr/train_clean_100/data/feats_fmllr_train_clean_100.7.ark:161287904
2416-152139-0064 /scratch/ravanelm/exp/librispeech/s5/fmllr/train_clean_100/data/feats_fmllr_train_clean_100.3.ark:147491101
7059-77897-0002 /scratch/ravanelm/exp/librispeech/s5/fmllr/train_clean_100/data/feats_fmllr_train_clean_100.8.ark:419276043
39-121916-0017 /scratch/ravanelm/exp/librispeech/s5/fmllr/train_clean_100/data/feats_fmllr_train_clean_100.5.ark:137930570
2764-36619-0037 /scratch/ravanelm/exp/librispeech/s5/fmllr/train_clean_100/data/feats_fmllr_train_clean_100.3.ark:384901384
3982-178459-0027 /scratch/ravanelm/exp/librispeech/s5/fmllr/train_clean_100/data/feats_fmllr_train_clean_100.5.ark:167734279
1963-147036-0035 /scratch/ravanelm/exp/librispeech/s5/fmllr/train_clean_100/data/feats_fmllr_train_clean_100.2.ark:258337015
3436-172162-0036 /scratch/ravanelm/exp/librispeech/s5/fmllr/train_clean_100/data/feats_fmllr_train_clean_100.4.ark:393405201
1081-125237-0040 /scratch/ravanelm/exp/librispeech/s5/fmllr/train_clean_100/data/feats_fmllr_train_clean_100.1.ark:85294655
2289-152257-0001 /scratch/ravanelm/exp/librispeech/s5/fmllr/train_clean_100/data/feats_fmllr_train_clean_100.3.ark:27733193
7794-295947-0016 /scratch/ravanelm/exp/librispeech/s5/fmllr/train_clean_100/data/feats_fmllr_train_clean_100.9.ark:304340205
6147-34605-0006 /scratch/ravanelm/exp/librispeech/s5/fmllr/train_clean_100/data/feats_fmllr_train_clean_100.7.ark:501413530
1098-133695-0036 /scratch/ravanelm/exp/librispeech/s5/fmllr/train_clean_100/data/feats_fmllr_train_clean_100.1.ark:133219391
5322-7678-0013 /scratch/ravanelm/exp/librispeech/s5/fmllr/train_clean_100/data/feats_fmllr_train_clean_100.6.ark:549120990
3983-5331-0031 /scratch/ravanelm/exp/librispeech/s5/fmllr/train_clean_100/data/feats_fmllr_train_clean_100.5.ark:193616679
3374-298026-0041 /scratch/ravanelm/exp/librispeech/s5/fmllr/train_clean_100/data/feats_fmllr_train_clean_100.4.ark:376405361
1355-39947-0047 /scratch/ravanelm/exp/librispeech/s5/fmllr/train_clean_100/data/feats_fmllr_train_clean_100.1.ark:330711077
8014-112602-0001 /scratch/ravanelm/exp/librispeech/s5/fmllr/train_clean_100/data/feats_fmllr_train_clean_100.9.ark:397986015
8312-279790-0022 /scratch/ravanelm/exp/librispeech/s5/fmllr/train_clean_100/data/feats_fmllr_train_clean_100.10.ark:111610039
298-126790-0004 /scratch/ravanelm/exp/librispeech/s5/fmllr/train_clean_100/data/feats_fmllr_train_clean_100.3.ark:570610620
83-11691-0006 /scratch/ravanelm/exp/librispeech/s5/fmllr/train_clean_100/data/feats_fmllr_train_clean_100.10.ark:59654492
5652-19215-0020 /scratch/ravanelm/exp/librispeech/s5/fmllr/train_clean_100/data/feats_fmllr_train_clean_100.7.ark:134323595
226-131532-0003 /scratch/ravanelm/exp/librispeech/s5/fmllr/train_clean_100/data/feats_fmllr_train_clean_100.3.ark:696589
6880-216547-0079 /scratch/ravanelm/exp/librispeech/s5/fmllr/train_clean_100/data/feats_fmllr_train_clean_100.8.ark:370681852
3807-4955-0027 /scratch/ravanelm/exp/librispeech/s5/fmllr/train_clean_100/data/feats_fmllr_train_clean_100.5.ark:42709138
2989-138035-0059 /scratch/ravanelm/exp/librispeech/s5/fmllr/train_clean_100/data/feats_fmllr_train_clean_100.4.ark:35699085
3240-131231-0016 /scratch/ravanelm/exp/librispeech/s5/fmllr/train_clean_100/data/feats_fmllr_train_clean_100.4.ark:255192213
7859-102519-0012 /scratch/ravanelm/exp/librispeech/s5/fmllr/train_clean_100/data/feats_fmllr_train_clean_100.9.ark:382030655
911-128684-0060 /scratch/ravanelm/exp/librispeech/s5/fmllr/train_clean_100/data/feats_fmllr_train_clean_100.10.ark:585209686
1034-121119-0080 /scratch/ravanelm/exp/librispeech/s5/fmllr/train_clean_100/data/feats_fmllr_train_clean_100.1.ark:36609695
8747-293952-0088 /scratch/ravanelm/exp/librispeech/s5/fmllr/train_clean_100/data/feats_fmllr_train_clean_100.10.ark:402187963
1235-135884-0029 /scratch/ravanelm/exp/librispeech/s5/fmllr/train_clean_100/data/feats_fmllr_train_clean_100.1.ark:216851807
2196-170379-0008 /scratch/ravanelm/exp/librispeech/s5/fmllr/train_clean_100/data/feats_fmllr_train_clean_100.2.ark:544362675
4406-16883-0016 /scratch/ravanelm/exp/librispeech/s5/fmllr/train_clean_100/data/feats_fmllr_train_clean_100.6.ark:63734049
909-131041-0027 /scratch/ravanelm/exp/librispeech/s5/fmllr/train_clean_100/data/feats_fmllr_train_clean_100.10.ark:554518533
6078-54007-0001 /scratch/ravanelm/exp/librispeech/s5/fmllr/train_clean_100/data/feats_fmllr_train_clean_100.7.ark:452121052
5339-14134-0032 /scratch/ravanelm/exp/librispeech/s5/fmllr/train_clean_100/data/feats_fmllr_train_clean_100.6.ark:586508350
2002-139469-0037 /scratch/ravanelm/exp/librispeech/s5/fmllr/train_clean_100/data/feats_fmllr_train_clean_100.2.ark:350347990
6019-3185-0071 /scratch/ravanelm/exp/librispeech/s5/fmllr/train_clean_100/data/feats_fmllr_train_clean_100.7.ark:419410581
32-21634-0006 /scratch/ravanelm/exp/librispeech/s5/fmllr/train_clean_100/data/feats_fmllr_train_clean_100.4.ark:166985203
6529-62554-0014 /scratch/ravanelm/exp/librispeech/s5/fmllr/train_clean_100/data/feats_fmllr_train_clean_100.8.ark:195846277
5688-41232-0015 /scratch/ravanelm/exp/librispeech/s5/fmllr/train_clean_100/data/feats_fmllr_train_clean_100.7.ark:190663124
226-122538-0023 /scratch/ravanelm/exp/librispeech/s5/fmllr/train_clean_100/data/feats_fmllr_train_clean_100.2.ark:564754267
5456-24741-0016 /scratch/ravanelm/exp/librispeech/s5/fmllr/train_clean_100/data/feats_fmllr_train_clean_100.7.ark:50301583
7517-100437-0009 /scratch/ravanelm/exp/librispeech/s5/fmllr/train_clean_100/data/feats_fmllr_train_clean_100.9.ark:239569005
198-129977-0005 /scratch/ravanelm/exp/librispeech/s5/fmllr/train_clean_100/data/feats_fmllr_train_clean_100.2.ark:293148417
4051-11217-0026 /scratch/ravanelm/exp/librispeech/s5/fmllr/train_clean_100/data/feats_fmllr_train_clean_100.5.ark:340383101
4018-103416-0029 /scratch/ravanelm/exp/librispeech/s5/fmllr/train_clean_100/data/feats_fmllr_train_clean_100.5.ark:264676242
3214-167607-0011 /scratch/ravanelm/exp/librispeech/s5/fmllr/train_clean_100/data/feats_fmllr_train_clean_100.4.ark:198151136
6563-285357-0004 /scratch/ravanelm/exp/librispeech/s5/fmllr/train_clean_100/data/feats_fmllr_train_clean_100.8.ark:238189892
118-121721-0005 /scratch/ravanelm/exp/librispeech/s5/fmllr/train_clean_100/data/feats_fmllr_train_clean_100.1.ark:168683449
1737-148989-0011 /scratch/ravanelm/exp/librispeech/s5/fmllr/train_clean_100/data/feats_fmllr_train_clean_100.2.ark:62835822
8226-274369-0047 /scratch/ravanelm/exp/librispeech/s5/fmllr/train_clean_100/data/feats_fmllr_train_clean_100.10.ark:19594833
7302-86814-0005 /scratch/ravanelm/exp/librispeech/s5/fmllr/train_clean_100/data/feats_fmllr_train_clean_100.9.ark:82190780
8063-274112-0010 /scratch/ravanelm/exp/librispeech/s5/fmllr/train_clean_100/data/feats_fmllr_train_clean_100.9.ark:433096575
481-123720-0084 /scratch/ravanelm/exp/librispeech/s5/fmllr/train_clean_100/data/feats_fmllr_train_clean_100.6.ark:313199365
6081-41997-0009 /scratch/ravanelm/exp/librispeech/s5/fmllr/train_clean_100/data/feats_fmllr_train_clean_100.7.ark:477629872
1578-140049-0018 /scratch/ravanelm/exp/librispeech/s5/fmllr/train_clean_100/data/feats_fmllr_train_clean_100.1.ark:490726046
3374-298032-0041 /scratch/ravanelm/exp/librispeech/s5/fmllr/train_clean_100/data/feats_fmllr_train_clean_100.4.ark:385344465
254-127705-0027 /scratch/ravanelm/exp/librispeech/s5/fmllr/train_clean_100/data/feats_fmllr_train_clean_100.3.ark:279681033
4195-17507-0048 /scratch/ravanelm/exp/librispeech/s5/fmllr/train_clean_100/data/feats_fmllr_train_clean_100.5.ark:455927521
4830-25904-0010 /scratch/ravanelm/exp/librispeech/s5/fmllr/train_clean_100/data/feats_fmllr_train_clean_100.6.ark:351589665
1898-145715-0007 /scratch/ravanelm/exp/librispeech/s5/fmllr/train_clean_100/data/feats_fmllr_train_clean_100.2.ark:142638766
2843-152918-0045 /scratch/ravanelm/exp/librispeech/s5/fmllr/train_clean_100/data/feats_fmllr_train_clean_100.3.ark:443391594
2002-139469-0089 /scratch/ravanelm/exp/librispeech/s5/fmllr/train_clean_100/data/feats_fmllr_train_clean_100.2.ark:360717974
4088-158077-0026 /scratch/ravanelm/exp/librispeech/s5/fmllr/train_clean_100/data/feats_fmllr_train_clean_100.5.ark:360081103
1502-122619-0033 /scratch/ravanelm/exp/librispeech/s5/fmllr/train_clean_100/data/feats_fmllr_train_clean_100.1.ark:448760638
4813-248638-0024 /scratch/ravanelm/exp/librispeech/s5/fmllr/train_clean_100/data/feats_fmllr_train_clean_100.6.ark:318497476
911-128684-0008 /scratch/ravanelm/exp/librispeech/s5/fmllr/train_clean_100/data/feats_fmllr_train_clean_100.10.ark:574737354
4788-294466-0000 /scratch/ravanelm/exp/librispeech/s5/fmllr/train_clean_100/data/feats_fmllr_train_clean_100.6.ark:265579151
6529-62556-0013 /scratch/ravanelm/exp/librispeech/s5/fmllr/train_clean_100/data/feats_fmllr_train_clean_100.8.ark:208562733
1447-130551-0011 /scratch/ravanelm/exp/librispeech/s5/fmllr/train_clean_100/data/feats_fmllr_train_clean_100.1.ark:369904339
7511-102420-0028 /scratch/ravanelm/exp/librispeech/s5/fmllr/train_clean_100/data/feats_fmllr_train_clean_100.9.ark:225569325
1624-142933-0007 /scratch/ravanelm/exp/librispeech/s5/fmllr/train_clean_100/data/feats_fmllr_train_clean_100.1.ark:530100700
1970-10594-0044 /scratch/ravanelm/exp/librispeech/s5/fmllr/train_clean_100/data/feats_fmllr_train_clean_100.2.ark:267114730
8088-284756-0068 /scratch/ravanelm/exp/librispeech/s5/fmllr/train_clean_100/data/feats_fmllr_train_clean_100.9.ark:469725471
5393-19219-0053 /scratch/ravanelm/exp/librispeech/s5/fmllr/train_clean_100/data/feats_fmllr_train_clean_100.7.ark:46441737
4051-10927-0027 /scratch/ravanelm/exp/librispeech/s5/fmllr/train_clean_100/data/feats_fmllr_train_clean_100.5.ark:336220664
6019-3185-0072 /scratch/ravanelm/exp/librispeech/s5/fmllr/train_clean_100/data/feats_fmllr_train_clean_100.7.ark:419585811
8975-270782-0051 /scratch/ravanelm/exp/librispeech/s5/fmllr/train_clean_100/data/feats_fmllr_train_clean_100.10.ark:535290849
8797-294123-0008 /scratch/ravanelm/exp/librispeech/s5/fmllr/train_clean_100/data/feats_fmllr_train_clean_100.10.ark:432422875
118-47824-0067 /scratch/ravanelm/exp/librispeech/s5/fmllr/train_clean_100/data/feats_fmllr_train_clean_100.1.ark:188381573
7800-283478-0017 /scratch/ravanelm/exp/librispeech/s5/fmllr/train_clean_100/data/feats_fmllr_train_clean_100.9.ark:352557055
4340-15220-0023 /scratch/ravanelm/exp/librispeech/s5/fmllr/train_clean_100/data/feats_fmllr_train_clean_100.5.ark:566435514
328-129766-0025 /scratch/ravanelm/exp/librispeech/s5/fmllr/train_clean_100/data/feats_fmllr_train_clean_100.4.ark:329628979
669-129061-0000 /scratch/ravanelm/exp/librispeech/s5/fmllr/train_clean_100/data/feats_fmllr_train_clean_100.8.ark:257952340
5393-19218-0020 /scratch/ravanelm/exp/librispeech/s5/fmllr/train_clean_100/data/feats_fmllr_train_clean_100.7.ark:27701192
8629-261139-0041 /scratch/ravanelm/exp/librispeech/s5/fmllr/train_clean_100/data/feats_fmllr_train_clean_100.10.ark:321568723
5808-54425-0053 /scratch/ravanelm/exp/librispeech/s5/fmllr/train_clean_100/data/feats_fmllr_train_clean_100.7.ark:319220095
6563-285357-0009 /scratch/ravanelm/exp/librispeech/s5/fmllr/train_clean_100/data/feats_fmllr_train_clean_100.8.ark:239390852
696-93314-0064 /scratch/ravanelm/exp/librispeech/s5/fmllr/train_clean_100/data/feats_fmllr_train_clean_100.8.ark:418228820
6367-65536-0043 /scratch/ravanelm/exp/librispeech/s5/fmllr/train_clean_100/data/feats_fmllr_train_clean_100.8.ark:57597444
2952-408-0011 /scratch/ravanelm/exp/librispeech/s5/fmllr/train_clean_100/data/feats_fmllr_train_clean_100.3.ark:553083854
5703-47212-0039 /scratch/ravanelm/exp/librispeech/s5/fmllr/train_clean_100/data/feats_fmllr_train_clean_100.7.ark:224195315
5808-48608-0017 /scratch/ravanelm/exp/librispeech/s5/fmllr/train_clean_100/data/feats_fmllr_train_clean_100.7.ark:299927008
3983-5371-0032 /scratch/ravanelm/exp/librispeech/s5/fmllr/train_clean_100/data/feats_fmllr_train_clean_100.5.ark:205112249
8465-246940-0010 /scratch/ravanelm/exp/librispeech/s5/fmllr/train_clean_100/data/feats_fmllr_train_clean_100.10.ark:224646675
5390-30102-0001 /scratch/ravanelm/exp/librispeech/s5/fmllr/train_clean_100/data/feats_fmllr_train_clean_100.7.ark:17176891
8088-284756-0086 /scratch/ravanelm/exp/librispeech/s5/fmllr/train_clean_100/data/feats_fmllr_train_clean_100.9.ark:472931487
4481-17499-0008 /scratch/ravanelm/exp/librispeech/s5/fmllr/train_clean_100/data/feats_fmllr_train_clean_100.6.ark:167834081
8770-295463-0006 /scratch/ravanelm/exp/librispeech/s5/fmllr/train_clean_100/data/feats_fmllr_train_clean_100.10.ark:417061883
5390-24512-0049 /scratch/ravanelm/exp/librispeech/s5/fmllr/train_clean_100/data/feats_fmllr_train_clean_100.7.ark:9898655
3259-158083-0074 /scratch/ravanelm/exp/librispeech/s5/fmllr/train_clean_100/data/feats_fmllr_train_clean_100.4.ark:314361901
229-130880-0001 /scratch/ravanelm/exp/librispeech/s5/fmllr/train_clean_100/data/feats_fmllr_train_clean_100.3.ark:40372839
5322-7679-0035 /scratch/ravanelm/exp/librispeech/s5/fmllr/train_clean_100/data/feats_fmllr_train_clean_100.6.ark:562558050
7517-100442-0016 /scratch/ravanelm/exp/librispeech/s5/fmllr/train_clean_100/data/feats_fmllr_train_clean_100.9.ark:249474669
4680-16026-0012 /scratch/ravanelm/exp/librispeech/s5/fmllr/train_clean_100/data/feats_fmllr_train_clean_100.6.ark:243394109
3436-172162-0013 /scratch/ravanelm/exp/librispeech/s5/fmllr/train_clean_100/data/feats_fmllr_train_clean_100.4.ark:388581265
5703-47212-0029 /scratch/ravanelm/exp/librispeech/s5/fmllr/train_clean_100/data/feats_fmllr_train_clean_100.7.ark:222505085
5192-19397-0064 /scratch/ravanelm/exp/librispeech/s5/fmllr/train_clean_100/data/feats_fmllr_train_clean_100.6.ark:541826479
909-131044-0000 /scratch/ravanelm/exp/librispeech/s5/fmllr/train_clean_100/data/feats_fmllr_train_clean_100.10.ark:555631968
8609-283227-0040 /scratch/ravanelm/exp/librispeech/s5/fmllr/train_clean_100/data/feats_fmllr_train_clean_100.10.ark:306634899
7148-82991-0002 /scratch/ravanelm/exp/librispeech/s5/fmllr/train_clean_100/data/feats_fmllr_train_clean_100.8.ark:531882668
198-126831-0007 /scratch/ravanelm/exp/librispeech/s5/fmllr/train_clean_100/data/feats_fmllr_train_clean_100.2.ark:283994005
8088-284756-0009 /scratch/ravanelm/exp/librispeech/s5/fmllr/train_clean_100/data/feats_fmllr_train_clean_100.9.ark:457181983
2196-174172-0032 /scratch/ravanelm/exp/librispeech/s5/fmllr/train_clean_100/data/feats_fmllr_train_clean_100.2.ark:557198323
8838-298545-0042 /scratch/ravanelm/exp/librispeech/s5/fmllr/train_clean_100/data/feats_fmllr_train_clean_100.10.ark:462359931
6181-216552-0013 /scratch/ravanelm/exp/librispeech/s5/fmllr/train_clean_100/data/feats_fmllr_train_clean_100.7.ark:526698188
669-129061-0074 /scratch/ravanelm/exp/librispeech/s5/fmllr/train_clean_100/data/feats_fmllr_train_clean_100.8.ark:273452234
198-129977-0004 /scratch/ravanelm/exp/librispeech/s5/fmllr/train_clean_100/data/feats_fmllr_train_clean_100.2.ark:293110626
441-130108-0001 /scratch/ravanelm/exp/librispeech/s5/fmllr/train_clean_100/data/feats_fmllr_train_clean_100.6.ark:88029258
3699-175950-0005 /scratch/ravanelm/exp/librispeech/s5/fmllr/train_clean_100/data/feats_fmllr_train_clean_100.4.ark:528270083
8051-118101-0029 /scratch/ravanelm/exp/librispeech/s5/fmllr/train_clean_100/data/feats_fmllr_train_clean_100.9.ark:413262431
8425-246962-0015 /scratch/ravanelm/exp/librispeech/s5/fmllr/train_clean_100/data/feats_fmllr_train_clean_100.10.ark:201552467
4340-15220-0015 /scratch/ravanelm/exp/librispeech/s5/fmllr/train_clean_100/data/feats_fmllr_train_clean_100.5.ark:564808706
8797-294123-0066 /scratch/ravanelm/exp/librispeech/s5/fmllr/train_clean_100/data/feats_fmllr_train_clean_100.10.ark:444519611
7278-104730-0041 /scratch/ravanelm/exp/librispeech/s5/fmllr/train_clean_100/data/feats_fmllr_train_clean_100.9.ark:40514640
831-130739-0013 /scratch/ravanelm/exp/librispeech/s5/fmllr/train_clean_100/data/feats_fmllr_train_clean_100.10.ark:84653413
839-130898-0048 /scratch/ravanelm/exp/librispeech/s5/fmllr/train_clean_100/data/feats_fmllr_train_clean_100.10.ark:163657510
8098-278278-0002 /scratch/ravanelm/exp/librispeech/s5/fmllr/train_clean_100/data/feats_fmllr_train_clean_100.9.ark:519774303
2436-2477-0012 /scratch/ravanelm/exp/librispeech/s5/fmllr/train_clean_100/data/feats_fmllr_train_clean_100.3.ark:160816337
60-121082-0027 /scratch/ravanelm/exp/librispeech/s5/fmllr/train_clean_100/data/feats_fmllr_train_clean_100.7.ark:372717543
3947-13260-0024 /scratch/ravanelm/exp/librispeech/s5/fmllr/train_clean_100/data/feats_fmllr_train_clean_100.5.ark:145957685
839-130898-0044 /scratch/ravanelm/exp/librispeech/s5/fmllr/train_clean_100/data/feats_fmllr_train_clean_100.10.ark:162934346
6209-34600-0021 /scratch/ravanelm/exp/librispeech/s5/fmllr/train_clean_100/data/feats_fmllr_train_clean_100.7.ark:560630479
5688-41232-0068 /scratch/ravanelm/exp/librispeech/s5/fmllr/train_clean_100/data/feats_fmllr_train_clean_100.7.ark:201146847
403-216-0022 /scratch/ravanelm/exp/librispeech/s5/fmllr/train_clean_100/data/feats_fmllr_train_clean_100.5.ark:305236641
2764-36619-0032 /scratch/ravanelm/exp/librispeech/s5/fmllr/train_clean_100/data/feats_fmllr_train_clean_100.3.ark:383718189
6529-62556-0031 /scratch/ravanelm/exp/librispeech/s5/fmllr/train_clean_100/data/feats_fmllr_train_clean_100.8.ark:212633211
446-123502-0046 /scratch/ravanelm/exp/librispeech/s5/fmllr/train_clean_100/data/feats_fmllr_train_clean_100.6.ark:154428830
40-121026-0030 /scratch/ravanelm/exp/librispeech/s5/fmllr/train_clean_100/data/feats_fmllr_train_clean_100.5.ark:215991719
7635-105661-0025 /scratch/ravanelm/exp/librispeech/s5/fmllr/train_clean_100/data/feats_fmllr_train_clean_100.9.ark:273086061
911-130578-0006 /scratch/ravanelm/exp/librispeech/s5/fmllr/train_clean_100/data/feats_fmllr_train_clean_100.10.ark:593083184
5561-41616-0023 /scratch/ravanelm/exp/librispeech/s5/fmllr/train_clean_100/data/feats_fmllr_train_clean_100.7.ark:127764239
3699-175950-0015 /scratch/ravanelm/exp/librispeech/s5/fmllr/train_clean_100/data/feats_fmllr_train_clean_100.4.ark:530295843
6529-62554-0045 /scratch/ravanelm/exp/librispeech/s5/fmllr/train_clean_100/data/feats_fmllr_train_clean_100.8.ark:202782438
307-127535-0003 /scratch/ravanelm/exp/librispeech/s5/fmllr/train_clean_100/data/feats_fmllr_train_clean_100.4.ark:63103640
5339-14134-0056 /scratch/ravanelm/exp/librispeech/s5/fmllr/train_clean_100/data/feats_fmllr_train_clean_100.6.ark:590484934
4195-186237-0032 /scratch/ravanelm/exp/librispeech/s5/fmllr/train_clean_100/data/feats_fmllr_train_clean_100.5.ark:467049985
8051-295385-0014 /scratch/ravanelm/exp/librispeech/s5/fmllr/train_clean_100/data/feats_fmllr_train_clean_100.9.ark:426124095
5678-43302-0038 /scratch/ravanelm/exp/librispeech/s5/fmllr/train_clean_100/data/feats_fmllr_train_clean_100.7.ark:169716411
5163-18515-0024 /scratch/ravanelm/exp/librispeech/s5/fmllr/train_clean_100/data/feats_fmllr_train_clean_100.6.ark:505174788
4406-16882-0059 /scratch/ravanelm/exp/librispeech/s5/fmllr/train_clean_100/data/feats_fmllr_train_clean_100.6.ark:58915163
8419-286676-0011 /scratch/ravanelm/exp/librispeech/s5/fmllr/train_clean_100/data/feats_fmllr_train_clean_100.10.ark:183528467
7859-102521-0016 /scratch/ravanelm/exp/librispeech/s5/fmllr/train_clean_100/data/feats_fmllr_train_clean_100.9.ark:393084927
7312-92432-0015 /scratch/ravanelm/exp/librispeech/s5/fmllr/train_clean_100/data/feats_fmllr_train_clean_100.9.ark:107990315
5750-100289-0025 /scratch/ravanelm/exp/librispeech/s5/fmllr/train_clean_100/data/feats_fmllr_train_clean_100.7.ark:232590630
198-209-0012 /scratch/ravanelm/exp/librispeech/s5/fmllr/train_clean_100/data/feats_fmllr_train_clean_100.2.ark:301165298
4014-186175-0002 /scratch/ravanelm/exp/librispeech/s5/fmllr/train_clean_100/data/feats_fmllr_train_clean_100.5.ark:234614418
481-123720-0037 /scratch/ravanelm/exp/librispeech/s5/fmllr/train_clean_100/data/feats_fmllr_train_clean_100.6.ark:304569108
8063-274117-0024 /scratch/ravanelm/exp/librispeech/s5/fmllr/train_clean_100/data/feats_fmllr_train_clean_100.9.ark:453651871
8238-274553-0034 /scratch/ravanelm/exp/librispeech/s5/fmllr/train_clean_100/data/feats_fmllr_train_clean_100.10.ark:41126673
5750-35690-0015 /scratch/ravanelm/exp/librispeech/s5/fmllr/train_clean_100/data/feats_fmllr_train_clean_100.7.ark:248069942
7859-102519-0017 /scratch/ravanelm/exp/librispeech/s5/fmllr/train_clean_100/data/feats_fmllr_train_clean_100.9.ark:382847295
4018-103416-0006 /scratch/ravanelm/exp/librispeech/s5/fmllr/train_clean_100/data/feats_fmllr_train_clean_100.5.ark:259868626
6836-76549-0022 /scratch/ravanelm/exp/librispeech/s5/fmllr/train_clean_100/data/feats_fmllr_train_clean_100.8.ark:327830570
6437-66173-0000 /scratch/ravanelm/exp/librispeech/s5/fmllr/train_clean_100/data/feats_fmllr_train_clean_100.8.ark:130377388
2514-149482-0062 /scratch/ravanelm/exp/librispeech/s5/fmllr/train_clean_100/data/feats_fmllr_train_clean_100.3.ark:235930161
6385-34669-0022 /scratch/ravanelm/exp/librispeech/s5/fmllr/train_clean_100/data/feats_fmllr_train_clean_100.8.ark:93829860
6385-34655-0011 /scratch/ravanelm/exp/librispeech/s5/fmllr/train_clean_100/data/feats_fmllr_train_clean_100.8.ark:83669203
2182-181183-0000 /scratch/ravanelm/exp/librispeech/s5/fmllr/train_clean_100/data/feats_fmllr_train_clean_100.2.ark:528476435
3879-174923-0036 /scratch/ravanelm/exp/librispeech/s5/fmllr/train_clean_100/data/feats_fmllr_train_clean_100.5.ark:109146788
1334-135589-0049 /scratch/ravanelm/exp/librispeech/s5/fmllr/train_clean_100/data/feats_fmllr_train_clean_100.1.ark:308215445
2893-139310-0014 /scratch/ravanelm/exp/librispeech/s5/fmllr/train_clean_100/data/feats_fmllr_train_clean_100.3.ark:479680980
481-123720-0010 /scratch/ravanelm/exp/librispeech/s5/fmllr/train_clean_100/data/feats_fmllr_train_clean_100.6.ark:299143471
3723-171631-0027 /scratch/ravanelm/exp/librispeech/s5/fmllr/train_clean_100/data/feats_fmllr_train_clean_100.4.ark:569197576
2384-152900-0035 /scratch/ravanelm/exp/librispeech/s5/fmllr/train_clean_100/data/feats_fmllr_train_clean_100.3.ark:89960093
1098-133695-0083 /scratch/ravanelm/exp/librispeech/s5/fmllr/train_clean_100/data/feats_fmllr_train_clean_100.1.ark:142124575
625-132112-0034 /scratch/ravanelm/exp/librispeech/s5/fmllr/train_clean_100/data/feats_fmllr_train_clean_100.8.ark:7568590
8419-293473-0010 /scratch/ravanelm/exp/librispeech/s5/fmllr/train_clean_100/data/feats_fmllr_train_clean_100.10.ark:195738195
1334-135589-0050 /scratch/ravanelm/exp/librispeech/s5/fmllr/train_clean_100/data/feats_fmllr_train_clean_100.1.ark:308474357
5703-47212-0005 /scratch/ravanelm/exp/librispeech/s5/fmllr/train_clean_100/data/feats_fmllr_train_clean_100.7.ark:217345141
7859-102518-0020 /scratch/ravanelm/exp/librispeech/s5/fmllr/train_clean_100/data/feats_fmllr_train_clean_100.9.ark:376832191
233-155990-0015 /scratch/ravanelm/exp/librispeech/s5/fmllr/train_clean_100/data/feats_fmllr_train_clean_100.3.ark:75456540
1363-139304-0032 /scratch/ravanelm/exp/librispeech/s5/fmllr/train_clean_100/data/feats_fmllr_train_clean_100.1.ark:359570067
1069-133709-0020 /scratch/ravanelm/exp/librispeech/s5/fmllr/train_clean_100/data/feats_fmllr_train_clean_100.1.ark:70525439
6181-216552-0098 /scratch/ravanelm/exp/librispeech/s5/fmllr/train_clean_100/data/feats_fmllr_train_clean_100.7.ark:544474348
1743-142914-0013 /scratch/ravanelm/exp/librispeech/s5/fmllr/train_clean_100/data/feats_fmllr_train_clean_100.2.ark:85369934
1926-147979-0012 /scratch/ravanelm/exp/librispeech/s5/fmllr/train_clean_100/data/feats_fmllr_train_clean_100.2.ark:195463043
4088-158077-0033 /scratch/ravanelm/exp/librispeech/s5/fmllr/train_clean_100/data/feats_fmllr_train_clean_100.5.ark:361187887
1743-142913-0007 /scratch/ravanelm/exp/librispeech/s5/fmllr/train_clean_100/data/feats_fmllr_train_clean_100.2.ark:77690510
1116-137572-0019 /scratch/ravanelm/exp/librispeech/s5/fmllr/train_clean_100/data/feats_fmllr_train_clean_100.1.ark:160077311
6000-55211-0007 /scratch/ravanelm/exp/librispeech/s5/fmllr/train_clean_100/data/feats_fmllr_train_clean_100.7.ark:387820021
1926-147979-0031 /scratch/ravanelm/exp/librispeech/s5/fmllr/train_clean_100/data/feats_fmllr_train_clean_100.2.ark:199496451
7859-102519-0039 /scratch/ravanelm/exp/librispeech/s5/fmllr/train_clean_100/data/feats_fmllr_train_clean_100.9.ark:386717759
26-495-0079 /scratch/ravanelm/exp/librispeech/s5/fmllr/train_clean_100/data/feats_fmllr_train_clean_100.3.ark:310330990
405-130894-0005 /scratch/ravanelm/exp/librispeech/s5/fmllr/train_clean_100/data/feats_fmllr_train_clean_100.5.ark:307890915
103-1241-0007 /scratch/ravanelm/exp/librispeech/s5/fmllr/train_clean_100/data/feats_fmllr_train_clean_100.1.ark:14567979
4898-20016-0028 /scratch/ravanelm/exp/librispeech/s5/fmllr/train_clean_100/data/feats_fmllr_train_clean_100.6.ark:410559728
909-131044-0032 /scratch/ravanelm/exp/librispeech/s5/fmllr/train_clean_100/data/feats_fmllr_train_clean_100.10.ark:562728000
3242-8112-0014 /scratch/ravanelm/exp/librispeech/s5/fmllr/train_clean_100/data/feats_fmllr_train_clean_100.4.ark:295189641
6064-56168-0000 /scratch/ravanelm/exp/librispeech/s5/fmllr/train_clean_100/data/feats_fmllr_train_clean_100.7.ark:444318207
19-227-0046 /scratch/ravanelm/exp/librispeech/s5/fmllr/train_clean_100/data/feats_fmllr_train_clean_100.2.ark:180089861
4137-11701-0027 /scratch/ravanelm/exp/librispeech/s5/fmllr/train_clean_100/data/feats_fmllr_train_clean_100.5.ark:406003988
5393-19218-0021 /scratch/ravanelm/exp/librispeech/s5/fmllr/train_clean_100/data/feats_fmllr_train_clean_100.7.ark:27908263
3526-176651-0000 /scratch/ravanelm/exp/librispeech/s5/fmllr/train_clean_100/data/feats_fmllr_train_clean_100.4.ark:465759665
2843-152918-0070 /scratch/ravanelm/exp/librispeech/s5/fmllr/train_clean_100/data/feats_fmllr_train_clean_100.3.ark:448734954
2817-142371-0039 /scratch/ravanelm/exp/librispeech/s5/fmllr/train_clean_100/data/feats_fmllr_train_clean_100.3.ark:393265508
625-132118-0014 /scratch/ravanelm/exp/librispeech/s5/fmllr/train_clean_100/data/feats_fmllr_train_clean_100.8.ark:15906919
5514-19192-0026 /scratch/ravanelm/exp/librispeech/s5/fmllr/train_clean_100/data/feats_fmllr_train_clean_100.7.ark:96286530
2989-138028-0049 /scratch/ravanelm/exp/librispeech/s5/fmllr/train_clean_100/data/feats_fmllr_train_clean_100.4.ark:22052173
3259-158083-0055 /scratch/ravanelm/exp/librispeech/s5/fmllr/train_clean_100/data/feats_fmllr_train_clean_100.4.ark:309998573
27-123349-0036 /scratch/ravanelm/exp/librispeech/s5/fmllr/train_clean_100/data/feats_fmllr_train_clean_100.3.ark:349127078
587-41619-0002 /scratch/ravanelm/exp/librispeech/s5/fmllr/train_clean_100/data/feats_fmllr_train_clean_100.7.ark:350123303
1867-154071-0033 /scratch/ravanelm/exp/librispeech/s5/fmllr/train_clean_100/data/feats_fmllr_train_clean_100.2.ark:126845166
2911-7601-0001 /scratch/ravanelm/exp/librispeech/s5/fmllr/train_clean_100/data/feats_fmllr_train_clean_100.3.ark:534837674
211-122442-0047 /scratch/ravanelm/exp/librispeech/s5/fmllr/train_clean_100/data/feats_fmllr_train_clean_100.2.ark:458264821
4018-103416-0016 /scratch/ravanelm/exp/librispeech/s5/fmllr/train_clean_100/data/feats_fmllr_train_clean_100.5.ark:261887346
3982-178459-0033 /scratch/ravanelm/exp/librispeech/s5/fmllr/train_clean_100/data/feats_fmllr_train_clean_100.5.ark:169145991
39-121915-0029 /scratch/ravanelm/exp/librispeech/s5/fmllr/train_clean_100/data/feats_fmllr_train_clean_100.5.ark:133220950
8051-119902-0021 /scratch/ravanelm/exp/librispeech/s5/fmllr/train_clean_100/data/feats_fmllr_train_clean_100.9.ark:419373151
7635-105409-0029 /scratch/ravanelm/exp/librispeech/s5/fmllr/train_clean_100/data/feats_fmllr_train_clean_100.9.ark:259968205
6064-300880-0004 /scratch/ravanelm/exp/librispeech/s5/fmllr/train_clean_100/data/feats_fmllr_train_clean_100.7.ark:428778821
4195-186238-0019 /scratch/ravanelm/exp/librispeech/s5/fmllr/train_clean_100/data/feats_fmllr_train_clean_100.5.ark:470836097
5463-39173-0013 /scratch/ravanelm/exp/librispeech/s5/fmllr/train_clean_100/data/feats_fmllr_train_clean_100.7.ark:69601922
1963-142393-0009 /scratch/ravanelm/exp/librispeech/s5/fmllr/train_clean_100/data/feats_fmllr_train_clean_100.2.ark:235853047
1246-124548-0046 /scratch/ravanelm/exp/librispeech/s5/fmllr/train_clean_100/data/feats_fmllr_train_clean_100.1.ark:234492799
233-134440-0005 /scratch/ravanelm/exp/librispeech/s5/fmllr/train_clean_100/data/feats_fmllr_train_clean_100.3.ark:59930277
8629-261139-0018 /scratch/ravanelm/exp/librispeech/s5/fmllr/train_clean_100/data/feats_fmllr_train_clean_100.10.ark:317056307
8580-287363-0000 /scratch/ravanelm/exp/librispeech/s5/fmllr/train_clean_100/data/feats_fmllr_train_clean_100.10.ark:270420947
831-130739-0042 /scratch/ravanelm/exp/librispeech/s5/fmllr/train_clean_100/data/feats_fmllr_train_clean_100.10.ark:90422152
7148-7763-0025 /scratch/ravanelm/exp/librispeech/s5/fmllr/train_clean_100/data/feats_fmllr_train_clean_100.8.ark:528965955
3235-28452-0031 /scratch/ravanelm/exp/librispeech/s5/fmllr/train_clean_100/data/feats_fmllr_train_clean_100.4.ark:252076087
8226-274371-0031 /scratch/ravanelm/exp/librispeech/s5/fmllr/train_clean_100/data/feats_fmllr_train_clean_100.10.ark:29769169
5339-14134-0075 /scratch/ravanelm/exp/librispeech/s5/fmllr/train_clean_100/data/feats_fmllr_train_clean_100.6.ark:593491123
4830-25904-0024 /scratch/ravanelm/exp/librispeech/s5/fmllr/train_clean_100/data/feats_fmllr_train_clean_100.6.ark:354557459
8747-293952-0078 /scratch/ravanelm/exp/librispeech/s5/fmllr/train_clean_100/data/feats_fmllr_train_clean_100.10.ark:399998363
4340-15220-0033 /scratch/ravanelm/exp/librispeech/s5/fmllr/train_clean_100/data/feats_fmllr_train_clean_100.5.ark:568757744
6818-76332-0038 /scratch/ravanelm/exp/librispeech/s5/fmllr/train_clean_100/data/feats_fmllr_train_clean_100.8.ark:301971846
7859-102519-0056 /scratch/ravanelm/exp/librispeech/s5/fmllr/train_clean_100/data/feats_fmllr_train_clean_100.9.ark:389851423
4088-158077-0045 /scratch/ravanelm/exp/librispeech/s5/fmllr/train_clean_100/data/feats_fmllr_train_clean_100.5.ark:363529071
4397-15668-0036 /scratch/ravanelm/exp/librispeech/s5/fmllr/train_clean_100/data/feats_fmllr_train_clean_100.6.ark:37570886
4640-19187-0022 /scratch/ravanelm/exp/librispeech/s5/fmllr/train_clean_100/data/feats_fmllr_train_clean_100.6.ark:221512371
5022-29411-0040 /scratch/ravanelm/exp/librispeech/s5/fmllr/train_clean_100/data/feats_fmllr_train_clean_100.6.ark:445781194
40-222-0064 /scratch/ravanelm/exp/librispeech/s5/fmllr/train_clean_100/data/feats_fmllr_train_clean_100.5.ark:233402054
5393-19218-0018 /scratch/ravanelm/exp/librispeech/s5/fmllr/train_clean_100/data/feats_fmllr_train_clean_100.7.ark:27377770
7635-105661-0030 /scratch/ravanelm/exp/librispeech/s5/fmllr/train_clean_100/data/feats_fmllr_train_clean_100.9.ark:274045261
1088-129236-0003 /scratch/ravanelm/exp/librispeech/s5/fmllr/train_clean_100/data/feats_fmllr_train_clean_100.1.ark:102726591
198-126831-0010 /scratch/ravanelm/exp/librispeech/s5/fmllr/train_clean_100/data/feats_fmllr_train_clean_100.2.ark:284685938
3879-174923-0064 /scratch/ravanelm/exp/librispeech/s5/fmllr/train_clean_100/data/feats_fmllr_train_clean_100.5.ark:115088164
7312-92432-0016 /scratch/ravanelm/exp/librispeech/s5/fmllr/train_clean_100/data/feats_fmllr_train_clean_100.9.ark:108245386
481-123720-0020 /scratch/ravanelm/exp/librispeech/s5/fmllr/train_clean_100/data/feats_fmllr_train_clean_100.6.ark:301292261
887-123291-0000 /scratch/ravanelm/exp/librispeech/s5/fmllr/train_clean_100/data/feats_fmllr_train_clean_100.10.ark:492181842
229-130880-0033 /scratch/ravanelm/exp/librispeech/s5/fmllr/train_clean_100/data/feats_fmllr_train_clean_100.3.ark:46272231
8747-293952-0053 /scratch/ravanelm/exp/librispeech/s5/fmllr/train_clean_100/data/feats_fmllr_train_clean_100.10.ark:395005243
3168-173565-0053 /scratch/ravanelm/exp/librispeech/s5/fmllr/train_clean_100/data/feats_fmllr_train_clean_100.4.ark:155444602
40-222-0045 /scratch/ravanelm/exp/librispeech/s5/fmllr/train_clean_100/data/feats_fmllr_train_clean_100.5.ark:229130021
6880-216547-0033 /scratch/ravanelm/exp/librispeech/s5/fmllr/train_clean_100/data/feats_fmllr_train_clean_100.8.ark:361138140
426-122822-0028 /scratch/ravanelm/exp/librispeech/s5/fmllr/train_clean_100/data/feats_fmllr_train_clean_100.5.ark:511698002
374-180298-0034 /scratch/ravanelm/exp/librispeech/s5/fmllr/train_clean_100/data/feats_fmllr_train_clean_100.5.ark:7567630
3486-166424-0021 /scratch/ravanelm/exp/librispeech/s5/fmllr/train_clean_100/data/feats_fmllr_train_clean_100.4.ark:438551345
2416-152139-0023 /scratch/ravanelm/exp/librispeech/s5/fmllr/train_clean_100/data/feats_fmllr_train_clean_100.3.ark:138590429
4160-14187-0016 /scratch/ravanelm/exp/librispeech/s5/fmllr/train_clean_100/data/feats_fmllr_train_clean_100.5.ark:445451710
6147-34605-0019 /scratch/ravanelm/exp/librispeech/s5/fmllr/train_clean_100/data/feats_fmllr_train_clean_100.7.ark:504085613
2514-149482-0016 /scratch/ravanelm/exp/librispeech/s5/fmllr/train_clean_100/data/feats_fmllr_train_clean_100.3.ark:225679089
8098-278278-0001 /scratch/ravanelm/exp/librispeech/s5/fmllr/train_clean_100/data/feats_fmllr_train_clean_100.9.ark:519552351
250-142276-0023 /scratch/ravanelm/exp/librispeech/s5/fmllr/train_clean_100/data/feats_fmllr_train_clean_100.3.ark:206647482
4397-15668-0037 /scratch/ravanelm/exp/librispeech/s5/fmllr/train_clean_100/data/feats_fmllr_train_clean_100.6.ark:37824197
7067-76047-0029 /scratch/ravanelm/exp/librispeech/s5/fmllr/train_clean_100/data/feats_fmllr_train_clean_100.8.ark:449396641
587-54108-0017 /scratch/ravanelm/exp/librispeech/s5/fmllr/train_clean_100/data/feats_fmllr_train_clean_100.7.ark:359353103
200-124140-0008 /scratch/ravanelm/exp/librispeech/s5/fmllr/train_clean_100/data/feats_fmllr_train_clean_100.2.ark:328102266
226-122538-0033 /scratch/ravanelm/exp/librispeech/s5/fmllr/train_clean_100/data/feats_fmllr_train_clean_100.2.ark:567113777
4406-16883-0052 /scratch/ravanelm/exp/librispeech/s5/fmllr/train_clean_100/data/feats_fmllr_train_clean_100.6.ark:70496765
2893-139322-0001 /scratch/ravanelm/exp/librispeech/s5/fmllr/train_clean_100/data/feats_fmllr_train_clean_100.3.ark:488410932
302-123504-0009 /scratch/ravanelm/exp/librispeech/s5/fmllr/train_clean_100/data/feats_fmllr_train_clean_100.4.ark:40289923
8063-274116-0004 /scratch/ravanelm/exp/librispeech/s5/fmllr/train_clean_100/data/feats_fmllr_train_clean_100.9.ark:445096639
6848-76049-0010 /scratch/ravanelm/exp/librispeech/s5/fmllr/train_clean_100/data/feats_fmllr_train_clean_100.8.ark:348799477
4898-20016-0022 /scratch/ravanelm/exp/librispeech/s5/fmllr/train_clean_100/data/feats_fmllr_train_clean_100.6.ark:409427542
1355-39947-0019 /scratch/ravanelm/exp/librispeech/s5/fmllr/train_clean_100/data/feats_fmllr_train_clean_100.1.ark:324848929
250-140277-0011 /scratch/ravanelm/exp/librispeech/s5/fmllr/train_clean_100/data/feats_fmllr_train_clean_100.3.ark:200225143
2518-154826-0003 /scratch/ravanelm/exp/librispeech/s5/fmllr/train_clean_100/data/feats_fmllr_train_clean_100.3.ark:259193713
5778-54535-0023 /scratch/ravanelm/exp/librispeech/s5/fmllr/train_clean_100/data/feats_fmllr_train_clean_100.7.ark:266460283
211-122442-0054 /scratch/ravanelm/exp/librispeech/s5/fmllr/train_clean_100/data/feats_fmllr_train_clean_100.2.ark:459042798
6880-216547-0072 /scratch/ravanelm/exp/librispeech/s5/fmllr/train_clean_100/data/feats_fmllr_train_clean_100.8.ark:369053308
7447-91187-0034 /scratch/ravanelm/exp/librispeech/s5/fmllr/train_clean_100/data/feats_fmllr_train_clean_100.9.ark:174796075
7800-283492-0035 /scratch/ravanelm/exp/librispeech/s5/fmllr/train_clean_100/data/feats_fmllr_train_clean_100.9.ark:363263871
1594-135914-0028 /scratch/ravanelm/exp/librispeech/s5/fmllr/train_clean_100/data/feats_fmllr_train_clean_100.1.ark:510431004
4195-186237-0029 /scratch/ravanelm/exp/librispeech/s5/fmllr/train_clean_100/data/feats_fmllr_train_clean_100.5.ark:466524929
7635-105661-0034 /scratch/ravanelm/exp/librispeech/s5/fmllr/train_clean_100/data/feats_fmllr_train_clean_100.9.ark:274858669
8747-293952-0066 /scratch/ravanelm/exp/librispeech/s5/fmllr/train_clean_100/data/feats_fmllr_train_clean_100.10.ark:397356379
8629-261139-0055 /scratch/ravanelm/exp/librispeech/s5/fmllr/train_clean_100/data/feats_fmllr_train_clean_100.10.ark:324457971
4195-17507-0006 /scratch/ravanelm/exp/librispeech/s5/fmllr/train_clean_100/data/feats_fmllr_train_clean_100.5.ark:449437099
2910-131096-0052 /scratch/ravanelm/exp/librispeech/s5/fmllr/train_clean_100/data/feats_fmllr_train_clean_100.3.ark:511930260
2092-145706-0037 /scratch/ravanelm/exp/librispeech/s5/fmllr/train_clean_100/data/feats_fmllr_train_clean_100.2.ark:423114775
8425-292520-0020 /scratch/ravanelm/exp/librispeech/s5/fmllr/train_clean_100/data/feats_fmllr_train_clean_100.10.ark:220192115
730-360-0006 /scratch/ravanelm/exp/librispeech/s5/fmllr/train_clean_100/data/feats_fmllr_train_clean_100.9.ark:74993210
7278-91083-0024 /scratch/ravanelm/exp/librispeech/s5/fmllr/train_clean_100/data/feats_fmllr_train_clean_100.9.ark:53485879
4859-29340-0001 /scratch/ravanelm/exp/librispeech/s5/fmllr/train_clean_100/data/feats_fmllr_train_clean_100.6.ark:396075349
2416-152137-0034 /scratch/ravanelm/exp/librispeech/s5/fmllr/train_clean_100/data/feats_fmllr_train_clean_100.3.ark:133031997
4481-17499-0037 /scratch/ravanelm/exp/librispeech/s5/fmllr/train_clean_100/data/feats_fmllr_train_clean_100.6.ark:174163460
7794-295947-0018 /scratch/ravanelm/exp/librispeech/s5/fmllr/train_clean_100/data/feats_fmllr_train_clean_100.9.ark:304788909
4267-287369-0020 /scratch/ravanelm/exp/librispeech/s5/fmllr/train_clean_100/data/feats_fmllr_train_clean_100.5.ark:517638251
2843-152918-0071 /scratch/ravanelm/exp/librispeech/s5/fmllr/train_clean_100/data/feats_fmllr_train_clean_100.3.ark:448960426
78-368-0042 /scratch/ravanelm/exp/librispeech/s5/fmllr/train_clean_100/data/feats_fmllr_train_clean_100.9.ark:333061654
3607-29116-0023 /scratch/ravanelm/exp/librispeech/s5/fmllr/train_clean_100/data/feats_fmllr_train_clean_100.4.ark:498357017
40-121026-0016 /scratch/ravanelm/exp/librispeech/s5/fmllr/train_clean_100/data/feats_fmllr_train_clean_100.5.ark:213196579
4397-15678-0013 /scratch/ravanelm/exp/librispeech/s5/fmllr/train_clean_100/data/feats_fmllr_train_clean_100.6.ark:41505973
200-124139-0029 /scratch/ravanelm/exp/librispeech/s5/fmllr/train_clean_100/data/feats_fmllr_train_clean_100.2.ark:323957068
5456-24741-0011 /scratch/ravanelm/exp/librispeech/s5/fmllr/train_clean_100/data/feats_fmllr_train_clean_100.7.ark:49385588
587-54108-0036 /scratch/ravanelm/exp/librispeech/s5/fmllr/train_clean_100/data/feats_fmllr_train_clean_100.7.ark:363144073
8108-274318-0043 /scratch/ravanelm/exp/librispeech/s5/fmllr/train_clean_100/data/feats_fmllr_train_clean_100.9.ark:537850047
1502-122619-0027 /scratch/ravanelm/exp/librispeech/s5/fmllr/train_clean_100/data/feats_fmllr_train_clean_100.1.ark:447639006
2002-139469-0102 /scratch/ravanelm/exp/librispeech/s5/fmllr/train_clean_100/data/feats_fmllr_train_clean_100.2.ark:363640950
2989-138028-0065 /scratch/ravanelm/exp/librispeech/s5/fmllr/train_clean_100/data/feats_fmllr_train_clean_100.4.ark:24653965
5789-57158-0018 /scratch/ravanelm/exp/librispeech/s5/fmllr/train_clean_100/data/feats_fmllr_train_clean_100.7.ark:275901007
8468-295198-0021 /scratch/ravanelm/exp/librispeech/s5/fmllr/train_clean_100/data/feats_fmllr_train_clean_100.10.ark:267662931
2289-152258-0030 /scratch/ravanelm/exp/librispeech/s5/fmllr/train_clean_100/data/feats_fmllr_train_clean_100.3.ark:38195817
6385-220959-0003 /scratch/ravanelm/exp/librispeech/s5/fmllr/train_clean_100/data/feats_fmllr_train_clean_100.8.ark:72493311
1263-138246-0026 /scratch/ravanelm/exp/librispeech/s5/fmllr/train_clean_100/data/feats_fmllr_train_clean_100.1.ark:278974101
4406-16882-0001 /scratch/ravanelm/exp/librispeech/s5/fmllr/train_clean_100/data/feats_fmllr_train_clean_100.6.ark:48409845
5750-35690-0019 /scratch/ravanelm/exp/librispeech/s5/fmllr/train_clean_100/data/feats_fmllr_train_clean_100.7.ark:248799026
3947-13262-0005 /scratch/ravanelm/exp/librispeech/s5/fmllr/train_clean_100/data/feats_fmllr_train_clean_100.5.ark:153072757
6019-3185-0036 /scratch/ravanelm/exp/librispeech/s5/fmllr/train_clean_100/data/feats_fmllr_train_clean_100.7.ark:411358171
332-128985-0028 /scratch/ravanelm/exp/librispeech/s5/fmllr/train_clean_100/data/feats_fmllr_train_clean_100.4.ark:349151821
6064-56165-0017 /scratch/ravanelm/exp/librispeech/s5/fmllr/train_clean_100/data/feats_fmllr_train_clean_100.7.ark:440101107
6019-3185-0012 /scratch/ravanelm/exp/librispeech/s5/fmllr/train_clean_100/data/feats_fmllr_train_clean_100.7.ark:406277931
1841-159771-0037 /scratch/ravanelm/exp/librispeech/s5/fmllr/train_clean_100/data/feats_fmllr_train_clean_100.2.ark:104049358
7367-86737-0081 /scratch/ravanelm/exp/librispeech/s5/fmllr/train_clean_100/data/feats_fmllr_train_clean_100.9.ark:126774447
