8051-119902-0025 /scratch/ravanelm/exp/librispeech/s5/fmllr/train_clean_100/data/feats_fmllr_train_clean_100.9.ark:420028959
5789-57195-0001 /scratch/ravanelm/exp/librispeech/s5/fmllr/train_clean_100/data/feats_fmllr_train_clean_100.7.ark:280401627
150-132655-0021 /scratch/ravanelm/exp/librispeech/s5/fmllr/train_clean_100/data/feats_fmllr_train_clean_100.1.ark:432743628
125-121124-0072 /scratch/ravanelm/exp/librispeech/s5/fmllr/train_clean_100/data/feats_fmllr_train_clean_100.1.ark:261991382
7059-77897-0022 /scratch/ravanelm/exp/librispeech/s5/fmllr/train_clean_100/data/feats_fmllr_train_clean_100.8.ark:423758263
1841-179183-0035 /scratch/ravanelm/exp/librispeech/s5/fmllr/train_clean_100/data/feats_fmllr_train_clean_100.2.ark:112897230
211-122442-0060 /scratch/ravanelm/exp/librispeech/s5/fmllr/train_clean_100/data/feats_fmllr_train_clean_100.2.ark:460162504
6272-70171-0012 /scratch/ravanelm/exp/librispeech/s5/fmllr/train_clean_100/data/feats_fmllr_train_clean_100.8.ark:33624243
3235-28452-0024 /scratch/ravanelm/exp/librispeech/s5/fmllr/train_clean_100/data/feats_fmllr_train_clean_100.4.ark:250433950
78-368-0048 /scratch/ravanelm/exp/librispeech/s5/fmllr/train_clean_100/data/feats_fmllr_train_clean_100.9.ark:334071416
78-368-0011 /scratch/ravanelm/exp/librispeech/s5/fmllr/train_clean_100/data/feats_fmllr_train_clean_100.9.ark:326994417
3240-131231-0064 /scratch/ravanelm/exp/librispeech/s5/fmllr/train_clean_100/data/feats_fmllr_train_clean_100.4.ark:263863509
6454-93938-0022 /scratch/ravanelm/exp/librispeech/s5/fmllr/train_clean_100/data/feats_fmllr_train_clean_100.8.ark:165389271
6019-3185-0003 /scratch/ravanelm/exp/librispeech/s5/fmllr/train_clean_100/data/feats_fmllr_train_clean_100.7.ark:404385341
6818-68772-0020 /scratch/ravanelm/exp/librispeech/s5/fmllr/train_clean_100/data/feats_fmllr_train_clean_100.8.ark:286609418
7635-105661-0005 /scratch/ravanelm/exp/librispeech/s5/fmllr/train_clean_100/data/feats_fmllr_train_clean_100.9.ark:269136461
2836-5355-0035 /scratch/ravanelm/exp/librispeech/s5/fmllr/train_clean_100/data/feats_fmllr_train_clean_100.3.ark:429913582
5561-41615-0019 /scratch/ravanelm/exp/librispeech/s5/fmllr/train_clean_100/data/feats_fmllr_train_clean_100.7.ark:117904356
2436-2481-0021 /scratch/ravanelm/exp/librispeech/s5/fmllr/train_clean_100/data/feats_fmllr_train_clean_100.3.ark:170053397
8312-279791-0022 /scratch/ravanelm/exp/librispeech/s5/fmllr/train_clean_100/data/feats_fmllr_train_clean_100.10.ark:123586263
8238-274553-0041 /scratch/ravanelm/exp/librispeech/s5/fmllr/train_clean_100/data/feats_fmllr_train_clean_100.10.ark:42624657
3983-5371-0002 /scratch/ravanelm/exp/librispeech/s5/fmllr/train_clean_100/data/feats_fmllr_train_clean_100.5.ark:198830709
5192-19397-0049 /scratch/ravanelm/exp/librispeech/s5/fmllr/train_clean_100/data/feats_fmllr_train_clean_100.6.ark:539487134
211-122442-0049 /scratch/ravanelm/exp/librispeech/s5/fmllr/train_clean_100/data/feats_fmllr_train_clean_100.2.ark:458363923
4195-17507-0047 /scratch/ravanelm/exp/librispeech/s5/fmllr/train_clean_100/data/feats_fmllr_train_clean_100.5.ark:455774530
2182-150130-0019 /scratch/ravanelm/exp/librispeech/s5/fmllr/train_clean_100/data/feats_fmllr_train_clean_100.2.ark:515349267
2002-139469-0094 /scratch/ravanelm/exp/librispeech/s5/fmllr/train_clean_100/data/feats_fmllr_train_clean_100.2.ark:361918294
3259-158083-0088 /scratch/ravanelm/exp/librispeech/s5/fmllr/train_clean_100/data/feats_fmllr_train_clean_100.4.ark:317132909
6531-61334-0050 /scratch/ravanelm/exp/librispeech/s5/fmllr/train_clean_100/data/feats_fmllr_train_clean_100.8.ark:226030870
7794-295948-0021 /scratch/ravanelm/exp/librispeech/s5/fmllr/train_clean_100/data/feats_fmllr_train_clean_100.9.ark:316003949
7113-86041-0042 /scratch/ravanelm/exp/librispeech/s5/fmllr/train_clean_100/data/feats_fmllr_train_clean_100.8.ark:500457125
2092-145706-0003 /scratch/ravanelm/exp/librispeech/s5/fmllr/train_clean_100/data/feats_fmllr_train_clean_100.2.ark:415257527
6078-54013-0063 /scratch/ravanelm/exp/librispeech/s5/fmllr/train_clean_100/data/feats_fmllr_train_clean_100.7.ark:472874186
460-172359-0097 /scratch/ravanelm/exp/librispeech/s5/fmllr/train_clean_100/data/feats_fmllr_train_clean_100.6.ark:216983436
2911-7601-0036 /scratch/ravanelm/exp/librispeech/s5/fmllr/train_clean_100/data/feats_fmllr_train_clean_100.3.ark:542080964
5163-18515-0015 /scratch/ravanelm/exp/librispeech/s5/fmllr/train_clean_100/data/feats_fmllr_train_clean_100.6.ark:503319629
1116-137572-0017 /scratch/ravanelm/exp/librispeech/s5/fmllr/train_clean_100/data/feats_fmllr_train_clean_100.1.ark:159674207
730-358-0010 /scratch/ravanelm/exp/librispeech/s5/fmllr/train_clean_100/data/feats_fmllr_train_clean_100.9.ark:58471194
8747-293952-0016 /scratch/ravanelm/exp/librispeech/s5/fmllr/train_clean_100/data/feats_fmllr_train_clean_100.10.ark:387711259
5192-19396-0020 /scratch/ravanelm/exp/librispeech/s5/fmllr/train_clean_100/data/feats_fmllr_train_clean_100.6.ark:527347932
4267-287369-0035 /scratch/ravanelm/exp/librispeech/s5/fmllr/train_clean_100/data/feats_fmllr_train_clean_100.5.ark:521111531
211-122425-0019 /scratch/ravanelm/exp/librispeech/s5/fmllr/train_clean_100/data/feats_fmllr_train_clean_100.2.ark:441872291
831-130746-0057 /scratch/ravanelm/exp/librispeech/s5/fmllr/train_clean_100/data/feats_fmllr_train_clean_100.10.ark:106052570
3607-135982-0032 /scratch/ravanelm/exp/librispeech/s5/fmllr/train_clean_100/data/feats_fmllr_train_clean_100.4.ark:489372785
7635-105661-0008 /scratch/ravanelm/exp/librispeech/s5/fmllr/train_clean_100/data/feats_fmllr_train_clean_100.9.ark:269781517
200-124139-0015 /scratch/ravanelm/exp/librispeech/s5/fmllr/train_clean_100/data/feats_fmllr_train_clean_100.2.ark:321310234
4859-29340-0036 /scratch/ravanelm/exp/librispeech/s5/fmllr/train_clean_100/data/feats_fmllr_train_clean_100.6.ark:403378034
6272-70168-0030 /scratch/ravanelm/exp/librispeech/s5/fmllr/train_clean_100/data/feats_fmllr_train_clean_100.8.ark:29964516
3526-176653-0011 /scratch/ravanelm/exp/librispeech/s5/fmllr/train_clean_100/data/feats_fmllr_train_clean_100.4.ark:473610513
19-227-0043 /scratch/ravanelm/exp/librispeech/s5/fmllr/train_clean_100/data/feats_fmllr_train_clean_100.2.ark:179426260
6531-61334-0098 /scratch/ravanelm/exp/librispeech/s5/fmllr/train_clean_100/data/feats_fmllr_train_clean_100.8.ark:232343238
3235-28452-0030 /scratch/ravanelm/exp/librispeech/s5/fmllr/train_clean_100/data/feats_fmllr_train_clean_100.4.ark:251837816
311-124404-0076 /scratch/ravanelm/exp/librispeech/s5/fmllr/train_clean_100/data/feats_fmllr_train_clean_100.4.ark:101660947
307-127535-0018 /scratch/ravanelm/exp/librispeech/s5/fmllr/train_clean_100/data/feats_fmllr_train_clean_100.4.ark:65794025
1970-28415-0016 /scratch/ravanelm/exp/librispeech/s5/fmllr/train_clean_100/data/feats_fmllr_train_clean_100.2.ark:277565524
1447-17506-0003 /scratch/ravanelm/exp/librispeech/s5/fmllr/train_clean_100/data/feats_fmllr_train_clean_100.1.ark:380437135
2817-142371-0010 /scratch/ravanelm/exp/librispeech/s5/fmllr/train_clean_100/data/feats_fmllr_train_clean_100.3.ark:387599140
8609-283227-0051 /scratch/ravanelm/exp/librispeech/s5/fmllr/train_clean_100/data/feats_fmllr_train_clean_100.10.ark:308968691
4680-16041-0029 /scratch/ravanelm/exp/librispeech/s5/fmllr/train_clean_100/data/feats_fmllr_train_clean_100.6.ark:254441667
8051-119902-0031 /scratch/ravanelm/exp/librispeech/s5/fmllr/train_clean_100/data/feats_fmllr_train_clean_100.9.ark:421224991
1088-129236-0004 /scratch/ravanelm/exp/librispeech/s5/fmllr/train_clean_100/data/feats_fmllr_train_clean_100.1.ark:102994623
8324-286682-0024 /scratch/ravanelm/exp/librispeech/s5/fmllr/train_clean_100/data/feats_fmllr_train_clean_100.10.ark:141308055
5049-25947-0096 /scratch/ravanelm/exp/librispeech/s5/fmllr/train_clean_100/data/feats_fmllr_train_clean_100.6.ark:470598731
39-121914-0051 /scratch/ravanelm/exp/librispeech/s5/fmllr/train_clean_100/data/feats_fmllr_train_clean_100.5.ark:126575260
2436-2477-0020 /scratch/ravanelm/exp/librispeech/s5/fmllr/train_clean_100/data/feats_fmllr_train_clean_100.3.ark:162598657
5750-35690-0021 /scratch/ravanelm/exp/librispeech/s5/fmllr/train_clean_100/data/feats_fmllr_train_clean_100.7.ark:249298448
5192-19397-0032 /scratch/ravanelm/exp/librispeech/s5/fmllr/train_clean_100/data/feats_fmllr_train_clean_100.6.ark:536339407
2436-2481-0010 /scratch/ravanelm/exp/librispeech/s5/fmllr/train_clean_100/data/feats_fmllr_train_clean_100.3.ark:167813547
374-180298-0055 /scratch/ravanelm/exp/librispeech/s5/fmllr/train_clean_100/data/feats_fmllr_train_clean_100.5.ark:12002361
6818-76332-0024 /scratch/ravanelm/exp/librispeech/s5/fmllr/train_clean_100/data/feats_fmllr_train_clean_100.8.ark:298744852
5750-100289-0055 /scratch/ravanelm/exp/librispeech/s5/fmllr/train_clean_100/data/feats_fmllr_train_clean_100.7.ark:238595110
6531-61334-0109 /scratch/ravanelm/exp/librispeech/s5/fmllr/train_clean_100/data/feats_fmllr_train_clean_100.8.ark:234053339
5192-19396-0026 /scratch/ravanelm/exp/librispeech/s5/fmllr/train_clean_100/data/feats_fmllr_train_clean_100.6.ark:528162838
8088-284756-0008 /scratch/ravanelm/exp/librispeech/s5/fmllr/train_clean_100/data/feats_fmllr_train_clean_100.9.ark:457130911
254-145458-0013 /scratch/ravanelm/exp/librispeech/s5/fmllr/train_clean_100/data/feats_fmllr_train_clean_100.3.ark:285801132
3526-175658-0031 /scratch/ravanelm/exp/librispeech/s5/fmllr/train_clean_100/data/feats_fmllr_train_clean_100.4.ark:464669905
4297-13009-0043 /scratch/ravanelm/exp/librispeech/s5/fmllr/train_clean_100/data/feats_fmllr_train_clean_100.5.ark:556612808
2159-179157-0003 /scratch/ravanelm/exp/librispeech/s5/fmllr/train_clean_100/data/feats_fmllr_train_clean_100.2.ark:503976787
5322-7678-0037 /scratch/ravanelm/exp/librispeech/s5/fmllr/train_clean_100/data/feats_fmllr_train_clean_100.6.ark:554262510
89-218-0013 /scratch/ravanelm/exp/librispeech/s5/fmllr/train_clean_100/data/feats_fmllr_train_clean_100.10.ark:503570082
2836-5354-0017 /scratch/ravanelm/exp/librispeech/s5/fmllr/train_clean_100/data/feats_fmllr_train_clean_100.3.ark:413816032
8629-261139-0008 /scratch/ravanelm/exp/librispeech/s5/fmllr/train_clean_100/data/feats_fmllr_train_clean_100.10.ark:314752947
2002-139469-0064 /scratch/ravanelm/exp/librispeech/s5/fmllr/train_clean_100/data/feats_fmllr_train_clean_100.2.ark:355741174
2159-179154-0028 /scratch/ravanelm/exp/librispeech/s5/fmllr/train_clean_100/data/feats_fmllr_train_clean_100.2.ark:492818195
1553-140048-0014 /scratch/ravanelm/exp/librispeech/s5/fmllr/train_clean_100/data/feats_fmllr_train_clean_100.1.ark:473496478
198-129977-0013 /scratch/ravanelm/exp/librispeech/s5/fmllr/train_clean_100/data/feats_fmllr_train_clean_100.2.ark:294614265
3486-166424-0018 /scratch/ravanelm/exp/librispeech/s5/fmllr/train_clean_100/data/feats_fmllr_train_clean_100.4.ark:437784049
911-128684-0000 /scratch/ravanelm/exp/librispeech/s5/fmllr/train_clean_100/data/feats_fmllr_train_clean_100.10.ark:572844146
4406-16882-0026 /scratch/ravanelm/exp/librispeech/s5/fmllr/train_clean_100/data/feats_fmllr_train_clean_100.6.ark:53366780
3607-29116-0033 /scratch/ravanelm/exp/librispeech/s5/fmllr/train_clean_100/data/feats_fmllr_train_clean_100.4.ark:500657487
3879-174923-0043 /scratch/ravanelm/exp/librispeech/s5/fmllr/train_clean_100/data/feats_fmllr_train_clean_100.5.ark:110729572
5688-41232-0074 /scratch/ravanelm/exp/librispeech/s5/fmllr/train_clean_100/data/feats_fmllr_train_clean_100.7.ark:202396473
2952-410-0020 /scratch/ravanelm/exp/librispeech/s5/fmllr/train_clean_100/data/feats_fmllr_train_clean_100.3.ark:561028345
3723-171631-0054 /scratch/ravanelm/exp/librispeech/s5/fmllr/train_clean_100/data/feats_fmllr_train_clean_100.4.ark:574120200
4267-72637-0035 /scratch/ravanelm/exp/librispeech/s5/fmllr/train_clean_100/data/feats_fmllr_train_clean_100.5.ark:529013671
5778-12761-0049 /scratch/ravanelm/exp/librispeech/s5/fmllr/train_clean_100/data/feats_fmllr_train_clean_100.7.ark:261388979
8419-293473-0015 /scratch/ravanelm/exp/librispeech/s5/fmllr/train_clean_100/data/feats_fmllr_train_clean_100.10.ark:196955795
7447-91187-0057 /scratch/ravanelm/exp/librispeech/s5/fmllr/train_clean_100/data/feats_fmllr_train_clean_100.9.ark:179894548
307-127535-0043 /scratch/ravanelm/exp/librispeech/s5/fmllr/train_clean_100/data/feats_fmllr_train_clean_100.4.ark:70311440
2002-139469-0100 /scratch/ravanelm/exp/librispeech/s5/fmllr/train_clean_100/data/feats_fmllr_train_clean_100.2.ark:363348726
8238-274553-0047 /scratch/ravanelm/exp/librispeech/s5/fmllr/train_clean_100/data/feats_fmllr_train_clean_100.10.ark:43611409
1263-139804-0013 /scratch/ravanelm/exp/librispeech/s5/fmllr/train_clean_100/data/feats_fmllr_train_clean_100.1.ark:284152309
3235-28433-0049 /scratch/ravanelm/exp/librispeech/s5/fmllr/train_clean_100/data/feats_fmllr_train_clean_100.4.ark:245039735
1624-142933-0039 /scratch/ravanelm/exp/librispeech/s5/fmllr/train_clean_100/data/feats_fmllr_train_clean_100.1.ark:537199164
6209-34600-0004 /scratch/ravanelm/exp/librispeech/s5/fmllr/train_clean_100/data/feats_fmllr_train_clean_100.7.ark:557159072
1447-130552-0019 /scratch/ravanelm/exp/librispeech/s5/fmllr/train_clean_100/data/feats_fmllr_train_clean_100.1.ark:378188275
1723-141149-0008 /scratch/ravanelm/exp/librispeech/s5/fmllr/train_clean_100/data/feats_fmllr_train_clean_100.2.ark:22721102
2843-152918-0106 /scratch/ravanelm/exp/librispeech/s5/fmllr/train_clean_100/data/feats_fmllr_train_clean_100.3.ark:455760426
163-122947-0034 /scratch/ravanelm/exp/librispeech/s5/fmllr/train_clean_100/data/feats_fmllr_train_clean_100.2.ark:6724270
625-132118-0014 /scratch/ravanelm/exp/librispeech/s5/fmllr/train_clean_100/data/feats_fmllr_train_clean_100.8.ark:15906919
2182-181183-0001 /scratch/ravanelm/exp/librispeech/s5/fmllr/train_clean_100/data/feats_fmllr_train_clean_100.2.ark:528703987
1841-179183-0018 /scratch/ravanelm/exp/librispeech/s5/fmllr/train_clean_100/data/feats_fmllr_train_clean_100.2.ark:109337646
3259-158083-0058 /scratch/ravanelm/exp/librispeech/s5/fmllr/train_clean_100/data/feats_fmllr_train_clean_100.4.ark:310686509
403-216-0010 /scratch/ravanelm/exp/librispeech/s5/fmllr/train_clean_100/data/feats_fmllr_train_clean_100.5.ark:302872465
3214-167606-0011 /scratch/ravanelm/exp/librispeech/s5/fmllr/train_clean_100/data/feats_fmllr_train_clean_100.4.ark:189835712
3214-167607-0011 /scratch/ravanelm/exp/librispeech/s5/fmllr/train_clean_100/data/feats_fmllr_train_clean_100.4.ark:198151136
1594-135914-0078 /scratch/ravanelm/exp/librispeech/s5/fmllr/train_clean_100/data/feats_fmllr_train_clean_100.1.ark:519363004
7078-271888-0067 /scratch/ravanelm/exp/librispeech/s5/fmllr/train_clean_100/data/feats_fmllr_train_clean_100.8.ark:481145808
7447-91186-0031 /scratch/ravanelm/exp/librispeech/s5/fmllr/train_clean_100/data/feats_fmllr_train_clean_100.9.ark:164358138
4297-13006-0017 /scratch/ravanelm/exp/librispeech/s5/fmllr/train_clean_100/data/feats_fmllr_train_clean_100.5.ark:541016687
87-121553-0030 /scratch/ravanelm/exp/librispeech/s5/fmllr/train_clean_100/data/feats_fmllr_train_clean_100.10.ark:366571445
4640-19188-0012 /scratch/ravanelm/exp/librispeech/s5/fmllr/train_clean_100/data/feats_fmllr_train_clean_100.6.ark:226688883
5322-7678-0015 /scratch/ravanelm/exp/librispeech/s5/fmllr/train_clean_100/data/feats_fmllr_train_clean_100.6.ark:549402810
6000-55211-0000 /scratch/ravanelm/exp/librispeech/s5/fmllr/train_clean_100/data/feats_fmllr_train_clean_100.7.ark:386466844
6818-68772-0042 /scratch/ravanelm/exp/librispeech/s5/fmllr/train_clean_100/data/feats_fmllr_train_clean_100.8.ark:291484660
6437-66172-0014 /scratch/ravanelm/exp/librispeech/s5/fmllr/train_clean_100/data/feats_fmllr_train_clean_100.8.ark:123267947
7367-86737-0054 /scratch/ravanelm/exp/librispeech/s5/fmllr/train_clean_100/data/feats_fmllr_train_clean_100.9.ark:120880170
8425-287387-0020 /scratch/ravanelm/exp/librispeech/s5/fmllr/train_clean_100/data/feats_fmllr_train_clean_100.10.ark:209393139
248-130697-0005 /scratch/ravanelm/exp/librispeech/s5/fmllr/train_clean_100/data/feats_fmllr_train_clean_100.3.ark:191160930
6147-34606-0006 /scratch/ravanelm/exp/librispeech/s5/fmllr/train_clean_100/data/feats_fmllr_train_clean_100.7.ark:509823761
2911-7601-0029 /scratch/ravanelm/exp/librispeech/s5/fmllr/train_clean_100/data/feats_fmllr_train_clean_100.3.ark:540603634
831-130739-0020 /scratch/ravanelm/exp/librispeech/s5/fmllr/train_clean_100/data/feats_fmllr_train_clean_100.10.ark:86075550
1926-143879-0041 /scratch/ravanelm/exp/librispeech/s5/fmllr/train_clean_100/data/feats_fmllr_train_clean_100.2.ark:191832867
8095-274345-0030 /scratch/ravanelm/exp/librispeech/s5/fmllr/train_clean_100/data/feats_fmllr_train_clean_100.9.ark:486377375
7367-86737-0002 /scratch/ravanelm/exp/librispeech/s5/fmllr/train_clean_100/data/feats_fmllr_train_clean_100.9.ark:110575998
27-124992-0019 /scratch/ravanelm/exp/librispeech/s5/fmllr/train_clean_100/data/feats_fmllr_train_clean_100.3.ark:355812978
4297-13009-0037 /scratch/ravanelm/exp/librispeech/s5/fmllr/train_clean_100/data/feats_fmllr_train_clean_100.5.ark:555648302
125-121342-0027 /scratch/ravanelm/exp/librispeech/s5/fmllr/train_clean_100/data/feats_fmllr_train_clean_100.1.ark:269854666
7800-283492-0015 /scratch/ravanelm/exp/librispeech/s5/fmllr/train_clean_100/data/feats_fmllr_train_clean_100.9.ark:359184671
2159-179157-0024 /scratch/ravanelm/exp/librispeech/s5/fmllr/train_clean_100/data/feats_fmllr_train_clean_100.2.ark:508630419
1040-133433-0021 /scratch/ravanelm/exp/librispeech/s5/fmllr/train_clean_100/data/feats_fmllr_train_clean_100.1.ark:42989919
2182-181183-0005 /scratch/ravanelm/exp/librispeech/s5/fmllr/train_clean_100/data/feats_fmllr_train_clean_100.2.ark:529631155
1263-139804-0021 /scratch/ravanelm/exp/librispeech/s5/fmllr/train_clean_100/data/feats_fmllr_train_clean_100.1.ark:285952885
2893-139310-0025 /scratch/ravanelm/exp/librispeech/s5/fmllr/train_clean_100/data/feats_fmllr_train_clean_100.3.ark:481811892
8014-112586-0011 /scratch/ravanelm/exp/librispeech/s5/fmllr/train_clean_100/data/feats_fmllr_train_clean_100.9.ark:395984063
1624-142933-0044 /scratch/ravanelm/exp/librispeech/s5/fmllr/train_clean_100/data/feats_fmllr_train_clean_100.1.ark:538155164
2436-2477-0016 /scratch/ravanelm/exp/librispeech/s5/fmllr/train_clean_100/data/feats_fmllr_train_clean_100.3.ark:161612937
5750-100289-0021 /scratch/ravanelm/exp/librispeech/s5/fmllr/train_clean_100/data/feats_fmllr_train_clean_100.7.ark:231815142
4214-7146-0030 /scratch/ravanelm/exp/librispeech/s5/fmllr/train_clean_100/data/feats_fmllr_train_clean_100.5.ark:478106883
441-128988-0026 /scratch/ravanelm/exp/librispeech/s5/fmllr/train_clean_100/data/feats_fmllr_train_clean_100.6.ark:85730997
60-121082-0086 /scratch/ravanelm/exp/librispeech/s5/fmllr/train_clean_100/data/feats_fmllr_train_clean_100.7.ark:384585073
8770-295465-0012 /scratch/ravanelm/exp/librispeech/s5/fmllr/train_clean_100/data/feats_fmllr_train_clean_100.10.ark:424290651
7511-102420-0012 /scratch/ravanelm/exp/librispeech/s5/fmllr/train_clean_100/data/feats_fmllr_train_clean_100.9.ark:221622093
1183-133255-0004 /scratch/ravanelm/exp/librispeech/s5/fmllr/train_clean_100/data/feats_fmllr_train_clean_100.1.ark:195286335
4853-27671-0014 /scratch/ravanelm/exp/librispeech/s5/fmllr/train_clean_100/data/feats_fmllr_train_clean_100.6.ark:371696037
887-123289-0039 /scratch/ravanelm/exp/librispeech/s5/fmllr/train_clean_100/data/feats_fmllr_train_clean_100.10.ark:484958259
8465-246940-0005 /scratch/ravanelm/exp/librispeech/s5/fmllr/train_clean_100/data/feats_fmllr_train_clean_100.10.ark:223628915
2136-5143-0004 /scratch/ravanelm/exp/librispeech/s5/fmllr/train_clean_100/data/feats_fmllr_train_clean_100.2.ark:472317237
7635-105409-0015 /scratch/ravanelm/exp/librispeech/s5/fmllr/train_clean_100/data/feats_fmllr_train_clean_100.9.ark:257364077
229-130880-0070 /scratch/ravanelm/exp/librispeech/s5/fmllr/train_clean_100/data/feats_fmllr_train_clean_100.3.ark:54243778
5703-47198-0057 /scratch/ravanelm/exp/librispeech/s5/fmllr/train_clean_100/data/feats_fmllr_train_clean_100.7.ark:215682973
248-130697-0036 /scratch/ravanelm/exp/librispeech/s5/fmllr/train_clean_100/data/feats_fmllr_train_clean_100.3.ark:197754211
1455-134435-0013 /scratch/ravanelm/exp/librispeech/s5/fmllr/train_clean_100/data/feats_fmllr_train_clean_100.1.ark:389219824
6209-34599-0029 /scratch/ravanelm/exp/librispeech/s5/fmllr/train_clean_100/data/feats_fmllr_train_clean_100.7.ark:554116878
6454-107462-0013 /scratch/ravanelm/exp/librispeech/s5/fmllr/train_clean_100/data/feats_fmllr_train_clean_100.8.ark:147280238
3374-298026-0027 /scratch/ravanelm/exp/librispeech/s5/fmllr/train_clean_100/data/feats_fmllr_train_clean_100.4.ark:373684273
5561-41616-0033 /scratch/ravanelm/exp/librispeech/s5/fmllr/train_clean_100/data/feats_fmllr_train_clean_100.7.ark:129824229
460-172359-0090 /scratch/ravanelm/exp/librispeech/s5/fmllr/train_clean_100/data/feats_fmllr_train_clean_100.6.ark:215784819
8425-291444-0000 /scratch/ravanelm/exp/librispeech/s5/fmllr/train_clean_100/data/feats_fmllr_train_clean_100.10.ark:211570835
2391-145015-0033 /scratch/ravanelm/exp/librispeech/s5/fmllr/train_clean_100/data/feats_fmllr_train_clean_100.3.ark:108257469
5049-25947-0051 /scratch/ravanelm/exp/librispeech/s5/fmllr/train_clean_100/data/feats_fmllr_train_clean_100.6.ark:462532536
6818-76332-0003 /scratch/ravanelm/exp/librispeech/s5/fmllr/train_clean_100/data/feats_fmllr_train_clean_100.8.ark:293810281
3526-176653-0047 /scratch/ravanelm/exp/librispeech/s5/fmllr/train_clean_100/data/feats_fmllr_train_clean_100.4.ark:480871825
911-128684-0043 /scratch/ravanelm/exp/librispeech/s5/fmllr/train_clean_100/data/feats_fmllr_train_clean_100.10.ark:581857959
4214-7146-0001 /scratch/ravanelm/exp/librispeech/s5/fmllr/train_clean_100/data/feats_fmllr_train_clean_100.5.ark:472494813
5104-33406-0009 /scratch/ravanelm/exp/librispeech/s5/fmllr/train_clean_100/data/feats_fmllr_train_clean_100.6.ark:478525411
2182-181173-0009 /scratch/ravanelm/exp/librispeech/s5/fmllr/train_clean_100/data/feats_fmllr_train_clean_100.2.ark:522343507
8063-274117-0028 /scratch/ravanelm/exp/librispeech/s5/fmllr/train_clean_100/data/feats_fmllr_train_clean_100.9.ark:454246559
7148-7763-0023 /scratch/ravanelm/exp/librispeech/s5/fmllr/train_clean_100/data/feats_fmllr_train_clean_100.8.ark:528521575
3879-173592-0010 /scratch/ravanelm/exp/librispeech/s5/fmllr/train_clean_100/data/feats_fmllr_train_clean_100.5.ark:94783588
2843-152918-0085 /scratch/ravanelm/exp/librispeech/s5/fmllr/train_clean_100/data/feats_fmllr_train_clean_100.3.ark:451336714
200-124140-0003 /scratch/ravanelm/exp/librispeech/s5/fmllr/train_clean_100/data/feats_fmllr_train_clean_100.2.ark:327015551
4267-78186-0035 /scratch/ravanelm/exp/librispeech/s5/fmllr/train_clean_100/data/feats_fmllr_train_clean_100.5.ark:536713027
2691-156755-0000 /scratch/ravanelm/exp/librispeech/s5/fmllr/train_clean_100/data/feats_fmllr_train_clean_100.3.ark:334367216
32-4137-0010 /scratch/ravanelm/exp/librispeech/s5/fmllr/train_clean_100/data/feats_fmllr_train_clean_100.4.ark:171547168
6531-61334-0033 /scratch/ravanelm/exp/librispeech/s5/fmllr/train_clean_100/data/feats_fmllr_train_clean_100.8.ark:222762663
6367-65536-0058 /scratch/ravanelm/exp/librispeech/s5/fmllr/train_clean_100/data/feats_fmllr_train_clean_100.8.ark:60790549
7635-105661-0004 /scratch/ravanelm/exp/librispeech/s5/fmllr/train_clean_100/data/feats_fmllr_train_clean_100.9.ark:268908589
248-130652-0021 /scratch/ravanelm/exp/librispeech/s5/fmllr/train_clean_100/data/feats_fmllr_train_clean_100.3.ark:185941786
2002-139469-0070 /scratch/ravanelm/exp/librispeech/s5/fmllr/train_clean_100/data/feats_fmllr_train_clean_100.2.ark:356821206
2817-142380-0023 /scratch/ravanelm/exp/librispeech/s5/fmllr/train_clean_100/data/feats_fmllr_train_clean_100.3.ark:405932164
7067-76048-0004 /scratch/ravanelm/exp/librispeech/s5/fmllr/train_clean_100/data/feats_fmllr_train_clean_100.8.ark:455022056
3526-175658-0019 /scratch/ravanelm/exp/librispeech/s5/fmllr/train_clean_100/data/feats_fmllr_train_clean_100.4.ark:462080881
8580-287363-0007 /scratch/ravanelm/exp/librispeech/s5/fmllr/train_clean_100/data/feats_fmllr_train_clean_100.10.ark:271917811
4481-17499-0007 /scratch/ravanelm/exp/librispeech/s5/fmllr/train_clean_100/data/feats_fmllr_train_clean_100.6.ark:167617730
211-122442-0020 /scratch/ravanelm/exp/librispeech/s5/fmllr/train_clean_100/data/feats_fmllr_train_clean_100.2.ark:453961584
7794-295947-0019 /scratch/ravanelm/exp/librispeech/s5/fmllr/train_clean_100/data/feats_fmllr_train_clean_100.9.ark:305032301
887-123291-0023 /scratch/ravanelm/exp/librispeech/s5/fmllr/train_clean_100/data/feats_fmllr_train_clean_100.10.ark:497196795
2836-5354-0027 /scratch/ravanelm/exp/librispeech/s5/fmllr/train_clean_100/data/feats_fmllr_train_clean_100.3.ark:416172972
27-124992-0061 /scratch/ravanelm/exp/librispeech/s5/fmllr/train_clean_100/data/feats_fmllr_train_clean_100.3.ark:359614078
1069-133709-0037 /scratch/ravanelm/exp/librispeech/s5/fmllr/train_clean_100/data/feats_fmllr_train_clean_100.1.ark:74508543
4441-76262-0002 /scratch/ravanelm/exp/librispeech/s5/fmllr/train_clean_100/data/feats_fmllr_train_clean_100.6.ark:104788280
4051-10927-0024 /scratch/ravanelm/exp/librispeech/s5/fmllr/train_clean_100/data/feats_fmllr_train_clean_100.5.ark:335514651
5104-33407-0030 /scratch/ravanelm/exp/librispeech/s5/fmllr/train_clean_100/data/feats_fmllr_train_clean_100.6.ark:496095664
60-121082-0084 /scratch/ravanelm/exp/librispeech/s5/fmllr/train_clean_100/data/feats_fmllr_train_clean_100.7.ark:384285813
4160-11550-0001 /scratch/ravanelm/exp/librispeech/s5/fmllr/train_clean_100/data/feats_fmllr_train_clean_100.5.ark:433093685
2196-170379-0018 /scratch/ravanelm/exp/librispeech/s5/fmllr/train_clean_100/data/feats_fmllr_train_clean_100.2.ark:546415635
4830-25904-0013 /scratch/ravanelm/exp/librispeech/s5/fmllr/train_clean_100/data/feats_fmllr_train_clean_100.6.ark:352313758
226-131532-0027 /scratch/ravanelm/exp/librispeech/s5/fmllr/train_clean_100/data/feats_fmllr_train_clean_100.3.ark:6204053
311-124404-0102 /scratch/ravanelm/exp/librispeech/s5/fmllr/train_clean_100/data/feats_fmllr_train_clean_100.4.ark:106570233
1235-135884-0022 /scratch/ravanelm/exp/librispeech/s5/fmllr/train_clean_100/data/feats_fmllr_train_clean_100.1.ark:215428223
4018-107338-0002 /scratch/ravanelm/exp/librispeech/s5/fmllr/train_clean_100/data/feats_fmllr_train_clean_100.5.ark:275776242
6529-62554-0019 /scratch/ravanelm/exp/librispeech/s5/fmllr/train_clean_100/data/feats_fmllr_train_clean_100.8.ark:196940512
2836-5355-0044 /scratch/ravanelm/exp/librispeech/s5/fmllr/train_clean_100/data/feats_fmllr_train_clean_100.3.ark:431942492
2391-145015-0095 /scratch/ravanelm/exp/librispeech/s5/fmllr/train_clean_100/data/feats_fmllr_train_clean_100.3.ark:120494493
8975-270782-0045 /scratch/ravanelm/exp/librispeech/s5/fmllr/train_clean_100/data/feats_fmllr_train_clean_100.10.ark:533869697
6000-55211-0038 /scratch/ravanelm/exp/librispeech/s5/fmllr/train_clean_100/data/feats_fmllr_train_clean_100.7.ark:394289462
4680-16042-0009 /scratch/ravanelm/exp/librispeech/s5/fmllr/train_clean_100/data/feats_fmllr_train_clean_100.6.ark:258990829
302-123523-0010 /scratch/ravanelm/exp/librispeech/s5/fmllr/train_clean_100/data/feats_fmllr_train_clean_100.4.ark:56037848
1081-125237-0073 /scratch/ravanelm/exp/librispeech/s5/fmllr/train_clean_100/data/feats_fmllr_train_clean_100.1.ark:91954431
5104-33406-0035 /scratch/ravanelm/exp/librispeech/s5/fmllr/train_clean_100/data/feats_fmllr_train_clean_100.6.ark:483406537
4813-248638-0031 /scratch/ravanelm/exp/librispeech/s5/fmllr/train_clean_100/data/feats_fmllr_train_clean_100.6.ark:320055780
458-126305-0010 /scratch/ravanelm/exp/librispeech/s5/fmllr/train_clean_100/data/feats_fmllr_train_clean_100.6.ark:186942120
5789-70653-0034 /scratch/ravanelm/exp/librispeech/s5/fmllr/train_clean_100/data/feats_fmllr_train_clean_100.7.ark:295533588
7302-86815-0025 /scratch/ravanelm/exp/librispeech/s5/fmllr/train_clean_100/data/feats_fmllr_train_clean_100.9.ark:94253750
6019-3185-0040 /scratch/ravanelm/exp/librispeech/s5/fmllr/train_clean_100/data/feats_fmllr_train_clean_100.7.ark:412144691
4898-20016-0035 /scratch/ravanelm/exp/librispeech/s5/fmllr/train_clean_100/data/feats_fmllr_train_clean_100.6.ark:412245705
201-127786-0065 /scratch/ravanelm/exp/librispeech/s5/fmllr/train_clean_100/data/feats_fmllr_train_clean_100.2.ark:411211463
2436-2481-0035 /scratch/ravanelm/exp/librispeech/s5/fmllr/train_clean_100/data/feats_fmllr_train_clean_100.3.ark:173085177
6415-116629-0012 /scratch/ravanelm/exp/librispeech/s5/fmllr/train_clean_100/data/feats_fmllr_train_clean_100.8.ark:114621338
4051-11217-0024 /scratch/ravanelm/exp/librispeech/s5/fmllr/train_clean_100/data/feats_fmllr_train_clean_100.5.ark:340014879
4160-11549-0030 /scratch/ravanelm/exp/librispeech/s5/fmllr/train_clean_100/data/feats_fmllr_train_clean_100.5.ark:430913055
4397-15666-0020 /scratch/ravanelm/exp/librispeech/s5/fmllr/train_clean_100/data/feats_fmllr_train_clean_100.6.ark:28477713
7278-91083-0003 /scratch/ravanelm/exp/librispeech/s5/fmllr/train_clean_100/data/feats_fmllr_train_clean_100.9.ark:48906348
2817-142371-0016 /scratch/ravanelm/exp/librispeech/s5/fmllr/train_clean_100/data/feats_fmllr_train_clean_100.3.ark:388753092
2952-410-0018 /scratch/ravanelm/exp/librispeech/s5/fmllr/train_clean_100/data/feats_fmllr_train_clean_100.3.ark:560601087
7078-271888-0044 /scratch/ravanelm/exp/librispeech/s5/fmllr/train_clean_100/data/feats_fmllr_train_clean_100.8.ark:476811312
226-131533-0015 /scratch/ravanelm/exp/librispeech/s5/fmllr/train_clean_100/data/feats_fmllr_train_clean_100.3.ark:11227166
5678-43301-0004 /scratch/ravanelm/exp/librispeech/s5/fmllr/train_clean_100/data/feats_fmllr_train_clean_100.7.ark:155726969
7178-34644-0031 /scratch/ravanelm/exp/librispeech/s5/fmllr/train_clean_100/data/feats_fmllr_train_clean_100.8.ark:545977994
4397-15678-0015 /scratch/ravanelm/exp/librispeech/s5/fmllr/train_clean_100/data/feats_fmllr_train_clean_100.6.ark:41932755
8975-270782-0077 /scratch/ravanelm/exp/librispeech/s5/fmllr/train_clean_100/data/feats_fmllr_train_clean_100.10.ark:541200161
250-142276-0010 /scratch/ravanelm/exp/librispeech/s5/fmllr/train_clean_100/data/feats_fmllr_train_clean_100.3.ark:203538919
2952-407-0001 /scratch/ravanelm/exp/librispeech/s5/fmllr/train_clean_100/data/feats_fmllr_train_clean_100.3.ark:545998592
4014-186179-0011 /scratch/ravanelm/exp/librispeech/s5/fmllr/train_clean_100/data/feats_fmllr_train_clean_100.5.ark:247944978
669-129074-0012 /scratch/ravanelm/exp/librispeech/s5/fmllr/train_clean_100/data/feats_fmllr_train_clean_100.8.ark:278389298
6925-80680-0081 /scratch/ravanelm/exp/librispeech/s5/fmllr/train_clean_100/data/feats_fmllr_train_clean_100.8.ark:393734346
8797-294123-0075 /scratch/ravanelm/exp/librispeech/s5/fmllr/train_clean_100/data/feats_fmllr_train_clean_100.10.ark:446358619
8975-270782-0092 /scratch/ravanelm/exp/librispeech/s5/fmllr/train_clean_100/data/feats_fmllr_train_clean_100.10.ark:544351521
311-124404-0024 /scratch/ravanelm/exp/librispeech/s5/fmllr/train_clean_100/data/feats_fmllr_train_clean_100.4.ark:91512455
4297-13009-0021 /scratch/ravanelm/exp/librispeech/s5/fmllr/train_clean_100/data/feats_fmllr_train_clean_100.5.ark:552004926
1624-142933-0026 /scratch/ravanelm/exp/librispeech/s5/fmllr/train_clean_100/data/feats_fmllr_train_clean_100.1.ark:534501308
8095-274348-0002 /scratch/ravanelm/exp/librispeech/s5/fmllr/train_clean_100/data/feats_fmllr_train_clean_100.9.ark:500340767
5049-25947-0116 /scratch/ravanelm/exp/librispeech/s5/fmllr/train_clean_100/data/feats_fmllr_train_clean_100.6.ark:474173431
328-129766-0013 /scratch/ravanelm/exp/librispeech/s5/fmllr/train_clean_100/data/feats_fmllr_train_clean_100.4.ark:327259487
1246-124550-0003 /scratch/ravanelm/exp/librispeech/s5/fmllr/train_clean_100/data/feats_fmllr_train_clean_100.1.ark:236161087
7078-271888-0058 /scratch/ravanelm/exp/librispeech/s5/fmllr/train_clean_100/data/feats_fmllr_train_clean_100.8.ark:479529680
909-131045-0035 /scratch/ravanelm/exp/librispeech/s5/fmllr/train_clean_100/data/feats_fmllr_train_clean_100.10.ark:570829467
307-127539-0021 /scratch/ravanelm/exp/librispeech/s5/fmllr/train_clean_100/data/feats_fmllr_train_clean_100.4.ark:74497304
7148-82991-0003 /scratch/ravanelm/exp/librispeech/s5/fmllr/train_clean_100/data/feats_fmllr_train_clean_100.8.ark:532130219
8419-293473-0001 /scratch/ravanelm/exp/librispeech/s5/fmllr/train_clean_100/data/feats_fmllr_train_clean_100.10.ark:193507667
2002-139469-0097 /scratch/ravanelm/exp/librispeech/s5/fmllr/train_clean_100/data/feats_fmllr_train_clean_100.2.ark:362652630
4397-15678-0027 /scratch/ravanelm/exp/librispeech/s5/fmllr/train_clean_100/data/feats_fmllr_train_clean_100.6.ark:44645607
40-222-0068 /scratch/ravanelm/exp/librispeech/s5/fmllr/train_clean_100/data/feats_fmllr_train_clean_100.5.ark:234175442
426-122822-0012 /scratch/ravanelm/exp/librispeech/s5/fmllr/train_clean_100/data/feats_fmllr_train_clean_100.5.ark:508426626
909-131044-0004 /scratch/ravanelm/exp/librispeech/s5/fmllr/train_clean_100/data/feats_fmllr_train_clean_100.10.ark:556333212
3664-11714-0021 /scratch/ravanelm/exp/librispeech/s5/fmllr/train_clean_100/data/feats_fmllr_train_clean_100.4.ark:508240941
39-121914-0053 /scratch/ravanelm/exp/librispeech/s5/fmllr/train_clean_100/data/feats_fmllr_train_clean_100.5.ark:126980120
6078-54013-0061 /scratch/ravanelm/exp/librispeech/s5/fmllr/train_clean_100/data/feats_fmllr_train_clean_100.7.ark:472478604
2817-142371-0000 /scratch/ravanelm/exp/librispeech/s5/fmllr/train_clean_100/data/feats_fmllr_train_clean_100.3.ark:385713540
7078-271888-0074 /scratch/ravanelm/exp/librispeech/s5/fmllr/train_clean_100/data/feats_fmllr_train_clean_100.8.ark:482672912
403-126855-0015 /scratch/ravanelm/exp/librispeech/s5/fmllr/train_clean_100/data/feats_fmllr_train_clean_100.5.ark:285833378
1116-132847-0011 /scratch/ravanelm/exp/librispeech/s5/fmllr/train_clean_100/data/feats_fmllr_train_clean_100.1.ark:146072095
39-121914-0039 /scratch/ravanelm/exp/librispeech/s5/fmllr/train_clean_100/data/feats_fmllr_train_clean_100.5.ark:124099700
4406-16883-0022 /scratch/ravanelm/exp/librispeech/s5/fmllr/train_clean_100/data/feats_fmllr_train_clean_100.6.ark:64985275
3807-4955-0015 /scratch/ravanelm/exp/librispeech/s5/fmllr/train_clean_100/data/feats_fmllr_train_clean_100.5.ark:39872938
87-121553-0058 /scratch/ravanelm/exp/librispeech/s5/fmllr/train_clean_100/data/feats_fmllr_train_clean_100.10.ark:373092605
1594-135914-0058 /scratch/ravanelm/exp/librispeech/s5/fmllr/train_clean_100/data/feats_fmllr_train_clean_100.1.ark:515237404
6880-216547-0038 /scratch/ravanelm/exp/librispeech/s5/fmllr/train_clean_100/data/feats_fmllr_train_clean_100.8.ark:362340860
3857-182317-0013 /scratch/ravanelm/exp/librispeech/s5/fmllr/train_clean_100/data/feats_fmllr_train_clean_100.5.ark:87950276
32-21631-0002 /scratch/ravanelm/exp/librispeech/s5/fmllr/train_clean_100/data/feats_fmllr_train_clean_100.4.ark:161788827
1963-142776-0014 /scratch/ravanelm/exp/librispeech/s5/fmllr/train_clean_100/data/feats_fmllr_train_clean_100.2.ark:247888183
4406-16882-0060 /scratch/ravanelm/exp/librispeech/s5/fmllr/train_clean_100/data/feats_fmllr_train_clean_100.6.ark:59151514
226-131532-0022 /scratch/ravanelm/exp/librispeech/s5/fmllr/train_clean_100/data/feats_fmllr_train_clean_100.3.ark:5021338
481-123719-0028 /scratch/ravanelm/exp/librispeech/s5/fmllr/train_clean_100/data/feats_fmllr_train_clean_100.6.ark:294330727
7505-83618-0001 /scratch/ravanelm/exp/librispeech/s5/fmllr/train_clean_100/data/feats_fmllr_train_clean_100.9.ark:201770918
2911-7601-0039 /scratch/ravanelm/exp/librispeech/s5/fmllr/train_clean_100/data/feats_fmllr_train_clean_100.3.ark:542680414
40-121026-0017 /scratch/ravanelm/exp/librispeech/s5/fmllr/train_clean_100/data/feats_fmllr_train_clean_100.5.ark:213392769
441-130108-0036 /scratch/ravanelm/exp/librispeech/s5/fmllr/train_clean_100/data/feats_fmllr_train_clean_100.6.ark:95213703
5163-39921-0001 /scratch/ravanelm/exp/librispeech/s5/fmllr/train_clean_100/data/feats_fmllr_train_clean_100.6.ark:510915176
3830-12530-0006 /scratch/ravanelm/exp/librispeech/s5/fmllr/train_clean_100/data/feats_fmllr_train_clean_100.5.ark:47902381
1455-138263-0039 /scratch/ravanelm/exp/librispeech/s5/fmllr/train_clean_100/data/feats_fmllr_train_clean_100.1.ark:407382704
7067-76048-0030 /scratch/ravanelm/exp/librispeech/s5/fmllr/train_clean_100/data/feats_fmllr_train_clean_100.8.ark:460446862
4267-72637-0013 /scratch/ravanelm/exp/librispeech/s5/fmllr/train_clean_100/data/feats_fmllr_train_clean_100.5.ark:524539709
1363-135842-0050 /scratch/ravanelm/exp/librispeech/s5/fmllr/train_clean_100/data/feats_fmllr_train_clean_100.1.ark:351977459
4406-16883-0024 /scratch/ravanelm/exp/librispeech/s5/fmllr/train_clean_100/data/feats_fmllr_train_clean_100.6.ark:65264057
3112-9555-0027 /scratch/ravanelm/exp/librispeech/s5/fmllr/train_clean_100/data/feats_fmllr_train_clean_100.4.ark:120812542
78-369-0004 /scratch/ravanelm/exp/librispeech/s5/fmllr/train_clean_100/data/feats_fmllr_train_clean_100.9.ark:335980806
6848-252323-0011 /scratch/ravanelm/exp/librispeech/s5/fmllr/train_clean_100/data/feats_fmllr_train_clean_100.8.ark:339611008
1246-124550-0028 /scratch/ravanelm/exp/librispeech/s5/fmllr/train_clean_100/data/feats_fmllr_train_clean_100.1.ark:241936447
5463-39173-0010 /scratch/ravanelm/exp/librispeech/s5/fmllr/train_clean_100/data/feats_fmllr_train_clean_100.7.ark:69060389
625-132112-0035 /scratch/ravanelm/exp/librispeech/s5/fmllr/train_clean_100/data/feats_fmllr_train_clean_100.8.ark:7806061
6880-216547-0079 /scratch/ravanelm/exp/librispeech/s5/fmllr/train_clean_100/data/feats_fmllr_train_clean_100.8.ark:370681852
2817-142371-0061 /scratch/ravanelm/exp/librispeech/s5/fmllr/train_clean_100/data/feats_fmllr_train_clean_100.3.ark:397646692
1841-159771-0008 /scratch/ravanelm/exp/librispeech/s5/fmllr/train_clean_100/data/feats_fmllr_train_clean_100.2.ark:97983310
4859-22176-0013 /scratch/ravanelm/exp/librispeech/s5/fmllr/train_clean_100/data/feats_fmllr_train_clean_100.6.ark:387744540
6925-80680-0072 /scratch/ravanelm/exp/librispeech/s5/fmllr/train_clean_100/data/feats_fmllr_train_clean_100.8.ark:391809907
3526-176653-0035 /scratch/ravanelm/exp/librispeech/s5/fmllr/train_clean_100/data/feats_fmllr_train_clean_100.4.ark:478560401
4340-15220-0087 /scratch/ravanelm/exp/librispeech/s5/fmllr/train_clean_100/data/feats_fmllr_train_clean_100.5.ark:579837178
7078-271888-0002 /scratch/ravanelm/exp/librispeech/s5/fmllr/train_clean_100/data/feats_fmllr_train_clean_100.8.ark:467399568
5750-100289-0077 /scratch/ravanelm/exp/librispeech/s5/fmllr/train_clean_100/data/feats_fmllr_train_clean_100.7.ark:243412934
7226-86964-0005 /scratch/ravanelm/exp/librispeech/s5/fmllr/train_clean_100/data/feats_fmllr_train_clean_100.8.ark:588688974
3168-173564-0029 /scratch/ravanelm/exp/librispeech/s5/fmllr/train_clean_100/data/feats_fmllr_train_clean_100.4.ark:140853722
2514-149482-0053 /scratch/ravanelm/exp/librispeech/s5/fmllr/train_clean_100/data/feats_fmllr_train_clean_100.3.ark:234210513
3436-172171-0035 /scratch/ravanelm/exp/librispeech/s5/fmllr/train_clean_100/data/feats_fmllr_train_clean_100.4.ark:403796465
78-368-0034 /scratch/ravanelm/exp/librispeech/s5/fmllr/train_clean_100/data/feats_fmllr_train_clean_100.9.ark:331600958
2843-152918-0072 /scratch/ravanelm/exp/librispeech/s5/fmllr/train_clean_100/data/feats_fmllr_train_clean_100.3.ark:449187178
3699-19402-0021 /scratch/ravanelm/exp/librispeech/s5/fmllr/train_clean_100/data/feats_fmllr_train_clean_100.4.ark:542550322
211-122442-0054 /scratch/ravanelm/exp/librispeech/s5/fmllr/train_clean_100/data/feats_fmllr_train_clean_100.2.ark:459042798
1970-28415-0007 /scratch/ravanelm/exp/librispeech/s5/fmllr/train_clean_100/data/feats_fmllr_train_clean_100.2.ark:275709085
7505-258964-0017 /scratch/ravanelm/exp/librispeech/s5/fmllr/train_clean_100/data/feats_fmllr_train_clean_100.9.ark:194512168
5652-19215-0003 /scratch/ravanelm/exp/librispeech/s5/fmllr/train_clean_100/data/feats_fmllr_train_clean_100.7.ark:131488668
5561-39621-0010 /scratch/ravanelm/exp/librispeech/s5/fmllr/train_clean_100/data/feats_fmllr_train_clean_100.7.ark:108991291
6209-34600-0016 /scratch/ravanelm/exp/librispeech/s5/fmllr/train_clean_100/data/feats_fmllr_train_clean_100.7.ark:559603764
7794-295955-0025 /scratch/ravanelm/exp/librispeech/s5/fmllr/train_clean_100/data/feats_fmllr_train_clean_100.9.ark:323124461
8630-305213-0045 /scratch/ravanelm/exp/librispeech/s5/fmllr/train_clean_100/data/feats_fmllr_train_clean_100.10.ark:357798547
669-129061-0049 /scratch/ravanelm/exp/librispeech/s5/fmllr/train_clean_100/data/feats_fmllr_train_clean_100.8.ark:268070019
8238-274553-0069 /scratch/ravanelm/exp/librispeech/s5/fmllr/train_clean_100/data/feats_fmllr_train_clean_100.10.ark:47537713
3526-175658-0015 /scratch/ravanelm/exp/librispeech/s5/fmllr/train_clean_100/data/feats_fmllr_train_clean_100.4.ark:461293553
8324-286682-0011 /scratch/ravanelm/exp/librispeech/s5/fmllr/train_clean_100/data/feats_fmllr_train_clean_100.10.ark:138550039
6078-54007-0010 /scratch/ravanelm/exp/librispeech/s5/fmllr/train_clean_100/data/feats_fmllr_train_clean_100.7.ark:453573331
8324-286682-0035 /scratch/ravanelm/exp/librispeech/s5/fmllr/train_clean_100/data/feats_fmllr_train_clean_100.10.ark:143904407
8312-279790-0018 /scratch/ravanelm/exp/librispeech/s5/fmllr/train_clean_100/data/feats_fmllr_train_clean_100.10.ark:110828471
8465-246943-0017 /scratch/ravanelm/exp/librispeech/s5/fmllr/train_clean_100/data/feats_fmllr_train_clean_100.10.ark:237686099
6078-54013-0007 /scratch/ravanelm/exp/librispeech/s5/fmllr/train_clean_100/data/feats_fmllr_train_clean_100.7.ark:463922050
2514-149482-0042 /scratch/ravanelm/exp/librispeech/s5/fmllr/train_clean_100/data/feats_fmllr_train_clean_100.3.ark:231679121
7264-92314-0004 /scratch/ravanelm/exp/librispeech/s5/fmllr/train_clean_100/data/feats_fmllr_train_clean_100.9.ark:18163673
481-123720-0040 /scratch/ravanelm/exp/librispeech/s5/fmllr/train_clean_100/data/feats_fmllr_train_clean_100.6.ark:304990321
2416-152139-0008 /scratch/ravanelm/exp/librispeech/s5/fmllr/train_clean_100/data/feats_fmllr_train_clean_100.3.ark:135616509
1246-135815-0012 /scratch/ravanelm/exp/librispeech/s5/fmllr/train_clean_100/data/feats_fmllr_train_clean_100.1.ark:247166015
2764-36619-0012 /scratch/ravanelm/exp/librispeech/s5/fmllr/train_clean_100/data/feats_fmllr_train_clean_100.3.ark:379677409
3112-9554-0023 /scratch/ravanelm/exp/librispeech/s5/fmllr/train_clean_100/data/feats_fmllr_train_clean_100.4.ark:115666742
233-155990-0045 /scratch/ravanelm/exp/librispeech/s5/fmllr/train_clean_100/data/feats_fmllr_train_clean_100.3.ark:82048510
8468-286673-0000 /scratch/ravanelm/exp/librispeech/s5/fmllr/train_clean_100/data/feats_fmllr_train_clean_100.10.ark:246233171
8419-286676-0001 /scratch/ravanelm/exp/librispeech/s5/fmllr/train_clean_100/data/feats_fmllr_train_clean_100.10.ark:181268307
445-123857-0032 /scratch/ravanelm/exp/librispeech/s5/fmllr/train_clean_100/data/feats_fmllr_train_clean_100.6.ark:126023845
5561-39621-0028 /scratch/ravanelm/exp/librispeech/s5/fmllr/train_clean_100/data/feats_fmllr_train_clean_100.7.ark:111741449
2910-131096-0064 /scratch/ravanelm/exp/librispeech/s5/fmllr/train_clean_100/data/feats_fmllr_train_clean_100.3.ark:514556884
1088-129236-0000 /scratch/ravanelm/exp/librispeech/s5/fmllr/train_clean_100/data/feats_fmllr_train_clean_100.1.ark:102070495
125-121124-0016 /scratch/ravanelm/exp/librispeech/s5/fmllr/train_clean_100/data/feats_fmllr_train_clean_100.1.ark:251835246
5192-19397-0024 /scratch/ravanelm/exp/librispeech/s5/fmllr/train_clean_100/data/feats_fmllr_train_clean_100.6.ark:534461719
6209-34601-0016 /scratch/ravanelm/exp/librispeech/s5/fmllr/train_clean_100/data/feats_fmllr_train_clean_100.7.ark:567014800
328-129766-0069 /scratch/ravanelm/exp/librispeech/s5/fmllr/train_clean_100/data/feats_fmllr_train_clean_100.4.ark:337708583
5393-19219-0040 /scratch/ravanelm/exp/librispeech/s5/fmllr/train_clean_100/data/feats_fmllr_train_clean_100.7.ark:43649814
374-180298-0028 /scratch/ravanelm/exp/librispeech/s5/fmllr/train_clean_100/data/feats_fmllr_train_clean_100.5.ark:6151604
196-122150-0014 /scratch/ravanelm/exp/librispeech/s5/fmllr/train_clean_100/data/feats_fmllr_train_clean_100.2.ark:213253684
446-123501-0022 /scratch/ravanelm/exp/librispeech/s5/fmllr/train_clean_100/data/feats_fmllr_train_clean_100.6.ark:135865235
6925-80680-0015 /scratch/ravanelm/exp/librispeech/s5/fmllr/train_clean_100/data/feats_fmllr_train_clean_100.8.ark:381741580
83-9960-0020 /scratch/ravanelm/exp/librispeech/s5/fmllr/train_clean_100/data/feats_fmllr_train_clean_100.10.ark:75274211
1553-140048-0002 /scratch/ravanelm/exp/librispeech/s5/fmllr/train_clean_100/data/feats_fmllr_train_clean_100.1.ark:470735134
3830-12529-0001 /scratch/ravanelm/exp/librispeech/s5/fmllr/train_clean_100/data/feats_fmllr_train_clean_100.5.ark:45728760
39-121914-0009 /scratch/ravanelm/exp/librispeech/s5/fmllr/train_clean_100/data/feats_fmllr_train_clean_100.5.ark:118415120
2182-181183-0026 /scratch/ravanelm/exp/librispeech/s5/fmllr/train_clean_100/data/feats_fmllr_train_clean_100.2.ark:532891987
4640-19189-0043 /scratch/ravanelm/exp/librispeech/s5/fmllr/train_clean_100/data/feats_fmllr_train_clean_100.6.ark:241071915
2893-139322-0006 /scratch/ravanelm/exp/librispeech/s5/fmllr/train_clean_100/data/feats_fmllr_train_clean_100.3.ark:489523572
254-27760-0020 /scratch/ravanelm/exp/librispeech/s5/fmllr/train_clean_100/data/feats_fmllr_train_clean_100.3.ark:290840890
6848-252322-0003 /scratch/ravanelm/exp/librispeech/s5/fmllr/train_clean_100/data/feats_fmllr_train_clean_100.8.ark:330845088
1723-141149-0038 /scratch/ravanelm/exp/librispeech/s5/fmllr/train_clean_100/data/feats_fmllr_train_clean_100.2.ark:29342222
5808-48608-0054 /scratch/ravanelm/exp/librispeech/s5/fmllr/train_clean_100/data/feats_fmllr_train_clean_100.7.ark:307701115
7148-7763-0007 /scratch/ravanelm/exp/librispeech/s5/fmllr/train_clean_100/data/feats_fmllr_train_clean_100.8.ark:525304135
2764-36617-0029 /scratch/ravanelm/exp/librispeech/s5/fmllr/train_clean_100/data/feats_fmllr_train_clean_100.3.ark:375105367
2836-5355-0007 /scratch/ravanelm/exp/librispeech/s5/fmllr/train_clean_100/data/feats_fmllr_train_clean_100.3.ark:423377862
4898-28461-0003 /scratch/ravanelm/exp/librispeech/s5/fmllr/train_clean_100/data/feats_fmllr_train_clean_100.6.ark:414130464
5463-39174-0016 /scratch/ravanelm/exp/librispeech/s5/fmllr/train_clean_100/data/feats_fmllr_train_clean_100.7.ark:83747519
730-360-0004 /scratch/ravanelm/exp/librispeech/s5/fmllr/train_clean_100/data/feats_fmllr_train_clean_100.9.ark:74561154
1334-135589-0016 /scratch/ravanelm/exp/librispeech/s5/fmllr/train_clean_100/data/feats_fmllr_train_clean_100.1.ark:300939189
909-131041-0027 /scratch/ravanelm/exp/librispeech/s5/fmllr/train_clean_100/data/feats_fmllr_train_clean_100.10.ark:554518533
5688-41232-0042 /scratch/ravanelm/exp/librispeech/s5/fmllr/train_clean_100/data/feats_fmllr_train_clean_100.7.ark:195940281
4441-76250-0030 /scratch/ravanelm/exp/librispeech/s5/fmllr/train_clean_100/data/feats_fmllr_train_clean_100.6.ark:102776579
2196-174172-0023 /scratch/ravanelm/exp/librispeech/s5/fmllr/train_clean_100/data/feats_fmllr_train_clean_100.2.ark:555058195
27-124992-0048 /scratch/ravanelm/exp/librispeech/s5/fmllr/train_clean_100/data/feats_fmllr_train_clean_100.3.ark:358359128
1898-145715-0031 /scratch/ravanelm/exp/librispeech/s5/fmllr/train_clean_100/data/feats_fmllr_train_clean_100.2.ark:147708014
8419-286667-0011 /scratch/ravanelm/exp/librispeech/s5/fmllr/train_clean_100/data/feats_fmllr_train_clean_100.10.ark:176678675
6181-216552-0017 /scratch/ravanelm/exp/librispeech/s5/fmllr/train_clean_100/data/feats_fmllr_train_clean_100.7.ark:527555596
7859-102519-0039 /scratch/ravanelm/exp/librispeech/s5/fmllr/train_clean_100/data/feats_fmllr_train_clean_100.9.ark:386717759
322-124147-0063 /scratch/ravanelm/exp/librispeech/s5/fmllr/train_clean_100/data/feats_fmllr_train_clean_100.4.ark:224560986
412-126975-0045 /scratch/ravanelm/exp/librispeech/s5/fmllr/train_clean_100/data/feats_fmllr_train_clean_100.5.ark:389092641
3947-13260-0009 /scratch/ravanelm/exp/librispeech/s5/fmllr/train_clean_100/data/feats_fmllr_train_clean_100.5.ark:142594980
3440-171009-0010 /scratch/ravanelm/exp/librispeech/s5/fmllr/train_clean_100/data/feats_fmllr_train_clean_100.4.ark:418857937
26-495-0060 /scratch/ravanelm/exp/librispeech/s5/fmllr/train_clean_100/data/feats_fmllr_train_clean_100.3.ark:305990797
4267-72637-0029 /scratch/ravanelm/exp/librispeech/s5/fmllr/train_clean_100/data/feats_fmllr_train_clean_100.5.ark:527670445
6454-93938-0003 /scratch/ravanelm/exp/librispeech/s5/fmllr/train_clean_100/data/feats_fmllr_train_clean_100.8.ark:161292362
6081-42010-0017 /scratch/ravanelm/exp/librispeech/s5/fmllr/train_clean_100/data/feats_fmllr_train_clean_100.7.ark:496016213
3259-158083-0020 /scratch/ravanelm/exp/librispeech/s5/fmllr/train_clean_100/data/feats_fmllr_train_clean_100.4.ark:304668493
481-123719-0021 /scratch/ravanelm/exp/librispeech/s5/fmllr/train_clean_100/data/feats_fmllr_train_clean_100.6.ark:293235950
8312-279790-0014 /scratch/ravanelm/exp/librispeech/s5/fmllr/train_clean_100/data/feats_fmllr_train_clean_100.10.ark:109999383
1183-133256-0018 /scratch/ravanelm/exp/librispeech/s5/fmllr/train_clean_100/data/feats_fmllr_train_clean_100.1.ark:200032831
7447-91186-0035 /scratch/ravanelm/exp/librispeech/s5/fmllr/train_clean_100/data/feats_fmllr_train_clean_100.9.ark:165218422
6415-116629-0013 /scratch/ravanelm/exp/librispeech/s5/fmllr/train_clean_100/data/feats_fmllr_train_clean_100.8.ark:114846170
4137-11701-0025 /scratch/ravanelm/exp/librispeech/s5/fmllr/train_clean_100/data/feats_fmllr_train_clean_100.5.ark:405493846
1743-142914-0006 /scratch/ravanelm/exp/librispeech/s5/fmllr/train_clean_100/data/feats_fmllr_train_clean_100.2.ark:84016430
7226-86965-0049 /scratch/ravanelm/exp/librispeech/s5/fmllr/train_clean_100/data/feats_fmllr_train_clean_100.9.ark:10337375
1963-142776-0004 /scratch/ravanelm/exp/librispeech/s5/fmllr/train_clean_100/data/feats_fmllr_train_clean_100.2.ark:246096183
7226-86965-0014 /scratch/ravanelm/exp/librispeech/s5/fmllr/train_clean_100/data/feats_fmllr_train_clean_100.9.ark:2902210
8238-283452-0023 /scratch/ravanelm/exp/librispeech/s5/fmllr/train_clean_100/data/feats_fmllr_train_clean_100.10.ark:53494801
831-130746-0026 /scratch/ravanelm/exp/librispeech/s5/fmllr/train_clean_100/data/feats_fmllr_train_clean_100.10.ark:99506489
7794-295947-0010 /scratch/ravanelm/exp/librispeech/s5/fmllr/train_clean_100/data/feats_fmllr_train_clean_100.9.ark:302915053
3436-172162-0036 /scratch/ravanelm/exp/librispeech/s5/fmllr/train_clean_100/data/feats_fmllr_train_clean_100.4.ark:393405201
19-227-0071 /scratch/ravanelm/exp/librispeech/s5/fmllr/train_clean_100/data/feats_fmllr_train_clean_100.2.ark:185445576
1088-129236-0023 /scratch/ravanelm/exp/librispeech/s5/fmllr/train_clean_100/data/feats_fmllr_train_clean_100.1.ark:107207071
3699-19402-0030 /scratch/ravanelm/exp/librispeech/s5/fmllr/train_clean_100/data/feats_fmllr_train_clean_100.4.ark:544290761
1578-140045-0020 /scratch/ravanelm/exp/librispeech/s5/fmllr/train_clean_100/data/feats_fmllr_train_clean_100.1.ark:485172190
4481-17499-0046 /scratch/ravanelm/exp/librispeech/s5/fmllr/train_clean_100/data/feats_fmllr_train_clean_100.6.ark:176235419
887-123291-0014 /scratch/ravanelm/exp/librispeech/s5/fmllr/train_clean_100/data/feats_fmllr_train_clean_100.10.ark:495195556
4160-11550-0005 /scratch/ravanelm/exp/librispeech/s5/fmllr/train_clean_100/data/feats_fmllr_train_clean_100.5.ark:433927089
2952-407-0016 /scratch/ravanelm/exp/librispeech/s5/fmllr/train_clean_100/data/feats_fmllr_train_clean_100.3.ark:549276947
7302-86815-0081 /scratch/ravanelm/exp/librispeech/s5/fmllr/train_clean_100/data/feats_fmllr_train_clean_100.9.ark:104387646
587-54108-0050 /scratch/ravanelm/exp/librispeech/s5/fmllr/train_clean_100/data/feats_fmllr_train_clean_100.7.ark:365640493
1116-137572-0041 /scratch/ravanelm/exp/librispeech/s5/fmllr/train_clean_100/data/feats_fmllr_train_clean_100.1.ark:164720095
211-122442-0069 /scratch/ravanelm/exp/librispeech/s5/fmllr/train_clean_100/data/feats_fmllr_train_clean_100.2.ark:461348223
587-54108-0005 /scratch/ravanelm/exp/librispeech/s5/fmllr/train_clean_100/data/feats_fmllr_train_clean_100.7.ark:357022343
5456-62043-0035 /scratch/ravanelm/exp/librispeech/s5/fmllr/train_clean_100/data/feats_fmllr_train_clean_100.7.ark:66605075
4137-11701-0041 /scratch/ravanelm/exp/librispeech/s5/fmllr/train_clean_100/data/feats_fmllr_train_clean_100.5.ark:408633382
4640-19188-0019 /scratch/ravanelm/exp/librispeech/s5/fmllr/train_clean_100/data/feats_fmllr_train_clean_100.6.ark:228126220
3240-131231-0084 /scratch/ravanelm/exp/librispeech/s5/fmllr/train_clean_100/data/feats_fmllr_train_clean_100.4.ark:268083029
83-9960-0021 /scratch/ravanelm/exp/librispeech/s5/fmllr/train_clean_100/data/feats_fmllr_train_clean_100.10.ark:75500959
6181-216552-0001 /scratch/ravanelm/exp/librispeech/s5/fmllr/train_clean_100/data/feats_fmllr_train_clean_100.7.ark:524139244
6437-66172-0001 /scratch/ravanelm/exp/librispeech/s5/fmllr/train_clean_100/data/feats_fmllr_train_clean_100.8.ark:120500344
6454-120342-0033 /scratch/ravanelm/exp/librispeech/s5/fmllr/train_clean_100/data/feats_fmllr_train_clean_100.8.ark:160026094
7780-274562-0050 /scratch/ravanelm/exp/librispeech/s5/fmllr/train_clean_100/data/feats_fmllr_train_clean_100.9.ark:288778221
8238-274553-0049 /scratch/ravanelm/exp/librispeech/s5/fmllr/train_clean_100/data/feats_fmllr_train_clean_100.10.ark:44058513
1970-28415-0010 /scratch/ravanelm/exp/librispeech/s5/fmllr/train_clean_100/data/feats_fmllr_train_clean_100.2.ark:276275418
4214-7146-0062 /scratch/ravanelm/exp/librispeech/s5/fmllr/train_clean_100/data/feats_fmllr_train_clean_100.5.ark:484844163
6367-65536-0019 /scratch/ravanelm/exp/librispeech/s5/fmllr/train_clean_100/data/feats_fmllr_train_clean_100.8.ark:52238620
2910-131096-0087 /scratch/ravanelm/exp/librispeech/s5/fmllr/train_clean_100/data/feats_fmllr_train_clean_100.3.ark:519771700
8770-295465-0035 /scratch/ravanelm/exp/librispeech/s5/fmllr/train_clean_100/data/feats_fmllr_train_clean_100.10.ark:429371067
1069-133699-0052 /scratch/ravanelm/exp/librispeech/s5/fmllr/train_clean_100/data/feats_fmllr_train_clean_100.1.ark:65614303
248-130644-0030 /scratch/ravanelm/exp/librispeech/s5/fmllr/train_clean_100/data/feats_fmllr_train_clean_100.3.ark:180171798
7517-100429-0012 /scratch/ravanelm/exp/librispeech/s5/fmllr/train_clean_100/data/feats_fmllr_train_clean_100.9.ark:233178285
5867-48852-0035 /scratch/ravanelm/exp/librispeech/s5/fmllr/train_clean_100/data/feats_fmllr_train_clean_100.7.ark:326962006
4362-15663-0002 /scratch/ravanelm/exp/librispeech/s5/fmllr/train_clean_100/data/feats_fmllr_train_clean_100.6.ark:455278
2989-138035-0061 /scratch/ravanelm/exp/librispeech/s5/fmllr/train_clean_100/data/feats_fmllr_train_clean_100.4.ark:35973869
5390-24512-0022 /scratch/ravanelm/exp/librispeech/s5/fmllr/train_clean_100/data/feats_fmllr_train_clean_100.7.ark:4120698
6415-111615-0000 /scratch/ravanelm/exp/librispeech/s5/fmllr/train_clean_100/data/feats_fmllr_train_clean_100.8.ark:103472634
5678-43301-0019 /scratch/ravanelm/exp/librispeech/s5/fmllr/train_clean_100/data/feats_fmllr_train_clean_100.7.ark:158875594
458-126290-0003 /scratch/ravanelm/exp/librispeech/s5/fmllr/train_clean_100/data/feats_fmllr_train_clean_100.6.ark:177195094
1235-135884-0034 /scratch/ravanelm/exp/librispeech/s5/fmllr/train_clean_100/data/feats_fmllr_train_clean_100.1.ark:217680607
3374-298032-0006 /scratch/ravanelm/exp/librispeech/s5/fmllr/train_clean_100/data/feats_fmllr_train_clean_100.4.ark:378770065
2007-149877-0024 /scratch/ravanelm/exp/librispeech/s5/fmllr/train_clean_100/data/feats_fmllr_train_clean_100.2.ark:383321878
4830-25898-0006 /scratch/ravanelm/exp/librispeech/s5/fmllr/train_clean_100/data/feats_fmllr_train_clean_100.6.ark:339152925
911-128684-0019 /scratch/ravanelm/exp/librispeech/s5/fmllr/train_clean_100/data/feats_fmllr_train_clean_100.10.ark:577047135
7780-274562-0045 /scratch/ravanelm/exp/librispeech/s5/fmllr/train_clean_100/data/feats_fmllr_train_clean_100.9.ark:287659341
322-124147-0076 /scratch/ravanelm/exp/librispeech/s5/fmllr/train_clean_100/data/feats_fmllr_train_clean_100.4.ark:227061069
412-126975-0006 /scratch/ravanelm/exp/librispeech/s5/fmllr/train_clean_100/data/feats_fmllr_train_clean_100.5.ark:380234792
2182-150130-0010 /scratch/ravanelm/exp/librispeech/s5/fmllr/train_clean_100/data/feats_fmllr_train_clean_100.2.ark:513173779
7278-246956-0021 /scratch/ravanelm/exp/librispeech/s5/fmllr/train_clean_100/data/feats_fmllr_train_clean_100.9.ark:45048976
8770-295462-0008 /scratch/ravanelm/exp/librispeech/s5/fmllr/train_clean_100/data/feats_fmllr_train_clean_100.10.ark:408612283
6064-300880-0030 /scratch/ravanelm/exp/librispeech/s5/fmllr/train_clean_100/data/feats_fmllr_train_clean_100.7.ark:434546693
7264-92314-0029 /scratch/ravanelm/exp/librispeech/s5/fmllr/train_clean_100/data/feats_fmllr_train_clean_100.9.ark:23572288
5867-48852-0089 /scratch/ravanelm/exp/librispeech/s5/fmllr/train_clean_100/data/feats_fmllr_train_clean_100.7.ark:338181600
27-124992-0011 /scratch/ravanelm/exp/librispeech/s5/fmllr/train_clean_100/data/feats_fmllr_train_clean_100.3.ark:355397698
8051-295385-0025 /scratch/ravanelm/exp/librispeech/s5/fmllr/train_clean_100/data/feats_fmllr_train_clean_100.9.ark:428636767
229-130880-0083 /scratch/ravanelm/exp/librispeech/s5/fmllr/train_clean_100/data/feats_fmllr_train_clean_100.3.ark:56499381
6367-74004-0020 /scratch/ravanelm/exp/librispeech/s5/fmllr/train_clean_100/data/feats_fmllr_train_clean_100.8.ark:68759856
8238-274553-0035 /scratch/ravanelm/exp/librispeech/s5/fmllr/train_clean_100/data/feats_fmllr_train_clean_100.10.ark:41327665
4898-28461-0043 /scratch/ravanelm/exp/librispeech/s5/fmllr/train_clean_100/data/feats_fmllr_train_clean_100.6.ark:423373944
8770-295465-0036 /scratch/ravanelm/exp/librispeech/s5/fmllr/train_clean_100/data/feats_fmllr_train_clean_100.10.ark:429568859
3699-175950-0024 /scratch/ravanelm/exp/librispeech/s5/fmllr/train_clean_100/data/feats_fmllr_train_clean_100.4.ark:532260611
211-122425-0023 /scratch/ravanelm/exp/librispeech/s5/fmllr/train_clean_100/data/feats_fmllr_train_clean_100.2.ark:442651295
2182-181173-0033 /scratch/ravanelm/exp/librispeech/s5/fmllr/train_clean_100/data/feats_fmllr_train_clean_100.2.ark:527475475
1502-122619-0070 /scratch/ravanelm/exp/librispeech/s5/fmllr/train_clean_100/data/feats_fmllr_train_clean_100.1.ark:455044382
730-359-0020 /scratch/ravanelm/exp/librispeech/s5/fmllr/train_clean_100/data/feats_fmllr_train_clean_100.9.ark:69489614
4788-294466-0029 /scratch/ravanelm/exp/librispeech/s5/fmllr/train_clean_100/data/feats_fmllr_train_clean_100.6.ark:271977679
125-121342-0001 /scratch/ravanelm/exp/librispeech/s5/fmllr/train_clean_100/data/feats_fmllr_train_clean_100.1.ark:264632740
2893-139322-0035 /scratch/ravanelm/exp/librispeech/s5/fmllr/train_clean_100/data/feats_fmllr_train_clean_100.3.ark:496301620
446-123502-0039 /scratch/ravanelm/exp/librispeech/s5/fmllr/train_clean_100/data/feats_fmllr_train_clean_100.6.ark:152863653
7078-271888-0046 /scratch/ravanelm/exp/librispeech/s5/fmllr/train_clean_100/data/feats_fmllr_train_clean_100.8.ark:477158256
39-121916-0021 /scratch/ravanelm/exp/librispeech/s5/fmllr/train_clean_100/data/feats_fmllr_train_clean_100.5.ark:138835170
40-222-0045 /scratch/ravanelm/exp/librispeech/s5/fmllr/train_clean_100/data/feats_fmllr_train_clean_100.5.ark:229130021
2007-149877-0061 /scratch/ravanelm/exp/librispeech/s5/fmllr/train_clean_100/data/feats_fmllr_train_clean_100.2.ark:390379222
5867-48852-0102 /scratch/ravanelm/exp/librispeech/s5/fmllr/train_clean_100/data/feats_fmllr_train_clean_100.7.ark:340934323
1992-141719-0044 /scratch/ravanelm/exp/librispeech/s5/fmllr/train_clean_100/data/feats_fmllr_train_clean_100.2.ark:316011146
3699-19402-0005 /scratch/ravanelm/exp/librispeech/s5/fmllr/train_clean_100/data/feats_fmllr_train_clean_100.4.ark:539131266
2196-174172-0038 /scratch/ravanelm/exp/librispeech/s5/fmllr/train_clean_100/data/feats_fmllr_train_clean_100.2.ark:558381555
5778-12761-0016 /scratch/ravanelm/exp/librispeech/s5/fmllr/train_clean_100/data/feats_fmllr_train_clean_100.7.ark:254773076
3526-175658-0023 /scratch/ravanelm/exp/librispeech/s5/fmllr/train_clean_100/data/feats_fmllr_train_clean_100.4.ark:462833489
3526-175658-0030 /scratch/ravanelm/exp/librispeech/s5/fmllr/train_clean_100/data/feats_fmllr_train_clean_100.4.ark:464430833
7264-92310-0008 /scratch/ravanelm/exp/librispeech/s5/fmllr/train_clean_100/data/feats_fmllr_train_clean_100.9.ark:12151094
7859-102519-0045 /scratch/ravanelm/exp/librispeech/s5/fmllr/train_clean_100/data/feats_fmllr_train_clean_100.9.ark:388135071
1246-135815-0016 /scratch/ravanelm/exp/librispeech/s5/fmllr/train_clean_100/data/feats_fmllr_train_clean_100.1.ark:247971263
1723-141149-0002 /scratch/ravanelm/exp/librispeech/s5/fmllr/train_clean_100/data/feats_fmllr_train_clean_100.2.ark:21418670
5390-30102-0013 /scratch/ravanelm/exp/librispeech/s5/fmllr/train_clean_100/data/feats_fmllr_train_clean_100.7.ark:19950223
412-126975-0036 /scratch/ravanelm/exp/librispeech/s5/fmllr/train_clean_100/data/feats_fmllr_train_clean_100.5.ark:387012522
3857-180923-0020 /scratch/ravanelm/exp/librispeech/s5/fmllr/train_clean_100/data/feats_fmllr_train_clean_100.5.ark:72830948
2159-179154-0004 /scratch/ravanelm/exp/librispeech/s5/fmllr/train_clean_100/data/feats_fmllr_train_clean_100.2.ark:487835347
5808-48608-0014 /scratch/ravanelm/exp/librispeech/s5/fmllr/train_clean_100/data/feats_fmllr_train_clean_100.7.ark:299213635
6272-70168-0027 /scratch/ravanelm/exp/librispeech/s5/fmllr/train_clean_100/data/feats_fmllr_train_clean_100.8.ark:29391943
1841-159771-0039 /scratch/ravanelm/exp/librispeech/s5/fmllr/train_clean_100/data/feats_fmllr_train_clean_100.2.ark:104488462
229-130880-0000 /scratch/ravanelm/exp/librispeech/s5/fmllr/train_clean_100/data/feats_fmllr_train_clean_100.3.ark:40104488
1098-133695-0045 /scratch/ravanelm/exp/librispeech/s5/fmllr/train_clean_100/data/feats_fmllr_train_clean_100.1.ark:135106719
5456-62043-0006 /scratch/ravanelm/exp/librispeech/s5/fmllr/train_clean_100/data/feats_fmllr_train_clean_100.7.ark:60600336
2514-149482-0023 /scratch/ravanelm/exp/librispeech/s5/fmllr/train_clean_100/data/feats_fmllr_train_clean_100.3.ark:227361713
6925-80680-0084 /scratch/ravanelm/exp/librispeech/s5/fmllr/train_clean_100/data/feats_fmllr_train_clean_100.8.ark:394475079
302-123504-0017 /scratch/ravanelm/exp/librispeech/s5/fmllr/train_clean_100/data/feats_fmllr_train_clean_100.4.ark:42038971
3240-131232-0032 /scratch/ravanelm/exp/librispeech/s5/fmllr/train_clean_100/data/feats_fmllr_train_clean_100.4.ark:275031477
2764-36616-0026 /scratch/ravanelm/exp/librispeech/s5/fmllr/train_clean_100/data/feats_fmllr_train_clean_100.3.ark:366693665
198-126831-0022 /scratch/ravanelm/exp/librispeech/s5/fmllr/train_clean_100/data/feats_fmllr_train_clean_100.2.ark:286891270
6415-100596-0028 /scratch/ravanelm/exp/librispeech/s5/fmllr/train_clean_100/data/feats_fmllr_train_clean_100.8.ark:101704378
4137-11702-0007 /scratch/ravanelm/exp/librispeech/s5/fmllr/train_clean_100/data/feats_fmllr_train_clean_100.5.ark:412877811
374-180298-0063 /scratch/ravanelm/exp/librispeech/s5/fmllr/train_clean_100/data/feats_fmllr_train_clean_100.5.ark:13606769
1235-135883-0043 /scratch/ravanelm/exp/librispeech/s5/fmllr/train_clean_100/data/feats_fmllr_train_clean_100.1.ark:209530463
1069-133709-0018 /scratch/ravanelm/exp/librispeech/s5/fmllr/train_clean_100/data/feats_fmllr_train_clean_100.1.ark:70076575
6563-63821-0032 /scratch/ravanelm/exp/librispeech/s5/fmllr/train_clean_100/data/feats_fmllr_train_clean_100.8.ark:254536835
4051-11218-0053 /scratch/ravanelm/exp/librispeech/s5/fmllr/train_clean_100/data/feats_fmllr_train_clean_100.5.ark:352803960
8123-275216-0028 /scratch/ravanelm/exp/librispeech/s5/fmllr/train_clean_100/data/feats_fmllr_train_clean_100.10.ark:6385233
7780-274562-0041 /scratch/ravanelm/exp/librispeech/s5/fmllr/train_clean_100/data/feats_fmllr_train_clean_100.9.ark:286799693
1334-135589-0043 /scratch/ravanelm/exp/librispeech/s5/fmllr/train_clean_100/data/feats_fmllr_train_clean_100.1.ark:306820693
458-126305-0024 /scratch/ravanelm/exp/librispeech/s5/fmllr/train_clean_100/data/feats_fmllr_train_clean_100.6.ark:189891994
254-145458-0009 /scratch/ravanelm/exp/librispeech/s5/fmllr/train_clean_100/data/feats_fmllr_train_clean_100.3.ark:284969648
2989-138028-0013 /scratch/ravanelm/exp/librispeech/s5/fmllr/train_clean_100/data/feats_fmllr_train_clean_100.4.ark:16725101
1553-140047-0038 /scratch/ravanelm/exp/librispeech/s5/fmllr/train_clean_100/data/feats_fmllr_train_clean_100.1.ark:467513662
298-126790-0014 /scratch/ravanelm/exp/librispeech/s5/fmllr/train_clean_100/data/feats_fmllr_train_clean_100.3.ark:572870930
2007-149877-0013 /scratch/ravanelm/exp/librispeech/s5/fmllr/train_clean_100/data/feats_fmllr_train_clean_100.2.ark:381078486
5339-14134-0031 /scratch/ravanelm/exp/librispeech/s5/fmllr/train_clean_100/data/feats_fmllr_train_clean_100.6.ark:586242719
103-1241-0005 /scratch/ravanelm/exp/librispeech/s5/fmllr/train_clean_100/data/feats_fmllr_train_clean_100.1.ark:14100241
3374-298025-0031 /scratch/ravanelm/exp/librispeech/s5/fmllr/train_clean_100/data/feats_fmllr_train_clean_100.4.ark:367901265
374-180299-0021 /scratch/ravanelm/exp/librispeech/s5/fmllr/train_clean_100/data/feats_fmllr_train_clean_100.5.ark:18404953
669-129061-0054 /scratch/ravanelm/exp/librispeech/s5/fmllr/train_clean_100/data/feats_fmllr_train_clean_100.8.ark:269119134
1034-121119-0087 /scratch/ravanelm/exp/librispeech/s5/fmllr/train_clean_100/data/feats_fmllr_train_clean_100.1.ark:37661279
3807-4955-0030 /scratch/ravanelm/exp/librispeech/s5/fmllr/train_clean_100/data/feats_fmllr_train_clean_100.5.ark:43351308
4853-27671-0006 /scratch/ravanelm/exp/librispeech/s5/fmllr/train_clean_100/data/feats_fmllr_train_clean_100.6.ark:369963149
4137-11701-0042 /scratch/ravanelm/exp/librispeech/s5/fmllr/train_clean_100/data/feats_fmllr_train_clean_100.5.ark:408891653
298-126791-0020 /scratch/ravanelm/exp/librispeech/s5/fmllr/train_clean_100/data/feats_fmllr_train_clean_100.4.ark:4073916
8098-278278-0036 /scratch/ravanelm/exp/librispeech/s5/fmllr/train_clean_100/data/feats_fmllr_train_clean_100.9.ark:526813311
4195-17507-0038 /scratch/ravanelm/exp/librispeech/s5/fmllr/train_clean_100/data/feats_fmllr_train_clean_100.5.ark:454490571
1578-6379-0016 /scratch/ravanelm/exp/librispeech/s5/fmllr/train_clean_100/data/feats_fmllr_train_clean_100.1.ark:498072796
7226-86965-0037 /scratch/ravanelm/exp/librispeech/s5/fmllr/train_clean_100/data/feats_fmllr_train_clean_100.9.ark:7781003
8226-274371-0010 /scratch/ravanelm/exp/librispeech/s5/fmllr/train_clean_100/data/feats_fmllr_train_clean_100.10.ark:25536977
7067-76048-0015 /scratch/ravanelm/exp/librispeech/s5/fmllr/train_clean_100/data/feats_fmllr_train_clean_100.8.ark:457283677
7113-86041-0073 /scratch/ravanelm/exp/librispeech/s5/fmllr/train_clean_100/data/feats_fmllr_train_clean_100.8.ark:507167046
1081-125237-0026 /scratch/ravanelm/exp/librispeech/s5/fmllr/train_clean_100/data/feats_fmllr_train_clean_100.1.ark:82450527
5463-39173-0004 /scratch/ravanelm/exp/librispeech/s5/fmllr/train_clean_100/data/feats_fmllr_train_clean_100.7.ark:67852363
4137-11702-0039 /scratch/ravanelm/exp/librispeech/s5/fmllr/train_clean_100/data/feats_fmllr_train_clean_100.5.ark:419465843
6925-80680-0028 /scratch/ravanelm/exp/librispeech/s5/fmllr/train_clean_100/data/feats_fmllr_train_clean_100.8.ark:383921023
2002-139469-0101 /scratch/ravanelm/exp/librispeech/s5/fmllr/train_clean_100/data/feats_fmllr_train_clean_100.2.ark:363451638
248-130644-0014 /scratch/ravanelm/exp/librispeech/s5/fmllr/train_clean_100/data/feats_fmllr_train_clean_100.3.ark:176834822
5678-43303-0030 /scratch/ravanelm/exp/librispeech/s5/fmllr/train_clean_100/data/feats_fmllr_train_clean_100.7.ark:176875354
6367-74004-0005 /scratch/ravanelm/exp/librispeech/s5/fmllr/train_clean_100/data/feats_fmllr_train_clean_100.8.ark:65604511
1594-135914-0044 /scratch/ravanelm/exp/librispeech/s5/fmllr/train_clean_100/data/feats_fmllr_train_clean_100.1.ark:513056316
5192-19397-0057 /scratch/ravanelm/exp/librispeech/s5/fmllr/train_clean_100/data/feats_fmllr_train_clean_100.6.ark:540945942
6209-34601-0015 /scratch/ravanelm/exp/librispeech/s5/fmllr/train_clean_100/data/feats_fmllr_train_clean_100.7.ark:566808209
5104-33407-0009 /scratch/ravanelm/exp/librispeech/s5/fmllr/train_clean_100/data/feats_fmllr_train_clean_100.6.ark:491262213
1040-133433-0063 /scratch/ravanelm/exp/librispeech/s5/fmllr/train_clean_100/data/feats_fmllr_train_clean_100.1.ark:50708703
7190-90542-0005 /scratch/ravanelm/exp/librispeech/s5/fmllr/train_clean_100/data/feats_fmllr_train_clean_100.8.ark:564272113
4088-158077-0097 /scratch/ravanelm/exp/librispeech/s5/fmllr/train_clean_100/data/feats_fmllr_train_clean_100.5.ark:374357455
7067-76047-0029 /scratch/ravanelm/exp/librispeech/s5/fmllr/train_clean_100/data/feats_fmllr_train_clean_100.8.ark:449396641
3242-67168-0018 /scratch/ravanelm/exp/librispeech/s5/fmllr/train_clean_100/data/feats_fmllr_train_clean_100.4.ark:288360860
254-145458-0008 /scratch/ravanelm/exp/librispeech/s5/fmllr/train_clean_100/data/feats_fmllr_train_clean_100.3.ark:284727537
625-132118-0041 /scratch/ravanelm/exp/librispeech/s5/fmllr/train_clean_100/data/feats_fmllr_train_clean_100.8.ark:21834316
1594-135914-0013 /scratch/ravanelm/exp/librispeech/s5/fmllr/train_clean_100/data/feats_fmllr_train_clean_100.1.ark:507497084
1926-147979-0026 /scratch/ravanelm/exp/librispeech/s5/fmllr/train_clean_100/data/feats_fmllr_train_clean_100.2.ark:198366051
289-121665-0023 /scratch/ravanelm/exp/librispeech/s5/fmllr/train_clean_100/data/feats_fmllr_train_clean_100.3.ark:471637547
1098-133695-0084 /scratch/ravanelm/exp/librispeech/s5/fmllr/train_clean_100/data/feats_fmllr_train_clean_100.1.ark:142166047
4853-27670-0009 /scratch/ravanelm/exp/librispeech/s5/fmllr/train_clean_100/data/feats_fmllr_train_clean_100.6.ark:362813135
5514-19192-0035 /scratch/ravanelm/exp/librispeech/s5/fmllr/train_clean_100/data/feats_fmllr_train_clean_100.7.ark:98216569
4340-15220-0032 /scratch/ravanelm/exp/librispeech/s5/fmllr/train_clean_100/data/feats_fmllr_train_clean_100.5.ark:568494993
2159-179154-0016 /scratch/ravanelm/exp/librispeech/s5/fmllr/train_clean_100/data/feats_fmllr_train_clean_100.2.ark:490370611
7302-86814-0033 /scratch/ravanelm/exp/librispeech/s5/fmllr/train_clean_100/data/feats_fmllr_train_clean_100.9.ark:87627168
2843-152918-0035 /scratch/ravanelm/exp/librispeech/s5/fmllr/train_clean_100/data/feats_fmllr_train_clean_100.3.ark:441540074
4898-20016-0030 /scratch/ravanelm/exp/librispeech/s5/fmllr/train_clean_100/data/feats_fmllr_train_clean_100.6.ark:411050510
