4137-11702-0040 /scratch/ravanelm/exp/librispeech/s5/fmllr/train_clean_100/data/feats_fmllr_train_clean_100.5.ark:419689074
3436-172171-0002 /scratch/ravanelm/exp/librispeech/s5/fmllr/train_clean_100/data/feats_fmllr_train_clean_100.4.ark:397297329
1553-140048-0035 /scratch/ravanelm/exp/librispeech/s5/fmllr/train_clean_100/data/feats_fmllr_train_clean_100.1.ark:477740030
8051-119902-0019 /scratch/ravanelm/exp/librispeech/s5/fmllr/train_clean_100/data/feats_fmllr_train_clean_100.9.ark:418999007
4830-25898-0033 /scratch/ravanelm/exp/librispeech/s5/fmllr/train_clean_100/data/feats_fmllr_train_clean_100.6.ark:344770402
4481-17499-0030 /scratch/ravanelm/exp/librispeech/s5/fmllr/train_clean_100/data/feats_fmllr_train_clean_100.6.ark:172541643
730-360-0037 /scratch/ravanelm/exp/librispeech/s5/fmllr/train_clean_100/data/feats_fmllr_train_clean_100.9.ark:80273918
2817-142380-0041 /scratch/ravanelm/exp/librispeech/s5/fmllr/train_clean_100/data/feats_fmllr_train_clean_100.3.ark:409359460
4195-186236-0025 /scratch/ravanelm/exp/librispeech/s5/fmllr/train_clean_100/data/feats_fmllr_train_clean_100.5.ark:460097793
3240-131231-0074 /scratch/ravanelm/exp/librispeech/s5/fmllr/train_clean_100/data/feats_fmllr_train_clean_100.4.ark:266035989
298-126791-0018 /scratch/ravanelm/exp/librispeech/s5/fmllr/train_clean_100/data/feats_fmllr_train_clean_100.4.ark:3599294
2416-152139-0023 /scratch/ravanelm/exp/librispeech/s5/fmllr/train_clean_100/data/feats_fmllr_train_clean_100.3.ark:138590429
6081-41997-0007 /scratch/ravanelm/exp/librispeech/s5/fmllr/train_clean_100/data/feats_fmllr_train_clean_100.7.ark:477154770
5393-19219-0023 /scratch/ravanelm/exp/librispeech/s5/fmllr/train_clean_100/data/feats_fmllr_train_clean_100.7.ark:40407847
587-41611-0018 /scratch/ravanelm/exp/librispeech/s5/fmllr/train_clean_100/data/feats_fmllr_train_clean_100.7.ark:346797123
1355-39947-0080 /scratch/ravanelm/exp/librispeech/s5/fmllr/train_clean_100/data/feats_fmllr_train_clean_100.1.ark:338038980
163-122947-0059 /scratch/ravanelm/exp/librispeech/s5/fmllr/train_clean_100/data/feats_fmllr_train_clean_100.2.ark:12375765
911-130578-0007 /scratch/ravanelm/exp/librispeech/s5/fmllr/train_clean_100/data/feats_fmllr_train_clean_100.10.ark:593293615
374-180298-0017 /scratch/ravanelm/exp/librispeech/s5/fmllr/train_clean_100/data/feats_fmllr_train_clean_100.5.ark:3859743
730-359-0020 /scratch/ravanelm/exp/librispeech/s5/fmllr/train_clean_100/data/feats_fmllr_train_clean_100.9.ark:69489614
831-130739-0051 /scratch/ravanelm/exp/librispeech/s5/fmllr/train_clean_100/data/feats_fmllr_train_clean_100.10.ark:92023711
3168-173564-0028 /scratch/ravanelm/exp/librispeech/s5/fmllr/train_clean_100/data/feats_fmllr_train_clean_100.4.ark:140620250
2289-152254-0028 /scratch/ravanelm/exp/librispeech/s5/fmllr/train_clean_100/data/feats_fmllr_train_clean_100.3.ark:26999817
1034-121119-0076 /scratch/ravanelm/exp/librispeech/s5/fmllr/train_clean_100/data/feats_fmllr_train_clean_100.1.ark:36063167
4297-13006-0032 /scratch/ravanelm/exp/librispeech/s5/fmllr/train_clean_100/data/feats_fmllr_train_clean_100.5.ark:544325152
196-122150-0011 /scratch/ravanelm/exp/librispeech/s5/fmllr/train_clean_100/data/feats_fmllr_train_clean_100.2.ark:212533591
1743-142914-0017 /scratch/ravanelm/exp/librispeech/s5/fmllr/train_clean_100/data/feats_fmllr_train_clean_100.2.ark:86081902
405-130894-0061 /scratch/ravanelm/exp/librispeech/s5/fmllr/train_clean_100/data/feats_fmllr_train_clean_100.5.ark:319350251
3240-131231-0018 /scratch/ravanelm/exp/librispeech/s5/fmllr/train_clean_100/data/feats_fmllr_train_clean_100.4.ark:255707637
2691-156745-0001 /scratch/ravanelm/exp/librispeech/s5/fmllr/train_clean_100/data/feats_fmllr_train_clean_100.3.ark:318340720
1841-150351-0004 /scratch/ravanelm/exp/librispeech/s5/fmllr/train_clean_100/data/feats_fmllr_train_clean_100.2.ark:90415726
2989-138028-0067 /scratch/ravanelm/exp/librispeech/s5/fmllr/train_clean_100/data/feats_fmllr_train_clean_100.4.ark:24975309
696-92939-0017 /scratch/ravanelm/exp/librispeech/s5/fmllr/train_clean_100/data/feats_fmllr_train_clean_100.8.ark:398660610
5678-43303-0017 /scratch/ravanelm/exp/librispeech/s5/fmllr/train_clean_100/data/feats_fmllr_train_clean_100.7.ark:174112551
909-131041-0013 /scratch/ravanelm/exp/librispeech/s5/fmllr/train_clean_100/data/feats_fmllr_train_clean_100.10.ark:551441939
4898-28461-0042 /scratch/ravanelm/exp/librispeech/s5/fmllr/train_clean_100/data/feats_fmllr_train_clean_100.6.ark:423144793
250-142276-0006 /scratch/ravanelm/exp/librispeech/s5/fmllr/train_clean_100/data/feats_fmllr_train_clean_100.3.ark:202851755
5322-7678-0000 /scratch/ravanelm/exp/librispeech/s5/fmllr/train_clean_100/data/feats_fmllr_train_clean_100.6.ark:546294840
5652-19215-0027 /scratch/ravanelm/exp/librispeech/s5/fmllr/train_clean_100/data/feats_fmllr_train_clean_100.7.ark:135537892
3947-13260-0021 /scratch/ravanelm/exp/librispeech/s5/fmllr/train_clean_100/data/feats_fmllr_train_clean_100.5.ark:145283672
1235-135883-0017 /scratch/ravanelm/exp/librispeech/s5/fmllr/train_clean_100/data/feats_fmllr_train_clean_100.1.ark:204371551
2391-145015-0025 /scratch/ravanelm/exp/librispeech/s5/fmllr/train_clean_100/data/feats_fmllr_train_clean_100.3.ark:106751453
5867-48852-0105 /scratch/ravanelm/exp/librispeech/s5/fmllr/train_clean_100/data/feats_fmllr_train_clean_100.7.ark:341564656
911-130578-0012 /scratch/ravanelm/exp/librispeech/s5/fmllr/train_clean_100/data/feats_fmllr_train_clean_100.10.ark:594241450
26-495-0080 /scratch/ravanelm/exp/librispeech/s5/fmllr/train_clean_100/data/feats_fmllr_train_clean_100.3.ark:310564457
3240-131231-0060 /scratch/ravanelm/exp/librispeech/s5/fmllr/train_clean_100/data/feats_fmllr_train_clean_100.4.ark:263197461
5652-19215-0043 /scratch/ravanelm/exp/librispeech/s5/fmllr/train_clean_100/data/feats_fmllr_train_clean_100.7.ark:137927348
332-128985-0041 /scratch/ravanelm/exp/librispeech/s5/fmllr/train_clean_100/data/feats_fmllr_train_clean_100.4.ark:351569024
1898-145715-0022 /scratch/ravanelm/exp/librispeech/s5/fmllr/train_clean_100/data/feats_fmllr_train_clean_100.2.ark:145629806
669-129061-0019 /scratch/ravanelm/exp/librispeech/s5/fmllr/train_clean_100/data/feats_fmllr_train_clean_100.8.ark:261659649
6531-61334-0063 /scratch/ravanelm/exp/librispeech/s5/fmllr/train_clean_100/data/feats_fmllr_train_clean_100.8.ark:227822473
4014-186179-0006 /scratch/ravanelm/exp/librispeech/s5/fmllr/train_clean_100/data/feats_fmllr_train_clean_100.5.ark:247185298
200-124140-0025 /scratch/ravanelm/exp/librispeech/s5/fmllr/train_clean_100/data/feats_fmllr_train_clean_100.2.ark:331452553
8975-270782-0110 /scratch/ravanelm/exp/librispeech/s5/fmllr/train_clean_100/data/feats_fmllr_train_clean_100.10.ark:547944897
7226-86964-0048 /scratch/ravanelm/exp/librispeech/s5/fmllr/train_clean_100/data/feats_fmllr_train_clean_100.8.ark:598468067
6925-80680-0074 /scratch/ravanelm/exp/librispeech/s5/fmllr/train_clean_100/data/feats_fmllr_train_clean_100.8.ark:392266129
8770-295462-0036 /scratch/ravanelm/exp/librispeech/s5/fmllr/train_clean_100/data/feats_fmllr_train_clean_100.10.ark:414738619
3235-11599-0020 /scratch/ravanelm/exp/librispeech/s5/fmllr/train_clean_100/data/feats_fmllr_train_clean_100.4.ark:232525937
8770-295463-0021 /scratch/ravanelm/exp/librispeech/s5/fmllr/train_clean_100/data/feats_fmllr_train_clean_100.10.ark:420184603
730-359-0015 /scratch/ravanelm/exp/librispeech/s5/fmllr/train_clean_100/data/feats_fmllr_train_clean_100.9.ark:68615394
4195-186238-0020 /scratch/ravanelm/exp/librispeech/s5/fmllr/train_clean_100/data/feats_fmllr_train_clean_100.5.ark:470880129
3983-5371-0005 /scratch/ravanelm/exp/librispeech/s5/fmllr/train_clean_100/data/feats_fmllr_train_clean_100.5.ark:199412879
7367-86737-0026 /scratch/ravanelm/exp/librispeech/s5/fmllr/train_clean_100/data/feats_fmllr_train_clean_100.9.ark:115327142
2136-5140-0037 /scratch/ravanelm/exp/librispeech/s5/fmllr/train_clean_100/data/feats_fmllr_train_clean_100.2.ark:470766757
887-123291-0036 /scratch/ravanelm/exp/librispeech/s5/fmllr/train_clean_100/data/feats_fmllr_train_clean_100.10.ark:499378158
4813-248641-0035 /scratch/ravanelm/exp/librispeech/s5/fmllr/train_clean_100/data/feats_fmllr_train_clean_100.6.ark:333092580
4340-15220-0030 /scratch/ravanelm/exp/librispeech/s5/fmllr/train_clean_100/data/feats_fmllr_train_clean_100.5.ark:568001171
831-130739-0035 /scratch/ravanelm/exp/librispeech/s5/fmllr/train_clean_100/data/feats_fmllr_train_clean_100.10.ark:88914095
322-124146-0000 /scratch/ravanelm/exp/librispeech/s5/fmllr/train_clean_100/data/feats_fmllr_train_clean_100.4.ark:204566655
2136-5143-0035 /scratch/ravanelm/exp/librispeech/s5/fmllr/train_clean_100/data/feats_fmllr_train_clean_100.2.ark:477950967
250-142276-0007 /scratch/ravanelm/exp/librispeech/s5/fmllr/train_clean_100/data/feats_fmllr_train_clean_100.3.ark:203032746
7794-295948-0013 /scratch/ravanelm/exp/librispeech/s5/fmllr/train_clean_100/data/feats_fmllr_train_clean_100.9.ark:314199213
5192-19396-0025 /scratch/ravanelm/exp/librispeech/s5/fmllr/train_clean_100/data/feats_fmllr_train_clean_100.6.ark:527909047
8095-274348-0010 /scratch/ravanelm/exp/librispeech/s5/fmllr/train_clean_100/data/feats_fmllr_train_clean_100.9.ark:501998463
2817-142371-0011 /scratch/ravanelm/exp/librispeech/s5/fmllr/train_clean_100/data/feats_fmllr_train_clean_100.3.ark:387672932
7800-283493-0006 /scratch/ravanelm/exp/librispeech/s5/fmllr/train_clean_100/data/feats_fmllr_train_clean_100.9.ark:366016895
4297-13009-0005 /scratch/ravanelm/exp/librispeech/s5/fmllr/train_clean_100/data/feats_fmllr_train_clean_100.5.ark:548267470
5163-39921-0037 /scratch/ravanelm/exp/librispeech/s5/fmllr/train_clean_100/data/feats_fmllr_train_clean_100.6.ark:518860452
1578-140049-0014 /scratch/ravanelm/exp/librispeech/s5/fmllr/train_clean_100/data/feats_fmllr_train_clean_100.1.ark:489814398
3486-166446-0017 /scratch/ravanelm/exp/librispeech/s5/fmllr/train_clean_100/data/feats_fmllr_train_clean_100.4.ark:452570929
328-129766-0042 /scratch/ravanelm/exp/librispeech/s5/fmllr/train_clean_100/data/feats_fmllr_train_clean_100.4.ark:332816706
4859-29340-0009 /scratch/ravanelm/exp/librispeech/s5/fmllr/train_clean_100/data/feats_fmllr_train_clean_100.6.ark:397750957
1334-135589-0048 /scratch/ravanelm/exp/librispeech/s5/fmllr/train_clean_100/data/feats_fmllr_train_clean_100.1.ark:307976533
8063-274112-0010 /scratch/ravanelm/exp/librispeech/s5/fmllr/train_clean_100/data/feats_fmllr_train_clean_100.9.ark:433096575
8098-278278-0025 /scratch/ravanelm/exp/librispeech/s5/fmllr/train_clean_100/data/feats_fmllr_train_clean_100.9.ark:524513119
2289-152254-0017 /scratch/ravanelm/exp/librispeech/s5/fmllr/train_clean_100/data/feats_fmllr_train_clean_100.3.ark:24667145
5789-57158-0029 /scratch/ravanelm/exp/librispeech/s5/fmllr/train_clean_100/data/feats_fmllr_train_clean_100.7.ark:278270788
1867-148436-0037 /scratch/ravanelm/exp/librispeech/s5/fmllr/train_clean_100/data/feats_fmllr_train_clean_100.2.ark:119844462
1098-133695-0049 /scratch/ravanelm/exp/librispeech/s5/fmllr/train_clean_100/data/feats_fmllr_train_clean_100.1.ark:135792767
3879-174923-0041 /scratch/ravanelm/exp/librispeech/s5/fmllr/train_clean_100/data/feats_fmllr_train_clean_100.5.ark:110246468
1841-159771-0001 /scratch/ravanelm/exp/librispeech/s5/fmllr/train_clean_100/data/feats_fmllr_train_clean_100.2.ark:96498286
200-124140-0009 /scratch/ravanelm/exp/librispeech/s5/fmllr/train_clean_100/data/feats_fmllr_train_clean_100.2.ark:328318297
26-495-0079 /scratch/ravanelm/exp/librispeech/s5/fmllr/train_clean_100/data/feats_fmllr_train_clean_100.3.ark:310330990
5393-19218-0039 /scratch/ravanelm/exp/librispeech/s5/fmllr/train_clean_100/data/feats_fmllr_train_clean_100.7.ark:31658741
3168-173564-0003 /scratch/ravanelm/exp/librispeech/s5/fmllr/train_clean_100/data/feats_fmllr_train_clean_100.4.ark:135230810
5390-30096-0015 /scratch/ravanelm/exp/librispeech/s5/fmllr/train_clean_100/data/feats_fmllr_train_clean_100.7.ark:13244431
1455-134435-0048 /scratch/ravanelm/exp/librispeech/s5/fmllr/train_clean_100/data/feats_fmllr_train_clean_100.1.ark:395677424
201-127786-0028 /scratch/ravanelm/exp/librispeech/s5/fmllr/train_clean_100/data/feats_fmllr_train_clean_100.2.ark:404427436
8975-270782-0090 /scratch/ravanelm/exp/librispeech/s5/fmllr/train_clean_100/data/feats_fmllr_train_clean_100.10.ark:543891297
6531-61334-0031 /scratch/ravanelm/exp/librispeech/s5/fmllr/train_clean_100/data/feats_fmllr_train_clean_100.8.ark:222295081
7505-258964-0032 /scratch/ravanelm/exp/librispeech/s5/fmllr/train_clean_100/data/feats_fmllr_train_clean_100.9.ark:197584968
2893-139322-0023 /scratch/ravanelm/exp/librispeech/s5/fmllr/train_clean_100/data/feats_fmllr_train_clean_100.3.ark:493368116
7113-86041-0072 /scratch/ravanelm/exp/librispeech/s5/fmllr/train_clean_100/data/feats_fmllr_train_clean_100.8.ark:506898695
3235-28433-0025 /scratch/ravanelm/exp/librispeech/s5/fmllr/train_clean_100/data/feats_fmllr_train_clean_100.4.ark:239721231
150-132655-0027 /scratch/ravanelm/exp/librispeech/s5/fmllr/train_clean_100/data/feats_fmllr_train_clean_100.1.ark:433946854
445-123860-0007 /scratch/ravanelm/exp/librispeech/s5/fmllr/train_clean_100/data/feats_fmllr_train_clean_100.6.ark:127581373
196-122152-0009 /scratch/ravanelm/exp/librispeech/s5/fmllr/train_clean_100/data/feats_fmllr_train_clean_100.2.ark:221469520
307-127535-0005 /scratch/ravanelm/exp/librispeech/s5/fmllr/train_clean_100/data/feats_fmllr_train_clean_100.4.ark:63513142
5022-29411-0020 /scratch/ravanelm/exp/librispeech/s5/fmllr/train_clean_100/data/feats_fmllr_train_clean_100.6.ark:441163454
7178-34644-0073 /scratch/ravanelm/exp/librispeech/s5/fmllr/train_clean_100/data/feats_fmllr_train_clean_100.8.ark:555178496
5561-41616-0032 /scratch/ravanelm/exp/librispeech/s5/fmllr/train_clean_100/data/feats_fmllr_train_clean_100.7.ark:129568358
5808-54425-0001 /scratch/ravanelm/exp/librispeech/s5/fmllr/train_clean_100/data/feats_fmllr_train_clean_100.7.ark:309158803
7178-34645-0038 /scratch/ravanelm/exp/librispeech/s5/fmllr/train_clean_100/data/feats_fmllr_train_clean_100.8.ark:563180727
5514-19192-0003 /scratch/ravanelm/exp/librispeech/s5/fmllr/train_clean_100/data/feats_fmllr_train_clean_100.7.ark:91650137
233-134440-0003 /scratch/ravanelm/exp/librispeech/s5/fmllr/train_clean_100/data/feats_fmllr_train_clean_100.3.ark:59480295
5456-58161-0014 /scratch/ravanelm/exp/librispeech/s5/fmllr/train_clean_100/data/feats_fmllr_train_clean_100.7.ark:53829336
2007-132570-0025 /scratch/ravanelm/exp/librispeech/s5/fmllr/train_clean_100/data/feats_fmllr_train_clean_100.2.ark:370809718
2514-149482-0007 /scratch/ravanelm/exp/librispeech/s5/fmllr/train_clean_100/data/feats_fmllr_train_clean_100.3.ark:223645521
1455-134435-0031 /scratch/ravanelm/exp/librispeech/s5/fmllr/train_clean_100/data/feats_fmllr_train_clean_100.1.ark:392464880
4859-26870-0000 /scratch/ravanelm/exp/librispeech/s5/fmllr/train_clean_100/data/feats_fmllr_train_clean_100.6.ark:390394512
8238-274553-0017 /scratch/ravanelm/exp/librispeech/s5/fmllr/train_clean_100/data/feats_fmllr_train_clean_100.10.ark:38034769
6081-41997-0015 /scratch/ravanelm/exp/librispeech/s5/fmllr/train_clean_100/data/feats_fmllr_train_clean_100.7.ark:478999338
3259-158083-0089 /scratch/ravanelm/exp/librispeech/s5/fmllr/train_clean_100/data/feats_fmllr_train_clean_100.4.ark:317175181
1235-135884-0007 /scratch/ravanelm/exp/librispeech/s5/fmllr/train_clean_100/data/feats_fmllr_train_clean_100.1.ark:212193503
4830-25904-0034 /scratch/ravanelm/exp/librispeech/s5/fmllr/train_clean_100/data/feats_fmllr_train_clean_100.6.ark:356881769
200-124140-0008 /scratch/ravanelm/exp/librispeech/s5/fmllr/train_clean_100/data/feats_fmllr_train_clean_100.2.ark:328102266
1867-154071-0025 /scratch/ravanelm/exp/librispeech/s5/fmllr/train_clean_100/data/feats_fmllr_train_clean_100.2.ark:125398830
1334-135589-0014 /scratch/ravanelm/exp/librispeech/s5/fmllr/train_clean_100/data/feats_fmllr_train_clean_100.1.ark:300560245
40-222-0052 /scratch/ravanelm/exp/librispeech/s5/fmllr/train_clean_100/data/feats_fmllr_train_clean_100.5.ark:230804290
1992-141719-0054 /scratch/ravanelm/exp/librispeech/s5/fmllr/train_clean_100/data/feats_fmllr_train_clean_100.2.ark:317799626
5778-54535-0023 /scratch/ravanelm/exp/librispeech/s5/fmllr/train_clean_100/data/feats_fmllr_train_clean_100.7.ark:266460283
6209-34599-0013 /scratch/ravanelm/exp/librispeech/s5/fmllr/train_clean_100/data/feats_fmllr_train_clean_100.7.ark:550687902
2416-152139-0034 /scratch/ravanelm/exp/librispeech/s5/fmllr/train_clean_100/data/feats_fmllr_train_clean_100.3.ark:140890781
3259-158083-0086 /scratch/ravanelm/exp/librispeech/s5/fmllr/train_clean_100/data/feats_fmllr_train_clean_100.4.ark:316660685
7402-90848-0025 /scratch/ravanelm/exp/librispeech/s5/fmllr/train_clean_100/data/feats_fmllr_train_clean_100.9.ark:150214239
4195-17507-0018 /scratch/ravanelm/exp/librispeech/s5/fmllr/train_clean_100/data/feats_fmllr_train_clean_100.5.ark:451501631
445-123857-0007 /scratch/ravanelm/exp/librispeech/s5/fmllr/train_clean_100/data/feats_fmllr_train_clean_100.6.ark:121617150
4680-16026-0017 /scratch/ravanelm/exp/librispeech/s5/fmllr/train_clean_100/data/feats_fmllr_train_clean_100.6.ark:244404984
1723-141149-0072 /scratch/ravanelm/exp/librispeech/s5/fmllr/train_clean_100/data/feats_fmllr_train_clean_100.2.ark:36582510
201-122255-0004 /scratch/ravanelm/exp/librispeech/s5/fmllr/train_clean_100/data/feats_fmllr_train_clean_100.2.ark:391129777
289-121665-0041 /scratch/ravanelm/exp/librispeech/s5/fmllr/train_clean_100/data/feats_fmllr_train_clean_100.3.ark:475850265
3607-135982-0018 /scratch/ravanelm/exp/librispeech/s5/fmllr/train_clean_100/data/feats_fmllr_train_clean_100.4.ark:486111857
5339-14134-0054 /scratch/ravanelm/exp/librispeech/s5/fmllr/train_clean_100/data/feats_fmllr_train_clean_100.6.ark:590022632
7190-90542-0064 /scratch/ravanelm/exp/librispeech/s5/fmllr/train_clean_100/data/feats_fmllr_train_clean_100.8.ark:575266422
5688-41232-0067 /scratch/ravanelm/exp/librispeech/s5/fmllr/train_clean_100/data/feats_fmllr_train_clean_100.7.ark:200926176
8051-118101-0021 /scratch/ravanelm/exp/librispeech/s5/fmllr/train_clean_100/data/feats_fmllr_train_clean_100.9.ark:411596575
26-495-0074 /scratch/ravanelm/exp/librispeech/s5/fmllr/train_clean_100/data/feats_fmllr_train_clean_100.3.ark:309162215
2952-407-0021 /scratch/ravanelm/exp/librispeech/s5/fmllr/train_clean_100/data/feats_fmllr_train_clean_100.3.ark:550096932
7078-271888-0114 /scratch/ravanelm/exp/librispeech/s5/fmllr/train_clean_100/data/feats_fmllr_train_clean_100.8.ark:491012592
4788-94904-0024 /scratch/ravanelm/exp/librispeech/s5/fmllr/train_clean_100/data/feats_fmllr_train_clean_100.6.ark:286017843
3723-171631-0001 /scratch/ravanelm/exp/librispeech/s5/fmllr/train_clean_100/data/feats_fmllr_train_clean_100.4.ark:563836104
4640-19187-0013 /scratch/ravanelm/exp/librispeech/s5/fmllr/train_clean_100/data/feats_fmllr_train_clean_100.6.ark:219609692
2436-2476-0020 /scratch/ravanelm/exp/librispeech/s5/fmllr/train_clean_100/data/feats_fmllr_train_clean_100.3.ark:153653267
1246-124548-0049 /scratch/ravanelm/exp/librispeech/s5/fmllr/train_clean_100/data/feats_fmllr_train_clean_100.1.ark:234961215
5778-12761-0043 /scratch/ravanelm/exp/librispeech/s5/fmllr/train_clean_100/data/feats_fmllr_train_clean_100.7.ark:260150553
2989-138028-0025 /scratch/ravanelm/exp/librispeech/s5/fmllr/train_clean_100/data/feats_fmllr_train_clean_100.4.ark:18540365
1069-133709-0017 /scratch/ravanelm/exp/librispeech/s5/fmllr/train_clean_100/data/feats_fmllr_train_clean_100.1.ark:69833823
200-124140-0022 /scratch/ravanelm/exp/librispeech/s5/fmllr/train_clean_100/data/feats_fmllr_train_clean_100.2.ark:330866540
2289-152257-0015 /scratch/ravanelm/exp/librispeech/s5/fmllr/train_clean_100/data/feats_fmllr_train_clean_100.3.ark:30647081
6181-216552-0051 /scratch/ravanelm/exp/librispeech/s5/fmllr/train_clean_100/data/feats_fmllr_train_clean_100.7.ark:534611404
2514-149482-0020 /scratch/ravanelm/exp/librispeech/s5/fmllr/train_clean_100/data/feats_fmllr_train_clean_100.3.ark:226616017
3982-182255-0008 /scratch/ravanelm/exp/librispeech/s5/fmllr/train_clean_100/data/feats_fmllr_train_clean_100.5.ark:177655175
6078-54013-0002 /scratch/ravanelm/exp/librispeech/s5/fmllr/train_clean_100/data/feats_fmllr_train_clean_100.7.ark:462990535
5463-39173-0033 /scratch/ravanelm/exp/librispeech/s5/fmllr/train_clean_100/data/feats_fmllr_train_clean_100.7.ark:73757102
26-496-0013 /scratch/ravanelm/exp/librispeech/s5/fmllr/train_clean_100/data/feats_fmllr_train_clean_100.3.ark:315337585
233-155990-0034 /scratch/ravanelm/exp/librispeech/s5/fmllr/train_clean_100/data/feats_fmllr_train_clean_100.3.ark:79601769
5339-14133-0037 /scratch/ravanelm/exp/librispeech/s5/fmllr/train_clean_100/data/feats_fmllr_train_clean_100.6.ark:577473458
1183-133256-0017 /scratch/ravanelm/exp/librispeech/s5/fmllr/train_clean_100/data/feats_fmllr_train_clean_100.1.ark:199964479
587-41611-0013 /scratch/ravanelm/exp/librispeech/s5/fmllr/train_clean_100/data/feats_fmllr_train_clean_100.7.ark:345660653
39-121915-0028 /scratch/ravanelm/exp/librispeech/s5/fmllr/train_clean_100/data/feats_fmllr_train_clean_100.5.ark:132984600
3235-28433-0035 /scratch/ravanelm/exp/librispeech/s5/fmllr/train_clean_100/data/feats_fmllr_train_clean_100.4.ark:241931301
8838-298545-0045 /scratch/ravanelm/exp/librispeech/s5/fmllr/train_clean_100/data/feats_fmllr_train_clean_100.10.ark:462799707
3486-166424-0039 /scratch/ravanelm/exp/librispeech/s5/fmllr/train_clean_100/data/feats_fmllr_train_clean_100.4.ark:442295281
887-123290-0010 /scratch/ravanelm/exp/librispeech/s5/fmllr/train_clean_100/data/feats_fmllr_train_clean_100.10.ark:487378440
4267-287369-0005 /scratch/ravanelm/exp/librispeech/s5/fmllr/train_clean_100/data/feats_fmllr_train_clean_100.5.ark:514168651
2007-132570-0053 /scratch/ravanelm/exp/librispeech/s5/fmllr/train_clean_100/data/feats_fmllr_train_clean_100.2.ark:376587254
911-128684-0080 /scratch/ravanelm/exp/librispeech/s5/fmllr/train_clean_100/data/feats_fmllr_train_clean_100.10.ark:589263266
7067-76047-0020 /scratch/ravanelm/exp/librispeech/s5/fmllr/train_clean_100/data/feats_fmllr_train_clean_100.8.ark:447361642
1502-122615-0011 /scratch/ravanelm/exp/librispeech/s5/fmllr/train_clean_100/data/feats_fmllr_train_clean_100.1.ark:437477886
7078-271888-0020 /scratch/ravanelm/exp/librispeech/s5/fmllr/train_clean_100/data/feats_fmllr_train_clean_100.8.ark:471377264
3242-67153-0005 /scratch/ravanelm/exp/librispeech/s5/fmllr/train_clean_100/data/feats_fmllr_train_clean_100.4.ark:277861999
4014-186175-0001 /scratch/ravanelm/exp/librispeech/s5/fmllr/train_clean_100/data/feats_fmllr_train_clean_100.5.ark:234440946
4397-15678-0015 /scratch/ravanelm/exp/librispeech/s5/fmllr/train_clean_100/data/feats_fmllr_train_clean_100.6.ark:41932755
2182-181183-0004 /scratch/ravanelm/exp/librispeech/s5/fmllr/train_clean_100/data/feats_fmllr_train_clean_100.2.ark:529417363
26-495-0035 /scratch/ravanelm/exp/librispeech/s5/fmllr/train_clean_100/data/feats_fmllr_train_clean_100.3.ark:300476842
3214-167602-0033 /scratch/ravanelm/exp/librispeech/s5/fmllr/train_clean_100/data/feats_fmllr_train_clean_100.4.ark:186329120
3235-28433-0044 /scratch/ravanelm/exp/librispeech/s5/fmllr/train_clean_100/data/feats_fmllr_train_clean_100.4.ark:243901660
7367-86737-0008 /scratch/ravanelm/exp/librispeech/s5/fmllr/train_clean_100/data/feats_fmllr_train_clean_100.9.ark:111732504
403-126855-0018 /scratch/ravanelm/exp/librispeech/s5/fmllr/train_clean_100/data/feats_fmllr_train_clean_100.5.ark:286493631
730-358-0059 /scratch/ravanelm/exp/librispeech/s5/fmllr/train_clean_100/data/feats_fmllr_train_clean_100.9.ark:65644086
7505-258964-0004 /scratch/ravanelm/exp/librispeech/s5/fmllr/train_clean_100/data/feats_fmllr_train_clean_100.9.ark:191667592
32-21631-0017 /scratch/ravanelm/exp/librispeech/s5/fmllr/train_clean_100/data/feats_fmllr_train_clean_100.4.ark:165068142
8465-246940-0003 /scratch/ravanelm/exp/librispeech/s5/fmllr/train_clean_100/data/feats_fmllr_train_clean_100.10.ark:223132531
481-123720-0079 /scratch/ravanelm/exp/librispeech/s5/fmllr/train_clean_100/data/feats_fmllr_train_clean_100.6.ark:312384010
2159-179154-0006 /scratch/ravanelm/exp/librispeech/s5/fmllr/train_clean_100/data/feats_fmllr_train_clean_100.2.ark:488263731
2817-142371-0015 /scratch/ravanelm/exp/librispeech/s5/fmllr/train_clean_100/data/feats_fmllr_train_clean_100.3.ark:388503780
3723-171115-0039 /scratch/ravanelm/exp/librispeech/s5/fmllr/train_clean_100/data/feats_fmllr_train_clean_100.4.ark:559789544
7312-92432-0003 /scratch/ravanelm/exp/librispeech/s5/fmllr/train_clean_100/data/feats_fmllr_train_clean_100.9.ark:105570423
1867-148436-0021 /scratch/ravanelm/exp/librispeech/s5/fmllr/train_clean_100/data/feats_fmllr_train_clean_100.2.ark:117588750
4406-16882-0000 /scratch/ravanelm/exp/librispeech/s5/fmllr/train_clean_100/data/feats_fmllr_train_clean_100.6.ark:48179254
2817-142371-0067 /scratch/ravanelm/exp/librispeech/s5/fmllr/train_clean_100/data/feats_fmllr_train_clean_100.3.ark:398862244
5561-41615-0028 /scratch/ravanelm/exp/librispeech/s5/fmllr/train_clean_100/data/feats_fmllr_train_clean_100.7.ark:119565115
7505-258958-0026 /scratch/ravanelm/exp/librispeech/s5/fmllr/train_clean_100/data/feats_fmllr_train_clean_100.9.ark:188414664
2182-150130-0039 /scratch/ravanelm/exp/librispeech/s5/fmllr/train_clean_100/data/feats_fmllr_train_clean_100.2.ark:520042227
1624-168623-0048 /scratch/ravanelm/exp/librispeech/s5/fmllr/train_clean_100/data/feats_fmllr_train_clean_100.1.ark:548709756
6415-116629-0011 /scratch/ravanelm/exp/librispeech/s5/fmllr/train_clean_100/data/feats_fmllr_train_clean_100.8.ark:114376506
211-122442-0008 /scratch/ravanelm/exp/librispeech/s5/fmllr/train_clean_100/data/feats_fmllr_train_clean_100.2.ark:452511452
1553-140047-0013 /scratch/ravanelm/exp/librispeech/s5/fmllr/train_clean_100/data/feats_fmllr_train_clean_100.1.ark:462009502
2764-36616-0036 /scratch/ravanelm/exp/librispeech/s5/fmllr/train_clean_100/data/feats_fmllr_train_clean_100.3.ark:368751895
6818-76332-0026 /scratch/ravanelm/exp/librispeech/s5/fmllr/train_clean_100/data/feats_fmllr_train_clean_100.8.ark:299206514
4859-26870-0024 /scratch/ravanelm/exp/librispeech/s5/fmllr/train_clean_100/data/feats_fmllr_train_clean_100.6.ark:395358936
5867-48852-0029 /scratch/ravanelm/exp/librispeech/s5/fmllr/train_clean_100/data/feats_fmllr_train_clean_100.7.ark:325645180
6880-216547-0068 /scratch/ravanelm/exp/librispeech/s5/fmllr/train_clean_100/data/feats_fmllr_train_clean_100.8.ark:368462300
412-126975-0001 /scratch/ravanelm/exp/librispeech/s5/fmllr/train_clean_100/data/feats_fmllr_train_clean_100.5.ark:379145037
3607-29116-0041 /scratch/ravanelm/exp/librispeech/s5/fmllr/train_clean_100/data/feats_fmllr_train_clean_100.4.ark:502463655
7226-86964-0054 /scratch/ravanelm/exp/librispeech/s5/fmllr/train_clean_100/data/feats_fmllr_train_clean_100.8.ark:599706333
39-121914-0042 /scratch/ravanelm/exp/librispeech/s5/fmllr/train_clean_100/data/feats_fmllr_train_clean_100.5.ark:124684750
6147-34607-0001 /scratch/ravanelm/exp/librispeech/s5/fmllr/train_clean_100/data/feats_fmllr_train_clean_100.7.ark:515867731
3526-176653-0018 /scratch/ravanelm/exp/librispeech/s5/fmllr/train_clean_100/data/feats_fmllr_train_clean_100.4.ark:475065457
1926-143879-0018 /scratch/ravanelm/exp/librispeech/s5/fmllr/train_clean_100/data/feats_fmllr_train_clean_100.2.ark:188277251
6272-70191-0015 /scratch/ravanelm/exp/librispeech/s5/fmllr/train_clean_100/data/feats_fmllr_train_clean_100.8.ark:43035398
6272-70191-0016 /scratch/ravanelm/exp/librispeech/s5/fmllr/train_clean_100/data/feats_fmllr_train_clean_100.8.ark:43245029
5463-39173-0004 /scratch/ravanelm/exp/librispeech/s5/fmllr/train_clean_100/data/feats_fmllr_train_clean_100.7.ark:67852363
32-4137-0035 /scratch/ravanelm/exp/librispeech/s5/fmllr/train_clean_100/data/feats_fmllr_train_clean_100.4.ark:175764668
233-134440-0053 /scratch/ravanelm/exp/librispeech/s5/fmllr/train_clean_100/data/feats_fmllr_train_clean_100.3.ark:70382805
8014-112602-0035 /scratch/ravanelm/exp/librispeech/s5/fmllr/train_clean_100/data/feats_fmllr_train_clean_100.9.ark:403849663
3830-12530-0032 /scratch/ravanelm/exp/librispeech/s5/fmllr/train_clean_100/data/feats_fmllr_train_clean_100.5.ark:53164947
2893-139310-0028 /scratch/ravanelm/exp/librispeech/s5/fmllr/train_clean_100/data/feats_fmllr_train_clean_100.3.ark:482549108
7780-274562-0065 /scratch/ravanelm/exp/librispeech/s5/fmllr/train_clean_100/data/feats_fmllr_train_clean_100.9.ark:292020941
6531-61334-0013 /scratch/ravanelm/exp/librispeech/s5/fmllr/train_clean_100/data/feats_fmllr_train_clean_100.8.ark:218779803
4018-107312-0029 /scratch/ravanelm/exp/librispeech/s5/fmllr/train_clean_100/data/feats_fmllr_train_clean_100.5.ark:273488370
1723-141149-0111 /scratch/ravanelm/exp/librispeech/s5/fmllr/train_clean_100/data/feats_fmllr_train_clean_100.2.ark:44971758
839-130898-0090 /scratch/ravanelm/exp/librispeech/s5/fmllr/train_clean_100/data/feats_fmllr_train_clean_100.10.ark:172135932
3112-9555-0010 /scratch/ravanelm/exp/librispeech/s5/fmllr/train_clean_100/data/feats_fmllr_train_clean_100.4.ark:117383072
4018-107312-0007 /scratch/ravanelm/exp/librispeech/s5/fmllr/train_clean_100/data/feats_fmllr_train_clean_100.5.ark:268569906
1455-134435-0065 /scratch/ravanelm/exp/librispeech/s5/fmllr/train_clean_100/data/feats_fmllr_train_clean_100.1.ark:398873168
1263-139804-0007 /scratch/ravanelm/exp/librispeech/s5/fmllr/train_clean_100/data/feats_fmllr_train_clean_100.1.ark:282748597
3526-175658-0016 /scratch/ravanelm/exp/librispeech/s5/fmllr/train_clean_100/data/feats_fmllr_train_clean_100.4.ark:461365585
6209-34601-0001 /scratch/ravanelm/exp/librispeech/s5/fmllr/train_clean_100/data/feats_fmllr_train_clean_100.7.ark:564100095
8014-112586-0013 /scratch/ravanelm/exp/librispeech/s5/fmllr/train_clean_100/data/feats_fmllr_train_clean_100.9.ark:396283967
4441-76262-0018 /scratch/ravanelm/exp/librispeech/s5/fmllr/train_clean_100/data/feats_fmllr_train_clean_100.6.ark:107967336
4859-26870-0008 /scratch/ravanelm/exp/librispeech/s5/fmllr/train_clean_100/data/feats_fmllr_train_clean_100.6.ark:392084840
7800-283493-0012 /scratch/ravanelm/exp/librispeech/s5/fmllr/train_clean_100/data/feats_fmllr_train_clean_100.9.ark:367277087
7264-92316-0016 /scratch/ravanelm/exp/librispeech/s5/fmllr/train_clean_100/data/feats_fmllr_train_clean_100.9.ark:27099437
6476-96661-0016 /scratch/ravanelm/exp/librispeech/s5/fmllr/train_clean_100/data/feats_fmllr_train_clean_100.8.ark:189972929
2989-138035-0038 /scratch/ravanelm/exp/librispeech/s5/fmllr/train_clean_100/data/feats_fmllr_train_clean_100.4.ark:32389453
5678-43302-0000 /scratch/ravanelm/exp/librispeech/s5/fmllr/train_clean_100/data/feats_fmllr_train_clean_100.7.ark:161048513
4014-186179-0002 /scratch/ravanelm/exp/librispeech/s5/fmllr/train_clean_100/data/feats_fmllr_train_clean_100.5.ark:246732370
307-127539-0034 /scratch/ravanelm/exp/librispeech/s5/fmllr/train_clean_100/data/feats_fmllr_train_clean_100.4.ark:77134667
4481-17498-0003 /scratch/ravanelm/exp/librispeech/s5/fmllr/train_clean_100/data/feats_fmllr_train_clean_100.6.ark:155434967
3664-178366-0026 /scratch/ravanelm/exp/librispeech/s5/fmllr/train_clean_100/data/feats_fmllr_train_clean_100.4.ark:524789059
446-123501-0055 /scratch/ravanelm/exp/librispeech/s5/fmllr/train_clean_100/data/feats_fmllr_train_clean_100.6.ark:143087218
8238-283452-0023 /scratch/ravanelm/exp/librispeech/s5/fmllr/train_clean_100/data/feats_fmllr_train_clean_100.10.ark:53494801
7078-271888-0083 /scratch/ravanelm/exp/librispeech/s5/fmllr/train_clean_100/data/feats_fmllr_train_clean_100.8.ark:484595760
6836-76549-0024 /scratch/ravanelm/exp/librispeech/s5/fmllr/train_clean_100/data/feats_fmllr_train_clean_100.8.ark:328320072
3830-12531-0018 /scratch/ravanelm/exp/librispeech/s5/fmllr/train_clean_100/data/feats_fmllr_train_clean_100.5.ark:59687539
6272-70171-0013 /scratch/ravanelm/exp/librispeech/s5/fmllr/train_clean_100/data/feats_fmllr_train_clean_100.8.ark:33825394
1737-146161-0007 /scratch/ravanelm/exp/librispeech/s5/fmllr/train_clean_100/data/feats_fmllr_train_clean_100.2.ark:59192718
1553-140048-0038 /scratch/ravanelm/exp/librispeech/s5/fmllr/train_clean_100/data/feats_fmllr_train_clean_100.1.ark:478167326
2384-152900-0065 /scratch/ravanelm/exp/librispeech/s5/fmllr/train_clean_100/data/feats_fmllr_train_clean_100.3.ark:96618173
7278-104730-0027 /scratch/ravanelm/exp/librispeech/s5/fmllr/train_clean_100/data/feats_fmllr_train_clean_100.9.ark:37552592
1502-122619-0088 /scratch/ravanelm/exp/librispeech/s5/fmllr/train_clean_100/data/feats_fmllr_train_clean_100.1.ark:457899198
4898-20016-0027 /scratch/ravanelm/exp/librispeech/s5/fmllr/train_clean_100/data/feats_fmllr_train_clean_100.6.ark:410307537
4788-91208-0027 /scratch/ravanelm/exp/librispeech/s5/fmllr/train_clean_100/data/feats_fmllr_train_clean_100.6.ark:278808691
2910-131096-0092 /scratch/ravanelm/exp/librispeech/s5/fmllr/train_clean_100/data/feats_fmllr_train_clean_100.3.ark:521018100
1246-124548-0031 /scratch/ravanelm/exp/librispeech/s5/fmllr/train_clean_100/data/feats_fmllr_train_clean_100.1.ark:231678719
2691-156755-0035 /scratch/ravanelm/exp/librispeech/s5/fmllr/train_clean_100/data/feats_fmllr_train_clean_100.3.ark:341748336
1235-135883-0001 /scratch/ravanelm/exp/librispeech/s5/fmllr/train_clean_100/data/feats_fmllr_train_clean_100.1.ark:201429599
458-126305-0019 /scratch/ravanelm/exp/librispeech/s5/fmllr/train_clean_100/data/feats_fmllr_train_clean_100.6.ark:188995519
5703-47198-0021 /scratch/ravanelm/exp/librispeech/s5/fmllr/train_clean_100/data/feats_fmllr_train_clean_100.7.ark:207948737
625-132112-0056 /scratch/ravanelm/exp/librispeech/s5/fmllr/train_clean_100/data/feats_fmllr_train_clean_100.8.ark:12211352
4160-11550-0017 /scratch/ravanelm/exp/librispeech/s5/fmllr/train_clean_100/data/feats_fmllr_train_clean_100.5.ark:436678821
8063-274117-0020 /scratch/ravanelm/exp/librispeech/s5/fmllr/train_clean_100/data/feats_fmllr_train_clean_100.9.ark:453206463
19-227-0010 /scratch/ravanelm/exp/librispeech/s5/fmllr/train_clean_100/data/feats_fmllr_train_clean_100.2.ark:172176889
4195-186236-0005 /scratch/ravanelm/exp/librispeech/s5/fmllr/train_clean_100/data/feats_fmllr_train_clean_100.5.ark:456952673
39-121915-0009 /scratch/ravanelm/exp/librispeech/s5/fmllr/train_clean_100/data/feats_fmllr_train_clean_100.5.ark:129204990
8063-274116-0032 /scratch/ravanelm/exp/librispeech/s5/fmllr/train_clean_100/data/feats_fmllr_train_clean_100.9.ark:449634975
6000-55211-0047 /scratch/ravanelm/exp/librispeech/s5/fmllr/train_clean_100/data/feats_fmllr_train_clean_100.7.ark:396074701
2196-174172-0011 /scratch/ravanelm/exp/librispeech/s5/fmllr/train_clean_100/data/feats_fmllr_train_clean_100.2.ark:552253171
5561-41616-0033 /scratch/ravanelm/exp/librispeech/s5/fmllr/train_clean_100/data/feats_fmllr_train_clean_100.7.ark:129824229
3982-178459-0032 /scratch/ravanelm/exp/librispeech/s5/fmllr/train_clean_100/data/feats_fmllr_train_clean_100.5.ark:168913959
3436-172162-0039 /scratch/ravanelm/exp/librispeech/s5/fmllr/train_clean_100/data/feats_fmllr_train_clean_100.4.ark:394087217
6181-216552-0080 /scratch/ravanelm/exp/librispeech/s5/fmllr/train_clean_100/data/feats_fmllr_train_clean_100.7.ark:540869452
8425-292520-0027 /scratch/ravanelm/exp/librispeech/s5/fmllr/train_clean_100/data/feats_fmllr_train_clean_100.10.ark:221710899
2416-152139-0012 /scratch/ravanelm/exp/librispeech/s5/fmllr/train_clean_100/data/feats_fmllr_train_clean_100.3.ark:136424637
405-130895-0005 /scratch/ravanelm/exp/librispeech/s5/fmllr/train_clean_100/data/feats_fmllr_train_clean_100.5.ark:324516404
1116-137572-0034 /scratch/ravanelm/exp/librispeech/s5/fmllr/train_clean_100/data/feats_fmllr_train_clean_100.1.ark:163325631
4813-248638-0027 /scratch/ravanelm/exp/librispeech/s5/fmllr/train_clean_100/data/feats_fmllr_train_clean_100.6.ark:319198372
8975-270782-0019 /scratch/ravanelm/exp/librispeech/s5/fmllr/train_clean_100/data/feats_fmllr_train_clean_100.10.ark:528764065
2182-181173-0016 /scratch/ravanelm/exp/librispeech/s5/fmllr/train_clean_100/data/feats_fmllr_train_clean_100.2.ark:523894931
40-222-0059 /scratch/ravanelm/exp/librispeech/s5/fmllr/train_clean_100/data/feats_fmllr_train_clean_100.5.ark:232263199
6415-100596-0005 /scratch/ravanelm/exp/librispeech/s5/fmllr/train_clean_100/data/feats_fmllr_train_clean_100.8.ark:97180282
1970-10594-0024 /scratch/ravanelm/exp/librispeech/s5/fmllr/train_clean_100/data/feats_fmllr_train_clean_100.2.ark:263243070
4137-11701-0026 /scratch/ravanelm/exp/librispeech/s5/fmllr/train_clean_100/data/feats_fmllr_train_clean_100.5.ark:405742677
4051-10927-0003 /scratch/ravanelm/exp/librispeech/s5/fmllr/train_clean_100/data/feats_fmllr_train_clean_100.5.ark:331211120
1088-129236-0022 /scratch/ravanelm/exp/librispeech/s5/fmllr/train_clean_100/data/feats_fmllr_train_clean_100.1.ark:106975039
460-172359-0003 /scratch/ravanelm/exp/librispeech/s5/fmllr/train_clean_100/data/feats_fmllr_train_clean_100.6.ark:199163082
5192-19397-0047 /scratch/ravanelm/exp/librispeech/s5/fmllr/train_clean_100/data/feats_fmllr_train_clean_100.6.ark:539151712
250-140277-0014 /scratch/ravanelm/exp/librispeech/s5/fmllr/train_clean_100/data/feats_fmllr_train_clean_100.3.ark:200871956
4018-107338-0030 /scratch/ravanelm/exp/librispeech/s5/fmllr/train_clean_100/data/feats_fmllr_train_clean_100.5.ark:281907858
8123-275209-0013 /scratch/ravanelm/exp/librispeech/s5/fmllr/train_clean_100/data/feats_fmllr_train_clean_100.9.ark:561093823
1970-10594-0027 /scratch/ravanelm/exp/librispeech/s5/fmllr/train_clean_100/data/feats_fmllr_train_clean_100.2.ark:263781883
3699-19401-0004 /scratch/ravanelm/exp/librispeech/s5/fmllr/train_clean_100/data/feats_fmllr_train_clean_100.4.ark:533556318
1743-142913-0028 /scratch/ravanelm/exp/librispeech/s5/fmllr/train_clean_100/data/feats_fmllr_train_clean_100.2.ark:82196462
7113-86041-0001 /scratch/ravanelm/exp/librispeech/s5/fmllr/train_clean_100/data/feats_fmllr_train_clean_100.8.ark:491310254
3259-158083-0097 /scratch/ravanelm/exp/librispeech/s5/fmllr/train_clean_100/data/feats_fmllr_train_clean_100.4.ark:318834477
8425-291444-0003 /scratch/ravanelm/exp/librispeech/s5/fmllr/train_clean_100/data/feats_fmllr_train_clean_100.10.ark:212313651
6529-62554-0014 /scratch/ravanelm/exp/librispeech/s5/fmllr/train_clean_100/data/feats_fmllr_train_clean_100.8.ark:195846277
1926-147979-0001 /scratch/ravanelm/exp/librispeech/s5/fmllr/train_clean_100/data/feats_fmllr_train_clean_100.2.ark:193271491
1553-140047-0017 /scratch/ravanelm/exp/librispeech/s5/fmllr/train_clean_100/data/feats_fmllr_train_clean_100.1.ark:462948990
8312-279790-0026 /scratch/ravanelm/exp/librispeech/s5/fmllr/train_clean_100/data/feats_fmllr_train_clean_100.10.ark:112509687
7794-295955-0019 /scratch/ravanelm/exp/librispeech/s5/fmllr/train_clean_100/data/feats_fmllr_train_clean_100.9.ark:321635629
4397-15666-0020 /scratch/ravanelm/exp/librispeech/s5/fmllr/train_clean_100/data/feats_fmllr_train_clean_100.6.ark:28477713
1502-122619-0093 /scratch/ravanelm/exp/librispeech/s5/fmllr/train_clean_100/data/feats_fmllr_train_clean_100.1.ark:458553118
1246-124548-0025 /scratch/ravanelm/exp/librispeech/s5/fmllr/train_clean_100/data/feats_fmllr_train_clean_100.1.ark:230248607
4397-15678-0010 /scratch/ravanelm/exp/librispeech/s5/fmllr/train_clean_100/data/feats_fmllr_train_clean_100.6.ark:40834840
196-122159-0022 /scratch/ravanelm/exp/librispeech/s5/fmllr/train_clean_100/data/feats_fmllr_train_clean_100.2.ark:231863297
1841-159771-0040 /scratch/ravanelm/exp/librispeech/s5/fmllr/train_clean_100/data/feats_fmllr_train_clean_100.2.ark:104694734
4898-28461-0009 /scratch/ravanelm/exp/librispeech/s5/fmllr/train_clean_100/data/feats_fmllr_train_clean_100.6.ark:415526970
7059-88364-0030 /scratch/ravanelm/exp/librispeech/s5/fmllr/train_clean_100/data/feats_fmllr_train_clean_100.8.ark:441695107
1447-130551-0028 /scratch/ravanelm/exp/librispeech/s5/fmllr/train_clean_100/data/feats_fmllr_train_clean_100.1.ark:373252883
8797-294123-0049 /scratch/ravanelm/exp/librispeech/s5/fmllr/train_clean_100/data/feats_fmllr_train_clean_100.10.ark:440889947
6563-285357-0037 /scratch/ravanelm/exp/librispeech/s5/fmllr/train_clean_100/data/feats_fmllr_train_clean_100.8.ark:245622948
412-126975-0015 /scratch/ravanelm/exp/librispeech/s5/fmllr/train_clean_100/data/feats_fmllr_train_clean_100.5.ark:382296351
201-127786-0043 /scratch/ravanelm/exp/librispeech/s5/fmllr/train_clean_100/data/feats_fmllr_train_clean_100.2.ark:407295741
4014-186183-0026 /scratch/ravanelm/exp/librispeech/s5/fmllr/train_clean_100/data/feats_fmllr_train_clean_100.5.ark:257551442
4051-10927-0024 /scratch/ravanelm/exp/librispeech/s5/fmllr/train_clean_100/data/feats_fmllr_train_clean_100.5.ark:335514651
6848-252323-0008 /scratch/ravanelm/exp/librispeech/s5/fmllr/train_clean_100/data/feats_fmllr_train_clean_100.8.ark:338838912
8238-274553-0009 /scratch/ravanelm/exp/librispeech/s5/fmllr/train_clean_100/data/feats_fmllr_train_clean_100.10.ark:36346833
4441-76250-0023 /scratch/ravanelm/exp/librispeech/s5/fmllr/train_clean_100/data/feats_fmllr_train_clean_100.6.ark:101299082
7113-86041-0064 /scratch/ravanelm/exp/librispeech/s5/fmllr/train_clean_100/data/feats_fmllr_train_clean_100.8.ark:504967087
1743-142913-0024 /scratch/ravanelm/exp/librispeech/s5/fmllr/train_clean_100/data/feats_fmllr_train_clean_100.2.ark:81270094
7447-91186-0023 /scratch/ravanelm/exp/librispeech/s5/fmllr/train_clean_100/data/feats_fmllr_train_clean_100.9.ark:162938530
3982-178459-0055 /scratch/ravanelm/exp/librispeech/s5/fmllr/train_clean_100/data/feats_fmllr_train_clean_100.5.ark:173691655
839-130898-0093 /scratch/ravanelm/exp/librispeech/s5/fmllr/train_clean_100/data/feats_fmllr_train_clean_100.10.ark:172831705
6476-57446-0024 /scratch/ravanelm/exp/librispeech/s5/fmllr/train_clean_100/data/feats_fmllr_train_clean_100.8.ark:174117169
2518-154826-0030 /scratch/ravanelm/exp/librispeech/s5/fmllr/train_clean_100/data/feats_fmllr_train_clean_100.3.ark:264771697
6064-56168-0003 /scratch/ravanelm/exp/librispeech/s5/fmllr/train_clean_100/data/feats_fmllr_train_clean_100.7.ark:445035260
8324-286682-0047 /scratch/ravanelm/exp/librispeech/s5/fmllr/train_clean_100/data/feats_fmllr_train_clean_100.10.ark:146570231
481-123720-0083 /scratch/ravanelm/exp/librispeech/s5/fmllr/train_clean_100/data/feats_fmllr_train_clean_100.6.ark:313151334
446-123501-0025 /scratch/ravanelm/exp/librispeech/s5/fmllr/train_clean_100/data/feats_fmllr_train_clean_100.6.ark:136529168
5678-43302-0026 /scratch/ravanelm/exp/librispeech/s5/fmllr/train_clean_100/data/feats_fmllr_train_clean_100.7.ark:166967239
2182-181183-0007 /scratch/ravanelm/exp/librispeech/s5/fmllr/train_clean_100/data/feats_fmllr_train_clean_100.2.ark:530137459
5322-7678-0015 /scratch/ravanelm/exp/librispeech/s5/fmllr/train_clean_100/data/feats_fmllr_train_clean_100.6.ark:549402810
1867-148436-0003 /scratch/ravanelm/exp/librispeech/s5/fmllr/train_clean_100/data/feats_fmllr_train_clean_100.2.ark:114277774
6818-68772-0004 /scratch/ravanelm/exp/librispeech/s5/fmllr/train_clean_100/data/feats_fmllr_train_clean_100.8.ark:282992922
8468-294887-0003 /scratch/ravanelm/exp/librispeech/s5/fmllr/train_clean_100/data/feats_fmllr_train_clean_100.10.ark:255165139
730-358-0038 /scratch/ravanelm/exp/librispeech/s5/fmllr/train_clean_100/data/feats_fmllr_train_clean_100.9.ark:62781738
5322-7679-0035 /scratch/ravanelm/exp/librispeech/s5/fmllr/train_clean_100/data/feats_fmllr_train_clean_100.6.ark:562558050
3607-135982-0050 /scratch/ravanelm/exp/librispeech/s5/fmllr/train_clean_100/data/feats_fmllr_train_clean_100.4.ark:493342641
26-495-0082 /scratch/ravanelm/exp/librispeech/s5/fmllr/train_clean_100/data/feats_fmllr_train_clean_100.3.ark:310870591
1081-125237-0090 /scratch/ravanelm/exp/librispeech/s5/fmllr/train_clean_100/data/feats_fmllr_train_clean_100.1.ark:95370015
5561-41615-0027 /scratch/ravanelm/exp/librispeech/s5/fmllr/train_clean_100/data/feats_fmllr_train_clean_100.7.ark:119467004
332-128985-0046 /scratch/ravanelm/exp/librispeech/s5/fmllr/train_clean_100/data/feats_fmllr_train_clean_100.4.ark:352512699
3486-166424-0042 /scratch/ravanelm/exp/librispeech/s5/fmllr/train_clean_100/data/feats_fmllr_train_clean_100.4.ark:442957937
909-131044-0001 /scratch/ravanelm/exp/librispeech/s5/fmllr/train_clean_100/data/feats_fmllr_train_clean_100.10.ark:555700799
4853-27670-0008 /scratch/ravanelm/exp/librispeech/s5/fmllr/train_clean_100/data/feats_fmllr_train_clean_100.6.ark:362567504
5104-33407-0024 /scratch/ravanelm/exp/librispeech/s5/fmllr/train_clean_100/data/feats_fmllr_train_clean_100.6.ark:494560118
4853-27671-0026 /scratch/ravanelm/exp/librispeech/s5/fmllr/train_clean_100/data/feats_fmllr_train_clean_100.6.ark:374319769
3112-9555-0027 /scratch/ravanelm/exp/librispeech/s5/fmllr/train_clean_100/data/feats_fmllr_train_clean_100.4.ark:120812542
6019-3185-0101 /scratch/ravanelm/exp/librispeech/s5/fmllr/train_clean_100/data/feats_fmllr_train_clean_100.7.ark:425635801
4160-14187-0016 /scratch/ravanelm/exp/librispeech/s5/fmllr/train_clean_100/data/feats_fmllr_train_clean_100.5.ark:445451710
7067-76048-0008 /scratch/ravanelm/exp/librispeech/s5/fmllr/train_clean_100/data/feats_fmllr_train_clean_100.8.ark:455856420
460-172359-0041 /scratch/ravanelm/exp/librispeech/s5/fmllr/train_clean_100/data/feats_fmllr_train_clean_100.6.ark:206708580
5192-19397-0022 /scratch/ravanelm/exp/librispeech/s5/fmllr/train_clean_100/data/feats_fmllr_train_clean_100.6.ark:533964697
1737-142396-0008 /scratch/ravanelm/exp/librispeech/s5/fmllr/train_clean_100/data/feats_fmllr_train_clean_100.2.ark:46663566
7148-82991-0010 /scratch/ravanelm/exp/librispeech/s5/fmllr/train_clean_100/data/feats_fmllr_train_clean_100.8.ark:533658436
1098-133695-0006 /scratch/ravanelm/exp/librispeech/s5/fmllr/train_clean_100/data/feats_fmllr_train_clean_100.1.ark:127502751
6836-76549-0025 /scratch/ravanelm/exp/librispeech/s5/fmllr/train_clean_100/data/feats_fmllr_train_clean_100.8.ark:328533223
3436-172171-0029 /scratch/ravanelm/exp/librispeech/s5/fmllr/train_clean_100/data/feats_fmllr_train_clean_100.4.ark:402700913
5678-43302-0013 /scratch/ravanelm/exp/librispeech/s5/fmllr/train_clean_100/data/feats_fmllr_train_clean_100.7.ark:163987156
2136-5143-0034 /scratch/ravanelm/exp/librispeech/s5/fmllr/train_clean_100/data/feats_fmllr_train_clean_100.2.ark:477879577
5789-57195-0016 /scratch/ravanelm/exp/librispeech/s5/fmllr/train_clean_100/data/feats_fmllr_train_clean_100.7.ark:283771052
1502-122619-0066 /scratch/ravanelm/exp/librispeech/s5/fmllr/train_clean_100/data/feats_fmllr_train_clean_100.1.ark:454528734
1737-142397-0008 /scratch/ravanelm/exp/librispeech/s5/fmllr/train_clean_100/data/feats_fmllr_train_clean_100.2.ark:51188494
1088-134315-0034 /scratch/ravanelm/exp/librispeech/s5/fmllr/train_clean_100/data/feats_fmllr_train_clean_100.1.ark:116037535
6563-285357-0033 /scratch/ravanelm/exp/librispeech/s5/fmllr/train_clean_100/data/feats_fmllr_train_clean_100.8.ark:244644900
3879-173592-0026 /scratch/ravanelm/exp/librispeech/s5/fmllr/train_clean_100/data/feats_fmllr_train_clean_100.5.ark:98104580
6529-62556-0011 /scratch/ravanelm/exp/librispeech/s5/fmllr/train_clean_100/data/feats_fmllr_train_clean_100.8.ark:208081391
1594-135914-0080 /scratch/ravanelm/exp/librispeech/s5/fmllr/train_clean_100/data/feats_fmllr_train_clean_100.1.ark:519623868
1040-133433-0052 /scratch/ravanelm/exp/librispeech/s5/fmllr/train_clean_100/data/feats_fmllr_train_clean_100.1.ark:48537791
412-126975-0024 /scratch/ravanelm/exp/librispeech/s5/fmllr/train_clean_100/data/feats_fmllr_train_clean_100.5.ark:384250870
254-127705-0038 /scratch/ravanelm/exp/librispeech/s5/fmllr/train_clean_100/data/feats_fmllr_train_clean_100.3.ark:281829374
3830-12531-0023 /scratch/ravanelm/exp/librispeech/s5/fmllr/train_clean_100/data/feats_fmllr_train_clean_100.5.ark:60831854
4214-7146-0041 /scratch/ravanelm/exp/librispeech/s5/fmllr/train_clean_100/data/feats_fmllr_train_clean_100.5.ark:480100333
2436-2481-0002 /scratch/ravanelm/exp/librispeech/s5/fmllr/train_clean_100/data/feats_fmllr_train_clean_100.3.ark:166421307
1081-125237-0023 /scratch/ravanelm/exp/librispeech/s5/fmllr/train_clean_100/data/feats_fmllr_train_clean_100.1.ark:81886271
2764-36619-0033 /scratch/ravanelm/exp/librispeech/s5/fmllr/train_clean_100/data/feats_fmllr_train_clean_100.3.ark:383925260
445-123857-0026 /scratch/ravanelm/exp/librispeech/s5/fmllr/train_clean_100/data/feats_fmllr_train_clean_100.6.ark:124992299
5789-57195-0026 /scratch/ravanelm/exp/librispeech/s5/fmllr/train_clean_100/data/feats_fmllr_train_clean_100.7.ark:286059362
2002-139469-0045 /scratch/ravanelm/exp/librispeech/s5/fmllr/train_clean_100/data/feats_fmllr_train_clean_100.2.ark:351940086
7447-91187-0065 /scratch/ravanelm/exp/librispeech/s5/fmllr/train_clean_100/data/feats_fmllr_train_clean_100.9.ark:181674476
3983-5371-0046 /scratch/ravanelm/exp/librispeech/s5/fmllr/train_clean_100/data/feats_fmllr_train_clean_100.5.ark:207599549
4340-15220-0050 /scratch/ravanelm/exp/librispeech/s5/fmllr/train_clean_100/data/feats_fmllr_train_clean_100.5.ark:572349471
6000-86686-0020 /scratch/ravanelm/exp/librispeech/s5/fmllr/train_clean_100/data/feats_fmllr_train_clean_100.7.ark:402598186
5652-19215-0010 /scratch/ravanelm/exp/librispeech/s5/fmllr/train_clean_100/data/feats_fmllr_train_clean_100.7.ark:132821845
2911-7601-0048 /scratch/ravanelm/exp/librispeech/s5/fmllr/train_clean_100/data/feats_fmllr_train_clean_100.3.ark:544852204
1963-142393-0055 /scratch/ravanelm/exp/librispeech/s5/fmllr/train_clean_100/data/feats_fmllr_train_clean_100.2.ark:244983959
3857-182315-0044 /scratch/ravanelm/exp/librispeech/s5/fmllr/train_clean_100/data/feats_fmllr_train_clean_100.5.ark:84517156
3112-9555-0019 /scratch/ravanelm/exp/librispeech/s5/fmllr/train_clean_100/data/feats_fmllr_train_clean_100.4.ark:119132462
426-122819-0002 /scratch/ravanelm/exp/librispeech/s5/fmllr/train_clean_100/data/feats_fmllr_train_clean_100.5.ark:489582236
446-123501-0011 /scratch/ravanelm/exp/librispeech/s5/fmllr/train_clean_100/data/feats_fmllr_train_clean_100.6.ark:133548734
4640-19188-0020 /scratch/ravanelm/exp/librispeech/s5/fmllr/train_clean_100/data/feats_fmllr_train_clean_100.6.ark:228360651
7190-90542-0013 /scratch/ravanelm/exp/librispeech/s5/fmllr/train_clean_100/data/feats_fmllr_train_clean_100.8.ark:565571241
3486-166424-0036 /scratch/ravanelm/exp/librispeech/s5/fmllr/train_clean_100/data/feats_fmllr_train_clean_100.4.ark:441653905
8324-286682-0027 /scratch/ravanelm/exp/librispeech/s5/fmllr/train_clean_100/data/feats_fmllr_train_clean_100.10.ark:142030551
6081-41998-0010 /scratch/ravanelm/exp/librispeech/s5/fmllr/train_clean_100/data/feats_fmllr_train_clean_100.7.ark:486149352
4859-22176-0007 /scratch/ravanelm/exp/librispeech/s5/fmllr/train_clean_100/data/feats_fmllr_train_clean_100.6.ark:386456834
322-124147-0009 /scratch/ravanelm/exp/librispeech/s5/fmllr/train_clean_100/data/feats_fmllr_train_clean_100.4.ark:213244752
6367-65536-0053 /scratch/ravanelm/exp/librispeech/s5/fmllr/train_clean_100/data/feats_fmllr_train_clean_100.8.ark:59640314
5808-48608-0050 /scratch/ravanelm/exp/librispeech/s5/fmllr/train_clean_100/data/feats_fmllr_train_clean_100.7.ark:307037791
5390-30096-0014 /scratch/ravanelm/exp/librispeech/s5/fmllr/train_clean_100/data/feats_fmllr_train_clean_100.7.ark:13000240
1898-145715-0042 /scratch/ravanelm/exp/librispeech/s5/fmllr/train_clean_100/data/feats_fmllr_train_clean_100.2.ark:149828046
78-369-0028 /scratch/ravanelm/exp/librispeech/s5/fmllr/train_clean_100/data/feats_fmllr_train_clean_100.9.ark:341169774
7226-86965-0029 /scratch/ravanelm/exp/librispeech/s5/fmllr/train_clean_100/data/feats_fmllr_train_clean_100.9.ark:5953235
1970-28415-0029 /scratch/ravanelm/exp/librispeech/s5/fmllr/train_clean_100/data/feats_fmllr_train_clean_100.2.ark:280273127
6272-70191-0036 /scratch/ravanelm/exp/librispeech/s5/fmllr/train_clean_100/data/feats_fmllr_train_clean_100.8.ark:47610929
6836-61803-0019 /scratch/ravanelm/exp/librispeech/s5/fmllr/train_clean_100/data/feats_fmllr_train_clean_100.8.ark:310332704
19-227-0038 /scratch/ravanelm/exp/librispeech/s5/fmllr/train_clean_100/data/feats_fmllr_train_clean_100.2.ark:178272045
426-122822-0012 /scratch/ravanelm/exp/librispeech/s5/fmllr/train_clean_100/data/feats_fmllr_train_clean_100.5.ark:508426626
4160-11549-0030 /scratch/ravanelm/exp/librispeech/s5/fmllr/train_clean_100/data/feats_fmllr_train_clean_100.5.ark:430913055
7190-90542-0039 /scratch/ravanelm/exp/librispeech/s5/fmllr/train_clean_100/data/feats_fmllr_train_clean_100.8.ark:570200207
2007-132570-0020 /scratch/ravanelm/exp/librispeech/s5/fmllr/train_clean_100/data/feats_fmllr_train_clean_100.2.ark:369847798
5703-47212-0029 /scratch/ravanelm/exp/librispeech/s5/fmllr/train_clean_100/data/feats_fmllr_train_clean_100.7.ark:222505085
3374-298026-0014 /scratch/ravanelm/exp/librispeech/s5/fmllr/train_clean_100/data/feats_fmllr_train_clean_100.4.ark:370969137
2843-152918-0092 /scratch/ravanelm/exp/librispeech/s5/fmllr/train_clean_100/data/feats_fmllr_train_clean_100.3.ark:452910698
4018-107312-0019 /scratch/ravanelm/exp/librispeech/s5/fmllr/train_clean_100/data/feats_fmllr_train_clean_100.5.ark:271144530
2007-149877-0055 /scratch/ravanelm/exp/librispeech/s5/fmllr/train_clean_100/data/feats_fmllr_train_clean_100.2.ark:389256150
6209-34601-0015 /scratch/ravanelm/exp/librispeech/s5/fmllr/train_clean_100/data/feats_fmllr_train_clean_100.7.ark:566808209
3436-172171-0034 /scratch/ravanelm/exp/librispeech/s5/fmllr/train_clean_100/data/feats_fmllr_train_clean_100.4.ark:403674993
2002-139469-0052 /scratch/ravanelm/exp/librispeech/s5/fmllr/train_clean_100/data/feats_fmllr_train_clean_100.2.ark:353385910
911-128684-0021 /scratch/ravanelm/exp/librispeech/s5/fmllr/train_clean_100/data/feats_fmllr_train_clean_100.10.ark:577476797
311-124404-0019 /scratch/ravanelm/exp/librispeech/s5/fmllr/train_clean_100/data/feats_fmllr_train_clean_100.4.ark:90425580
8419-293469-0023 /scratch/ravanelm/exp/librispeech/s5/fmllr/train_clean_100/data/feats_fmllr_train_clean_100.10.ark:192632819
405-130895-0035 /scratch/ravanelm/exp/librispeech/s5/fmllr/train_clean_100/data/feats_fmllr_train_clean_100.5.ark:330209814
302-123504-0022 /scratch/ravanelm/exp/librispeech/s5/fmllr/train_clean_100/data/feats_fmllr_train_clean_100.4.ark:43120246
233-155990-0032 /scratch/ravanelm/exp/librispeech/s5/fmllr/train_clean_100/data/feats_fmllr_train_clean_100.3.ark:79175787
7517-100437-0005 /scratch/ravanelm/exp/librispeech/s5/fmllr/train_clean_100/data/feats_fmllr_train_clean_100.9.ark:238895117
5789-70653-0031 /scratch/ravanelm/exp/librispeech/s5/fmllr/train_clean_100/data/feats_fmllr_train_clean_100.7.ark:294817335
27-124992-0026 /scratch/ravanelm/exp/librispeech/s5/fmllr/train_clean_100/data/feats_fmllr_train_clean_100.3.ark:356357828
6415-116629-0027 /scratch/ravanelm/exp/librispeech/s5/fmllr/train_clean_100/data/feats_fmllr_train_clean_100.8.ark:117641978
909-131044-0014 /scratch/ravanelm/exp/librispeech/s5/fmllr/train_clean_100/data/feats_fmllr_train_clean_100.10.ark:558687442
8609-262281-0019 /scratch/ravanelm/exp/librispeech/s5/fmllr/train_clean_100/data/feats_fmllr_train_clean_100.10.ark:293443859
7190-90542-0012 /scratch/ravanelm/exp/librispeech/s5/fmllr/train_clean_100/data/feats_fmllr_train_clean_100.8.ark:565348330
8975-270782-0004 /scratch/ravanelm/exp/librispeech/s5/fmllr/train_clean_100/data/feats_fmllr_train_clean_100.10.ark:525735265
1898-145724-0021 /scratch/ravanelm/exp/librispeech/s5/fmllr/train_clean_100/data/feats_fmllr_train_clean_100.2.ark:158543214
150-126112-0024 /scratch/ravanelm/exp/librispeech/s5/fmllr/train_clean_100/data/feats_fmllr_train_clean_100.1.ark:425640974
7078-271888-0032 /scratch/ravanelm/exp/librispeech/s5/fmllr/train_clean_100/data/feats_fmllr_train_clean_100.8.ark:474027408
1447-17506-0005 /scratch/ravanelm/exp/librispeech/s5/fmllr/train_clean_100/data/feats_fmllr_train_clean_100.1.ark:380886957
1578-6379-0018 /scratch/ravanelm/exp/librispeech/s5/fmllr/train_clean_100/data/feats_fmllr_train_clean_100.1.ark:498528856
78-369-0008 /scratch/ravanelm/exp/librispeech/s5/fmllr/train_clean_100/data/feats_fmllr_train_clean_100.9.ark:336859794
8770-295465-0011 /scratch/ravanelm/exp/librispeech/s5/fmllr/train_clean_100/data/feats_fmllr_train_clean_100.10.ark:424081179
730-358-0063 /scratch/ravanelm/exp/librispeech/s5/fmllr/train_clean_100/data/feats_fmllr_train_clean_100.9.ark:66082438
8465-246942-0002 /scratch/ravanelm/exp/librispeech/s5/fmllr/train_clean_100/data/feats_fmllr_train_clean_100.10.ark:229409523
78-369-0024 /scratch/ravanelm/exp/librispeech/s5/fmllr/train_clean_100/data/feats_fmllr_train_clean_100.9.ark:340264066
445-123860-0025 /scratch/ravanelm/exp/librispeech/s5/fmllr/train_clean_100/data/feats_fmllr_train_clean_100.6.ark:130664011
8226-274369-0054 /scratch/ravanelm/exp/librispeech/s5/fmllr/train_clean_100/data/feats_fmllr_train_clean_100.10.ark:21225937
4406-16882-0027 /scratch/ravanelm/exp/librispeech/s5/fmllr/train_clean_100/data/feats_fmllr_train_clean_100.6.ark:53613371
6081-41998-0028 /scratch/ravanelm/exp/librispeech/s5/fmllr/train_clean_100/data/feats_fmllr_train_clean_100.7.ark:489700470
2092-145706-0014 /scratch/ravanelm/exp/librispeech/s5/fmllr/train_clean_100/data/feats_fmllr_train_clean_100.2.ark:417875159
8123-275193-0019 /scratch/ravanelm/exp/librispeech/s5/fmllr/train_clean_100/data/feats_fmllr_train_clean_100.9.ark:556022239
2514-149482-0106 /scratch/ravanelm/exp/librispeech/s5/fmllr/train_clean_100/data/feats_fmllr_train_clean_100.3.ark:245525329
3857-180923-0027 /scratch/ravanelm/exp/librispeech/s5/fmllr/train_clean_100/data/feats_fmllr_train_clean_100.5.ark:74270852
2391-145015-0105 /scratch/ravanelm/exp/librispeech/s5/fmllr/train_clean_100/data/feats_fmllr_train_clean_100.3.ark:122374173
4267-78186-0020 /scratch/ravanelm/exp/librispeech/s5/fmllr/train_clean_100/data/feats_fmllr_train_clean_100.5.ark:533434482
2764-36617-0020 /scratch/ravanelm/exp/librispeech/s5/fmllr/train_clean_100/data/feats_fmllr_train_clean_100.3.ark:373582208
839-130898-0066 /scratch/ravanelm/exp/librispeech/s5/fmllr/train_clean_100/data/feats_fmllr_train_clean_100.10.ark:166753908
1841-159771-0014 /scratch/ravanelm/exp/librispeech/s5/fmllr/train_clean_100/data/feats_fmllr_train_clean_100.2.ark:99365582
5750-100289-0020 /scratch/ravanelm/exp/librispeech/s5/fmllr/train_clean_100/data/feats_fmllr_train_clean_100.7.ark:231585670
412-126975-0010 /scratch/ravanelm/exp/librispeech/s5/fmllr/train_clean_100/data/feats_fmllr_train_clean_100.5.ark:381124676
1355-39947-0036 /scratch/ravanelm/exp/librispeech/s5/fmllr/train_clean_100/data/feats_fmllr_train_clean_100.1.ark:328746896
2136-5147-0024 /scratch/ravanelm/exp/librispeech/s5/fmllr/train_clean_100/data/feats_fmllr_train_clean_100.2.ark:483447507
5652-19215-0020 /scratch/ravanelm/exp/librispeech/s5/fmllr/train_clean_100/data/feats_fmllr_train_clean_100.7.ark:134323595
8238-274553-0032 /scratch/ravanelm/exp/librispeech/s5/fmllr/train_clean_100/data/feats_fmllr_train_clean_100.10.ark:40731889
5104-33406-0033 /scratch/ravanelm/exp/librispeech/s5/fmllr/train_clean_100/data/feats_fmllr_train_clean_100.6.ark:483001835
1723-141149-0063 /scratch/ravanelm/exp/librispeech/s5/fmllr/train_clean_100/data/feats_fmllr_train_clean_100.2.ark:34569262
2416-152139-0008 /scratch/ravanelm/exp/librispeech/s5/fmllr/train_clean_100/data/feats_fmllr_train_clean_100.3.ark:135616509
5339-14134-0013 /scratch/ravanelm/exp/librispeech/s5/fmllr/train_clean_100/data/feats_fmllr_train_clean_100.6.ark:583073681
5322-7679-0008 /scratch/ravanelm/exp/librispeech/s5/fmllr/train_clean_100/data/feats_fmllr_train_clean_100.6.ark:556650840
8238-283452-0044 /scratch/ravanelm/exp/librispeech/s5/fmllr/train_clean_100/data/feats_fmllr_train_clean_100.10.ark:57680753
7226-86965-0031 /scratch/ravanelm/exp/librispeech/s5/fmllr/train_clean_100/data/feats_fmllr_train_clean_100.9.ark:6410897
8014-112602-0006 /scratch/ravanelm/exp/librispeech/s5/fmllr/train_clean_100/data/feats_fmllr_train_clean_100.9.ark:398710495
6181-216552-0102 /scratch/ravanelm/exp/librispeech/s5/fmllr/train_clean_100/data/feats_fmllr_train_clean_100.7.ark:545380876
5393-19218-0014 /scratch/ravanelm/exp/librispeech/s5/fmllr/train_clean_100/data/feats_fmllr_train_clean_100.7.ark:26892526
3879-173592-0009 /scratch/ravanelm/exp/librispeech/s5/fmllr/train_clean_100/data/feats_fmllr_train_clean_100.5.ark:94574596
1069-133709-0005 /scratch/ravanelm/exp/librispeech/s5/fmllr/train_clean_100/data/feats_fmllr_train_clean_100.1.ark:67248319
3242-67153-0001 /scratch/ravanelm/exp/librispeech/s5/fmllr/train_clean_100/data/feats_fmllr_train_clean_100.4.ark:276890835
26-495-0062 /scratch/ravanelm/exp/librispeech/s5/fmllr/train_clean_100/data/feats_fmllr_train_clean_100.3.ark:306449091
8108-274318-0032 /scratch/ravanelm/exp/librispeech/s5/fmllr/train_clean_100/data/feats_fmllr_train_clean_100.9.ark:535273695
87-121553-0067 /scratch/ravanelm/exp/librispeech/s5/fmllr/train_clean_100/data/feats_fmllr_train_clean_100.10.ark:375096395
298-126791-0010 /scratch/ravanelm/exp/librispeech/s5/fmllr/train_clean_100/data/feats_fmllr_train_clean_100.4.ark:1838566
1088-134315-0002 /scratch/ravanelm/exp/librispeech/s5/fmllr/train_clean_100/data/feats_fmllr_train_clean_100.1.ark:109438271
196-122150-0000 /scratch/ravanelm/exp/librispeech/s5/fmllr/train_clean_100/data/feats_fmllr_train_clean_100.2.ark:210015810
909-131045-0022 /scratch/ravanelm/exp/librispeech/s5/fmllr/train_clean_100/data/feats_fmllr_train_clean_100.10.ark:567914504
5393-19219-0053 /scratch/ravanelm/exp/librispeech/s5/fmllr/train_clean_100/data/feats_fmllr_train_clean_100.7.ark:46441737
6437-66173-0041 /scratch/ravanelm/exp/librispeech/s5/fmllr/train_clean_100/data/feats_fmllr_train_clean_100.8.ark:139307939
87-121553-0044 /scratch/ravanelm/exp/librispeech/s5/fmllr/train_clean_100/data/feats_fmllr_train_clean_100.10.ark:369664345
3240-131231-0062 /scratch/ravanelm/exp/librispeech/s5/fmllr/train_clean_100/data/feats_fmllr_train_clean_100.4.ark:263475765
3526-176653-0034 /scratch/ravanelm/exp/librispeech/s5/fmllr/train_clean_100/data/feats_fmllr_train_clean_100.4.ark:478331889
4014-186179-0014 /scratch/ravanelm/exp/librispeech/s5/fmllr/train_clean_100/data/feats_fmllr_train_clean_100.5.ark:248400914
3699-19402-0018 /scratch/ravanelm/exp/librispeech/s5/fmllr/train_clean_100/data/feats_fmllr_train_clean_100.4.ark:542107989
39-121916-0006 /scratch/ravanelm/exp/librispeech/s5/fmllr/train_clean_100/data/feats_fmllr_train_clean_100.5.ark:135430880
4297-13009-0057 /scratch/ravanelm/exp/librispeech/s5/fmllr/train_clean_100/data/feats_fmllr_train_clean_100.5.ark:559677082
5750-35690-0030 /scratch/ravanelm/exp/librispeech/s5/fmllr/train_clean_100/data/feats_fmllr_train_clean_100.7.ark:250722407
201-127786-0072 /scratch/ravanelm/exp/librispeech/s5/fmllr/train_clean_100/data/feats_fmllr_train_clean_100.2.ark:412404960
1098-133695-0061 /scratch/ravanelm/exp/librispeech/s5/fmllr/train_clean_100/data/feats_fmllr_train_clean_100.1.ark:138296191
32-4137-0030 /scratch/ravanelm/exp/librispeech/s5/fmllr/train_clean_100/data/feats_fmllr_train_clean_100.4.ark:175132208
6064-56165-0033 /scratch/ravanelm/exp/librispeech/s5/fmllr/train_clean_100/data/feats_fmllr_train_clean_100.7.ark:443393923
4297-13006-0033 /scratch/ravanelm/exp/librispeech/s5/fmllr/train_clean_100/data/feats_fmllr_train_clean_100.5.ark:544543103
4214-7146-0011 /scratch/ravanelm/exp/librispeech/s5/fmllr/train_clean_100/data/feats_fmllr_train_clean_100.5.ark:474569513
40-222-0041 /scratch/ravanelm/exp/librispeech/s5/fmllr/train_clean_100/data/feats_fmllr_train_clean_100.5.ark:228135353
7794-295947-0007 /scratch/ravanelm/exp/librispeech/s5/fmllr/train_clean_100/data/feats_fmllr_train_clean_100.9.ark:302218317
8051-295385-0006 /scratch/ravanelm/exp/librispeech/s5/fmllr/train_clean_100/data/feats_fmllr_train_clean_100.9.ark:424304479
4297-13006-0007 /scratch/ravanelm/exp/librispeech/s5/fmllr/train_clean_100/data/feats_fmllr_train_clean_100.5.ark:538924377
32-21634-0009 /scratch/ravanelm/exp/librispeech/s5/fmllr/train_clean_100/data/feats_fmllr_train_clean_100.4.ark:167677290
4014-186175-0026 /scratch/ravanelm/exp/librispeech/s5/fmllr/train_clean_100/data/feats_fmllr_train_clean_100.5.ark:238201906
7402-59171-0044 /scratch/ravanelm/exp/librispeech/s5/fmllr/train_clean_100/data/feats_fmllr_train_clean_100.9.ark:143810749
4640-19188-0028 /scratch/ravanelm/exp/librispeech/s5/fmllr/train_clean_100/data/feats_fmllr_train_clean_100.6.ark:230142339
1970-28415-0011 /scratch/ravanelm/exp/librispeech/s5/fmllr/train_clean_100/data/feats_fmllr_train_clean_100.2.ark:276496409
7226-86965-0006 /scratch/ravanelm/exp/librispeech/s5/fmllr/train_clean_100/data/feats_fmllr_train_clean_100.9.ark:1258282
3242-67153-0034 /scratch/ravanelm/exp/librispeech/s5/fmllr/train_clean_100/data/feats_fmllr_train_clean_100.4.ark:283813938
696-93314-0030 /scratch/ravanelm/exp/librispeech/s5/fmllr/train_clean_100/data/feats_fmllr_train_clean_100.8.ark:410461880
2092-145706-0055 /scratch/ravanelm/exp/librispeech/s5/fmllr/train_clean_100/data/feats_fmllr_train_clean_100.2.ark:427139671
6529-62556-0025 /scratch/ravanelm/exp/librispeech/s5/fmllr/train_clean_100/data/feats_fmllr_train_clean_100.8.ark:211261025
2196-174172-0005 /scratch/ravanelm/exp/librispeech/s5/fmllr/train_clean_100/data/feats_fmllr_train_clean_100.2.ark:550963699
2007-132570-0049 /scratch/ravanelm/exp/librispeech/s5/fmllr/train_clean_100/data/feats_fmllr_train_clean_100.2.ark:375848086
2384-152900-0063 /scratch/ravanelm/exp/librispeech/s5/fmllr/train_clean_100/data/feats_fmllr_train_clean_100.3.ark:96160829
5703-47198-0045 /scratch/ravanelm/exp/librispeech/s5/fmllr/train_clean_100/data/feats_fmllr_train_clean_100.7.ark:213157641
3699-19401-0011 /scratch/ravanelm/exp/librispeech/s5/fmllr/train_clean_100/data/feats_fmllr_train_clean_100.4.ark:534888055
3112-9555-0077 /scratch/ravanelm/exp/librispeech/s5/fmllr/train_clean_100/data/feats_fmllr_train_clean_100.4.ark:131193562
696-93314-0011 /scratch/ravanelm/exp/librispeech/s5/fmllr/train_clean_100/data/feats_fmllr_train_clean_100.8.ark:406287390
911-128684-0066 /scratch/ravanelm/exp/librispeech/s5/fmllr/train_clean_100/data/feats_fmllr_train_clean_100.10.ark:586254192
328-129766-0051 /scratch/ravanelm/exp/librispeech/s5/fmllr/train_clean_100/data/feats_fmllr_train_clean_100.4.ark:334407545
8580-287364-0023 /scratch/ravanelm/exp/librispeech/s5/fmllr/train_clean_100/data/feats_fmllr_train_clean_100.10.ark:283543667
6529-62554-0042 /scratch/ravanelm/exp/librispeech/s5/fmllr/train_clean_100/data/feats_fmllr_train_clean_100.8.ark:202182665
7113-86041-0034 /scratch/ravanelm/exp/librispeech/s5/fmllr/train_clean_100/data/feats_fmllr_train_clean_100.8.ark:498621037
3235-28452-0020 /scratch/ravanelm/exp/librispeech/s5/fmllr/train_clean_100/data/feats_fmllr_train_clean_100.4.ark:249604706
1867-154075-0037 /scratch/ravanelm/exp/librispeech/s5/fmllr/train_clean_100/data/feats_fmllr_train_clean_100.2.ark:136022894
4195-186236-0017 /scratch/ravanelm/exp/librispeech/s5/fmllr/train_clean_100/data/feats_fmllr_train_clean_100.5.ark:458757217
8468-294887-0028 /scratch/ravanelm/exp/librispeech/s5/fmllr/train_clean_100/data/feats_fmllr_train_clean_100.10.ark:260012499
211-122442-0054 /scratch/ravanelm/exp/librispeech/s5/fmllr/train_clean_100/data/feats_fmllr_train_clean_100.2.ark:459042798
1502-122619-0074 /scratch/ravanelm/exp/librispeech/s5/fmllr/train_clean_100/data/feats_fmllr_train_clean_100.1.ark:455733950
8324-286682-0001 /scratch/ravanelm/exp/librispeech/s5/fmllr/train_clean_100/data/feats_fmllr_train_clean_100.10.ark:136200439
1098-133695-0041 /scratch/ravanelm/exp/librispeech/s5/fmllr/train_clean_100/data/feats_fmllr_train_clean_100.1.ark:134366591
7505-258964-0009 /scratch/ravanelm/exp/librispeech/s5/fmllr/train_clean_100/data/feats_fmllr_train_clean_100.9.ark:192663592
1081-125237-0103 /scratch/ravanelm/exp/librispeech/s5/fmllr/train_clean_100/data/feats_fmllr_train_clean_100.1.ark:97191711
5104-33406-0018 /scratch/ravanelm/exp/librispeech/s5/fmllr/train_clean_100/data/feats_fmllr_train_clean_100.6.ark:480045850
1098-133695-0080 /scratch/ravanelm/exp/librispeech/s5/fmllr/train_clean_100/data/feats_fmllr_train_clean_100.1.ark:141893279
1455-134435-0027 /scratch/ravanelm/exp/librispeech/s5/fmllr/train_clean_100/data/feats_fmllr_train_clean_100.1.ark:391630192
3259-158083-0091 /scratch/ravanelm/exp/librispeech/s5/fmllr/train_clean_100/data/feats_fmllr_train_clean_100.4.ark:317582765
5390-30096-0025 /scratch/ravanelm/exp/librispeech/s5/fmllr/train_clean_100/data/feats_fmllr_train_clean_100.7.ark:15257221
322-124147-0080 /scratch/ravanelm/exp/librispeech/s5/fmllr/train_clean_100/data/feats_fmllr_train_clean_100.4.ark:227844073
1578-140049-0022 /scratch/ravanelm/exp/librispeech/s5/fmllr/train_clean_100/data/feats_fmllr_train_clean_100.1.ark:491519454
4830-25898-0007 /scratch/ravanelm/exp/librispeech/s5/fmllr/train_clean_100/data/feats_fmllr_train_clean_100.6.ark:339378716
5867-48852-0062 /scratch/ravanelm/exp/librispeech/s5/fmllr/train_clean_100/data/feats_fmllr_train_clean_100.7.ark:332619163
2159-179157-0019 /scratch/ravanelm/exp/librispeech/s5/fmllr/train_clean_100/data/feats_fmllr_train_clean_100.2.ark:507562419
8580-287364-0049 /scratch/ravanelm/exp/librispeech/s5/fmllr/train_clean_100/data/feats_fmllr_train_clean_100.10.ark:289297139
7859-102519-0016 /scratch/ravanelm/exp/librispeech/s5/fmllr/train_clean_100/data/feats_fmllr_train_clean_100.9.ark:382705823
4788-294466-0003 /scratch/ravanelm/exp/librispeech/s5/fmllr/train_clean_100/data/feats_fmllr_train_clean_100.6.ark:266229007
2989-138035-0039 /scratch/ravanelm/exp/librispeech/s5/fmllr/train_clean_100/data/feats_fmllr_train_clean_100.4.ark:32615405
196-122150-0029 /scratch/ravanelm/exp/librispeech/s5/fmllr/train_clean_100/data/feats_fmllr_train_clean_100.2.ark:216689029
1578-140045-0025 /scratch/ravanelm/exp/librispeech/s5/fmllr/train_clean_100/data/feats_fmllr_train_clean_100.1.ark:486023710
3242-8112-0034 /scratch/ravanelm/exp/librispeech/s5/fmllr/train_clean_100/data/feats_fmllr_train_clean_100.4.ark:298455681
5393-19218-0058 /scratch/ravanelm/exp/librispeech/s5/fmllr/train_clean_100/data/feats_fmllr_train_clean_100.7.ark:35698530
2817-142371-0018 /scratch/ravanelm/exp/librispeech/s5/fmllr/train_clean_100/data/feats_fmllr_train_clean_100.3.ark:389219236
311-124404-0119 /scratch/ravanelm/exp/librispeech/s5/fmllr/train_clean_100/data/feats_fmllr_train_clean_100.4.ark:110122120
4267-287369-0001 /scratch/ravanelm/exp/librispeech/s5/fmllr/train_clean_100/data/feats_fmllr_train_clean_100.5.ark:513470603
2416-152139-0067 /scratch/ravanelm/exp/librispeech/s5/fmllr/train_clean_100/data/feats_fmllr_train_clean_100.3.ark:148231997
3374-298025-0028 /scratch/ravanelm/exp/librispeech/s5/fmllr/train_clean_100/data/feats_fmllr_train_clean_100.4.ark:367274929
374-180298-0016 /scratch/ravanelm/exp/librispeech/s5/fmllr/train_clean_100/data/feats_fmllr_train_clean_100.5.ark:3614432
3168-173565-0004 /scratch/ravanelm/exp/librispeech/s5/fmllr/train_clean_100/data/feats_fmllr_train_clean_100.4.ark:145430554
