# lattice-lmrescore --lm-scale=-1.0 "ark:gunzip -c /u/ravanelm/pytorch-kaldi-new/exp/libri_GRU_fmllr/decode_test_clean_out_dnn2//lat.2.gz|" "fstproject --project_output=true /data/milatmp1/ravanelm/librispeech/s5/data//lang_test_tgsmall/G.fst |" ark:- | lattice-lmrescore-const-arpa --lm-scale=1.0 ark:- /data/milatmp1/ravanelm/librispeech/s5/data//lang_test_fglarge/G.carpa "ark,t:|gzip -c>/u/ravanelm/pytorch-kaldi-new/exp/libri_GRU_fmllr//decode_test_clean_fglarge/lat.2.gz" 
# Started at Mon Oct 29 17:36:30 EDT 2018
#
lattice-lmrescore --lm-scale=-1.0 'ark:gunzip -c /u/ravanelm/pytorch-kaldi-new/exp/libri_GRU_fmllr/decode_test_clean_out_dnn2//lat.2.gz|' 'fstproject --project_output=true /data/milatmp1/ravanelm/librispeech/s5/data//lang_test_tgsmall/G.fst |' ark:- 
lattice-lmrescore-const-arpa --lm-scale=1.0 ark:- /data/milatmp1/ravanelm/librispeech/s5/data//lang_test_fglarge/G.carpa 'ark,t:|gzip -c>/u/ravanelm/pytorch-kaldi-new/exp/libri_GRU_fmllr//decode_test_clean_fglarge/lat.2.gz' 
LOG (lattice-lmrescore[5.4.3~1-09b01]:main():lattice-lmrescore.cc:148) Done 327 lattices, failed for 0
LOG (lattice-lmrescore-const-arpa[5.4.3~1-09b01]:main():lattice-lmrescore-const-arpa.cc:117) Done 327 lattices, failed for 0
# Accounting: time=124 threads=1
# Ended (code 0) at Mon Oct 29 17:38:35 EDT 2018, elapsed time 124 seconds
