# cat /u/ravanelm/pytorch-kaldi-new/exp/libri_liGRU_fmllr//decode_test_clean_fglarge/scoring/16.1.0.tra | utils/int2sym.pl -f 2- /data/milatmp1/ravanelm/librispeech/s5/data//lang_test_fglarge/words.txt | sed s:\<UNK\>::g | compute-wer --text --mode=present ark:/u/ravanelm/pytorch-kaldi-new/exp/libri_liGRU_fmllr//decode_test_clean_fglarge/scoring/test_filt.txt ark,p:- >& /u/ravanelm/pytorch-kaldi-new/exp/libri_liGRU_fmllr//decode_test_clean_fglarge/wer_16_1.0 
# Started at Mon Oct 29 20:06:52 EDT 2018
#
# Accounting: time=1 threads=1
# Ended (code 0) at Mon Oct 29 20:06:53 EDT 2018, elapsed time 1 seconds
