# cat /scratch/ravanelm/pytorch-kaldi-new/exp/libri_fmllr/decode_test_clean_out_dnn1/scoring/16.0.5.tra | utils/int2sym.pl -f 2- /scratch/ravanelm/exp/librispeech/s5/exp/tri4b/graph_tgsmall/words.txt | sed s:\<UNK\>::g | compute-wer --text --mode=present ark:/scratch/ravanelm/pytorch-kaldi-new/exp/libri_fmllr/decode_test_clean_out_dnn1/scoring/test_filt.txt ark,p:- >& /scratch/ravanelm/pytorch-kaldi-new/exp/libri_fmllr/decode_test_clean_out_dnn1/wer_16_0.5 
# Started at Tue Oct  9 11:49:45 PDT 2018
#
# Accounting: time=6 threads=1
# Ended (code 0) at Tue Oct  9 11:49:51 PDT 2018, elapsed time 6 seconds
