# cat /scratch/ravanelm/pytorch-kaldi-new/exp/libri_GRU_fmllr/decode_test_clean_out_dnn2/scoring/15.0.5.tra | utils/int2sym.pl -f 2- /scratch/ravanelm/exp/librispeech/s5/exp/tri4b/graph_tgsmall/words.txt | sed s:\<UNK\>::g | compute-wer --text --mode=present ark:/scratch/ravanelm/pytorch-kaldi-new/exp/libri_GRU_fmllr/decode_test_clean_out_dnn2/scoring/test_filt.txt ark,p:- >& /scratch/ravanelm/pytorch-kaldi-new/exp/libri_GRU_fmllr/decode_test_clean_out_dnn2/wer_15_0.5 
# Started at Sun Oct 14 16:49:47 PDT 2018
#
# Accounting: time=8 threads=1
# Ended (code 0) at Sun Oct 14 16:49:55 PDT 2018, elapsed time 8 seconds
